HTTP/1.1 200 OK
Content-Type: application/json;charset=utf-8
Transfer-Encoding: chunked
Connection: close
Server: openresty
x-memc: MISS, STORE
x-memc-key: 9c20641748f6344439733bb7bbfc0ffae53a8fbcfd1a9404f9df23e8715b0789
x-memc-age: 0
x-memc-expires: 600
x-az: us-east-1b
x-task-id: b8242b4982bb449b83edb73b5551b01a
Date: Tue, 09 Dec 2025 15:22:22 GMT
Cache-Control: public, max-age=476
ETag: W/"c9cfa9d4bf5bb474ab60f1d575b30888"
Vary: accept-encoding
Vary: Origin
X-Cache: RefreshHit from cloudfront
Via: 1.1 7e7ba163f7cdb4f59c418e3f1e0e1656.cloudfront.net (CloudFront)
X-Amz-Cf-Pop: MAD53-P8
Alt-Svc: h3=":443"; ma=86400
X-Amz-Cf-Id: 2f_VnTCVaJnp8hInpHLYSDbtqXAoyT2BfFbTPXP_0ogxZ7R1vOP1Aw==
Content-Length: 2941

{"results":[{"id":5864047,"adult":false},{"id":5864048,"adult":false},{"id":2171462,"adult":false},{"id":3218871,"adult":false},{"id":4733204,"adult":false},{"id":5864049,"adult":false},{"id":2757464,"adult":null},{"id":2757465,"adult":null},{"id":228471,"adult":false},{"id":84179,"adult":false},{"id":5864050,"adult":false},{"id":5864051,"adult":false},{"id":2757467,"adult":null},{"id":3932519,"adult":false},{"id":4527157,"adult":false},{"id":2757469,"adult":null},{"id":2740420,"adult":false},{"id":3817660,"adult":false},{"id":2166826,"adult":false},{"id":5864052,"adult":false},{"id":3637923,"adult":false},{"id":4526791,"adult":false},{"id":2193667,"adult":false},{"id":1854398,"adult":null},{"id":2757471,"adult":null},{"id":1416931,"adult":false},{"id":4181471,"adult":false},{"id":3546626,"adult":false},{"id":183346,"adult":false},{"id":1238145,"adult":false},{"id":5864053,"adult":false},{"id":3849144,"adult":false},{"id":5864054,"adult":false},{"id":5864055,"adult":false},{"id":4102381,"adult":false},{"id":1380452,"adult":false},{"id":4103579,"adult":false},{"id":3497487,"adult":false},{"id":143803,"adult":false},{"id":5864056,"adult":true},{"id":5864057,"adult":false},{"id":5864058,"adult":false},{"id":5864059,"adult":false},{"id":5864060,"adult":false},{"id":1258448,"adult":false},{"id":5864061,"adult":false},{"id":5864062,"adult":false},{"id":5864063,"adult":false},{"id":3742671,"adult":false},{"id":4714593,"adult":false},{"id":5864064,"adult":false},{"id":4714555,"adult":false},{"id":3414971,"adult":false},{"id":5864065,"adult":false},{"id":4715656,"adult":false},{"id":5864066,"adult":false},{"id":5864067,"adult":false},{"id":5864068,"adult":false},{"id":5797416,"adult":false},{"id":5823995,"adult":false},{"id":5864069,"adult":false},{"id":5864070,"adult":false},{"id":5864071,"adult":false},{"id":5208633,"adult":false},{"id":5864072,"adult":false},{"id":4185593,"adult":false},{"id":5864073,"adult":false},{"id":5864074,"adult":false},{"id":1274126,"adult":false},{"id":5864075,"adult":false},{"id":2576410,"adult":false},{"id":5350457,"adult":false},{"id":3147638,"adult":false},{"id":5864076,"adult":false},{"id":5837943,"adult":false},{"id":1089514,"adult":false},{"id":5864077,"adult":false},{"id":5864078,"adult":false},{"id":2535,"adult":false},{"id":4394336,"adult":false},{"id":21015,"adult":false},{"id":2463398,"adult":false},{"id":3720388,"adult":false},{"id":5864079,"adult":false},{"id":3566189,"adult":false},{"id":3701723,"adult":false},{"id":2084786,"adult":false},{"id":4109059,"adult":false},{"id":4109060,"adult":false},{"id":4276080,"adult":false},{"id":4276176,"adult":false},{"id":4276040,"adult":false},{"id":4538052,"adult":false},{"id":2164757,"adult":false},{"id":1900954,"adult":false},{"id":5864080,"adult":false},{"id":3843735,"adult":false},{"id":5864081,"adult":false},{"id":5863546,"adult":null},{"id":5863539,"adult":null}],"page":5,"total_pages":69,"total_results":6860}