HTTP/1.1 200 OK
Content-Type: application/json;charset=utf-8
Transfer-Encoding: chunked
Connection: close
Server: openresty
x-memc: MISS, STORE
x-memc-key: 7970015f6904c57163cc9beee82ef914077c3184686af2a03a0f8b930291b144
x-memc-age: 0
x-memc-expires: 600
x-az: us-east-1a
x-task-id: b0eafb7727e14bcabac0e4abd1a9419d
Date: Tue, 09 Dec 2025 15:22:25 GMT
Cache-Control: public, max-age=483
ETag: W/"41ee497a86ab44ca64c6d8cb62acaf21"
Vary: accept-encoding
Vary: Origin
X-Cache: RefreshHit from cloudfront
Via: 1.1 8651dec5501a9be54b46f44ea7098ae2.cloudfront.net (CloudFront)
X-Amz-Cf-Pop: MAD53-P8
Alt-Svc: h3=":443"; ma=86400
X-Amz-Cf-Id: Dyp4F6B2seRhkcXXUN6hJbE-E0igLdfiWm1VQBe5JcNmg-oYHLdRww==
Content-Length: 2937

{"results":[{"id":95867,"adult":false},{"id":4342671,"adult":false},{"id":95868,"adult":true},{"id":5864661,"adult":false},{"id":5864662,"adult":false},{"id":95866,"adult":false},{"id":1871914,"adult":false},{"id":5733119,"adult":false},{"id":4323830,"adult":false},{"id":4637921,"adult":false},{"id":1924691,"adult":false},{"id":5864663,"adult":false},{"id":5864664,"adult":false},{"id":5864665,"adult":false},{"id":3136124,"adult":false},{"id":5864666,"adult":false},{"id":2400179,"adult":false},{"id":2681504,"adult":false},{"id":1124884,"adult":false},{"id":4988770,"adult":false},{"id":1276093,"adult":false},{"id":5864667,"adult":false},{"id":3684136,"adult":false},{"id":4561713,"adult":false},{"id":5864668,"adult":false},{"id":5251731,"adult":false},{"id":1591439,"adult":false},{"id":5864669,"adult":false},{"id":5144266,"adult":false},{"id":5864670,"adult":false},{"id":5864671,"adult":true},{"id":4551455,"adult":false},{"id":5864672,"adult":true},{"id":1551547,"adult":false},{"id":1842670,"adult":false},{"id":1577259,"adult":false},{"id":5864673,"adult":false},{"id":1030492,"adult":false},{"id":1310913,"adult":false},{"id":4444838,"adult":false},{"id":4444846,"adult":false},{"id":4444851,"adult":false},{"id":4444853,"adult":false},{"id":3812056,"adult":true},{"id":3681968,"adult":false},{"id":4444858,"adult":false},{"id":5864674,"adult":true},{"id":4444862,"adult":false},{"id":2935242,"adult":false},{"id":4444863,"adult":false},{"id":4444867,"adult":false},{"id":1492819,"adult":false},{"id":2909665,"adult":false},{"id":4752571,"adult":false},{"id":3001904,"adult":false},{"id":1511028,"adult":false},{"id":5864675,"adult":false},{"id":2758686,"adult":false},{"id":2758685,"adult":false},{"id":3509634,"adult":false},{"id":856126,"adult":false},{"id":2300741,"adult":false},{"id":228134,"adult":false},{"id":3489561,"adult":false},{"id":5864676,"adult":false},{"id":2321372,"adult":false},{"id":3649390,"adult":false},{"id":1234753,"adult":false},{"id":1933433,"adult":false},{"id":417,"adult":false},{"id":5864677,"adult":false},{"id":5561471,"adult":null},{"id":1669484,"adult":false},{"id":1646439,"adult":false},{"id":1995026,"adult":false},{"id":1995232,"adult":false},{"id":5864678,"adult":false},{"id":2066739,"adult":false},{"id":3277427,"adult":true},{"id":2045632,"adult":false},{"id":5864679,"adult":false},{"id":2349453,"adult":false},{"id":590473,"adult":false},{"id":3676000,"adult":false},{"id":1511697,"adult":false},{"id":1197616,"adult":false},{"id":5864680,"adult":false},{"id":5864681,"adult":true},{"id":2431308,"adult":false},{"id":5864682,"adult":true},{"id":2016877,"adult":false},{"id":5613644,"adult":false},{"id":1914336,"adult":false},{"id":2044380,"adult":false},{"id":2668449,"adult":false},{"id":568652,"adult":false},{"id":1741390,"adult":false},{"id":5864683,"adult":true},{"id":3352136,"adult":false},{"id":3920279,"adult":false}],"page":26,"total_pages":69,"total_results":6860}