HTTP/1.1 200 OK
Content-Type: application/json;charset=utf-8
Transfer-Encoding: chunked
Connection: close
Server: openresty
x-memc: MISS, STORE
x-memc-key: bab379df2d478d67a9755f7c2f3aeee04d3923bee5137b3aebb1886577f53705
x-memc-age: 0
x-memc-expires: 600
x-az: us-east-1c
x-task-id: 48fdd9e15ea14727904ecaf7e5ce09a1
Date: Tue, 09 Dec 2025 15:07:16 GMT
Cache-Control: public, max-age=600
ETag: W/"63d3b189e3d54d19069caa043f3f6b31"
Vary: accept-encoding
Vary: Origin
X-Cache: Hit from cloudfront
Via: 1.1 8651dec5501a9be54b46f44ea7098ae2.cloudfront.net (CloudFront)
X-Amz-Cf-Pop: MAD53-P8
Alt-Svc: h3=":443"; ma=86400
X-Amz-Cf-Id: 8obuISYxpxHPkGmqbg2vbfuydbblHpMK0Odwh4jASyDp_fGiHntWRg==
Age: 459
Content-Length: 2941

{"results":[{"id":3323213,"adult":false},{"id":4674222,"adult":false},{"id":936460,"adult":false},{"id":1445097,"adult":false},{"id":1398836,"adult":false},{"id":1372369,"adult":false},{"id":15735,"adult":false},{"id":3092494,"adult":false},{"id":5796300,"adult":false},{"id":5573993,"adult":false},{"id":4693280,"adult":false},{"id":4693289,"adult":false},{"id":4693301,"adult":false},{"id":4693302,"adult":false},{"id":4693304,"adult":false},{"id":4693309,"adult":false},{"id":4693313,"adult":false},{"id":3493378,"adult":false},{"id":936458,"adult":false},{"id":5864267,"adult":false},{"id":3158687,"adult":false},{"id":3819165,"adult":false},{"id":4151947,"adult":false},{"id":1583428,"adult":false},{"id":5103321,"adult":false},{"id":2855626,"adult":true},{"id":998501,"adult":false},{"id":5864268,"adult":false},{"id":5864269,"adult":false},{"id":5864270,"adult":false},{"id":2054874,"adult":false},{"id":5864271,"adult":false},{"id":5864272,"adult":false},{"id":5864273,"adult":false},{"id":5864274,"adult":false},{"id":4124544,"adult":false},{"id":5864275,"adult":false},{"id":5829918,"adult":false},{"id":5864276,"adult":false},{"id":5864277,"adult":false},{"id":5864278,"adult":false},{"id":5864279,"adult":false},{"id":2171046,"adult":false},{"id":5864280,"adult":false},{"id":5861604,"adult":false},{"id":2076895,"adult":false},{"id":1596496,"adult":false},{"id":2059103,"adult":false},{"id":5864281,"adult":false},{"id":1261023,"adult":false},{"id":1898115,"adult":false},{"id":150453,"adult":false},{"id":5864282,"adult":false},{"id":5864283,"adult":false},{"id":5864284,"adult":false},{"id":3392487,"adult":false},{"id":5864285,"adult":false},{"id":289,"adult":false},{"id":4613958,"adult":false},{"id":4609976,"adult":false},{"id":1902903,"adult":false},{"id":5864286,"adult":false},{"id":5864287,"adult":false},{"id":1583864,"adult":false},{"id":4180280,"adult":false},{"id":1727769,"adult":false},{"id":1428374,"adult":false},{"id":1108240,"adult":false},{"id":1588812,"adult":false},{"id":5864288,"adult":false},{"id":3109225,"adult":false},{"id":5799522,"adult":false},{"id":5864289,"adult":false},{"id":5864290,"adult":false},{"id":4898419,"adult":false},{"id":5864291,"adult":false},{"id":4993585,"adult":false},{"id":1986604,"adult":false},{"id":5864292,"adult":false},{"id":1202147,"adult":false},{"id":4848281,"adult":false},{"id":5864293,"adult":false},{"id":5843534,"adult":false},{"id":2377603,"adult":false},{"id":2403215,"adult":false},{"id":5864294,"adult":false},{"id":2313863,"adult":false},{"id":1231,"adult":false},{"id":5864295,"adult":null},{"id":5864296,"adult":false},{"id":2725,"adult":false},{"id":5860516,"adult":null},{"id":5864297,"adult":false},{"id":5864298,"adult":false},{"id":1907775,"adult":false},{"id":5864299,"adult":false},{"id":3992329,"adult":false},{"id":5864300,"adult":false},{"id":5864301,"adult":false},{"id":3320162,"adult":null}],"page":13,"total_pages":69,"total_results":6860}