HTTP/1.1 200 OK
Content-Type: application/json;charset=utf-8
Transfer-Encoding: chunked
Connection: close
Server: openresty
x-memc: MISS, STORE
x-memc-key: 00271ea19bcefb7b1dc3e52d79b947e763ae3a52743805e84764030b7292316d
x-memc-age: 0
x-memc-expires: 600
x-az: us-east-1c
x-task-id: 9b5a405761724a11a434fc2769395065
Date: Tue, 09 Dec 2025 15:07:17 GMT
Cache-Control: public, max-age=600
ETag: W/"90cf802dbda308ce0c619b5b2112a8e3"
Vary: accept-encoding
Vary: Origin
X-Cache: Hit from cloudfront
Via: 1.1 8dd6c31efab2c0e3b91356d912029cae.cloudfront.net (CloudFront)
X-Amz-Cf-Pop: MAD53-P8
Alt-Svc: h3=":443"; ma=86400
X-Amz-Cf-Id: wjnQKyt2JUUxP3C-DigCycwY80EaCdgz6344ZXSjXsrdPjI0J3g5wQ==
Age: 459
Content-Length: 2912

{"results":[{"id":1488905,"adult":false},{"id":2049918,"adult":false},{"id":5864400,"adult":false},{"id":5116299,"adult":null},{"id":1155486,"adult":false},{"id":149265,"adult":false},{"id":5864401,"adult":false},{"id":5864402,"adult":false},{"id":1759978,"adult":false},{"id":2918547,"adult":false},{"id":2918548,"adult":false},{"id":4757,"adult":false},{"id":5864403,"adult":false},{"id":5864404,"adult":false},{"id":1625851,"adult":false},{"id":107730,"adult":false},{"id":5864405,"adult":false},{"id":2710707,"adult":false},{"id":94062,"adult":false},{"id":5864406,"adult":false},{"id":1858743,"adult":false},{"id":3016767,"adult":false},{"id":5857085,"adult":null},{"id":5857086,"adult":null},{"id":6104,"adult":false},{"id":5864407,"adult":false},{"id":3973890,"adult":false},{"id":5864408,"adult":false},{"id":1315042,"adult":false},{"id":56876,"adult":false},{"id":5864409,"adult":false},{"id":2091140,"adult":false},{"id":5864410,"adult":false},{"id":1728641,"adult":false},{"id":5864411,"adult":false},{"id":4989872,"adult":null},{"id":1197990,"adult":false},{"id":3388295,"adult":false},{"id":5864412,"adult":false},{"id":5061723,"adult":null},{"id":5864413,"adult":false},{"id":5061722,"adult":null},{"id":5061703,"adult":null},{"id":5061667,"adult":null},{"id":5864414,"adult":false},{"id":5864415,"adult":false},{"id":5864416,"adult":false},{"id":18726,"adult":false},{"id":5400171,"adult":false},{"id":544687,"adult":false},{"id":5699418,"adult":null},{"id":5699328,"adult":null},{"id":5699407,"adult":null},{"id":5699373,"adult":null},{"id":5699374,"adult":null},{"id":5699384,"adult":null},{"id":5849229,"adult":false},{"id":5864417,"adult":false},{"id":5699423,"adult":null},{"id":5699439,"adult":null},{"id":5864418,"adult":false},{"id":5228503,"adult":false},{"id":2919821,"adult":false},{"id":5153125,"adult":null},{"id":5864419,"adult":false},{"id":5864420,"adult":false},{"id":5864421,"adult":false},{"id":4135586,"adult":false},{"id":5841498,"adult":null},{"id":5841509,"adult":null},{"id":5841512,"adult":null},{"id":5841513,"adult":null},{"id":5841536,"adult":null},{"id":4059777,"adult":false},{"id":5845826,"adult":false},{"id":5864422,"adult":false},{"id":5864423,"adult":false},{"id":5841482,"adult":null},{"id":5841493,"adult":null},{"id":12079,"adult":false},{"id":5841495,"adult":null},{"id":1581683,"adult":false},{"id":5841229,"adult":null},{"id":5841231,"adult":null},{"id":5841238,"adult":null},{"id":5841248,"adult":null},{"id":5841267,"adult":null},{"id":5699324,"adult":null},{"id":1006054,"adult":false},{"id":4009238,"adult":false},{"id":4009250,"adult":false},{"id":1970103,"adult":false},{"id":1856732,"adult":false},{"id":134886,"adult":false},{"id":5864424,"adult":false},{"id":2342141,"adult":false},{"id":2828299,"adult":false},{"id":2465464,"adult":false},{"id":2084820,"adult":false},{"id":4585686,"adult":false}],"page":18,"total_pages":69,"total_results":6860}