HTTP/1.1 200 OK
Content-Type: application/json;charset=utf-8
Transfer-Encoding: chunked
Connection: close
Date: Tue, 09 Dec 2025 14:43:52 GMT
Server: openresty
Cache-Control: public, max-age=86400
x-memc: MISS, STORE
x-memc-key: 8465840c8d7b629cc4465b2f23aca8de0a0a5b98eece0ea743f89c08e1920bb1
x-memc-age: 0
x-memc-expires: 86400
x-az: us-east-1b
x-task-id: b8242b4982bb449b83edb73b5551b01a
ETag: W/"f1ac5626251081fdf82b8ac5990fc414"
Vary: accept-encoding
Vary: Origin
X-Cache: Hit from cloudfront
Via: 1.1 b36b68631c5d4e671b86b622ad61723a.cloudfront.net (CloudFront)
X-Amz-Cf-Pop: MAD53-P8
Alt-Svc: h3=":443"; ma=86400
X-Amz-Cf-Id: 7nD4nYo0PyYF5Yk7KzhJq6P9NL2HL0_ZorGCOCcIvop5TIvGEFpSng==
Age: 2309
Content-Length: 2742

{"results":[{"id":71446,"adult":false},{"id":60572,"adult":false},{"id":1420,"adult":false},{"id":1403,"adult":false},{"id":65876,"adult":false},{"id":1415,"adult":false},{"id":60708,"adult":false},{"id":78136,"adult":false},{"id":2661,"adult":false},{"id":79578,"adult":false},{"id":73117,"adult":false},{"id":45253,"adult":null},{"id":79697,"adult":null},{"id":15003,"adult":false},{"id":70485,"adult":false},{"id":70371,"adult":false},{"id":78385,"adult":false},{"id":73954,"adult":null},{"id":77601,"adult":false},{"id":75968,"adult":false},{"id":63174,"adult":false},{"id":78796,"adult":false},{"id":77735,"adult":false},{"id":77548,"adult":false},{"id":1855,"adult":false},{"id":66434,"adult":false},{"id":78583,"adult":false},{"id":40026,"adult":false},{"id":68952,"adult":false},{"id":55582,"adult":false},{"id":79696,"adult":false},{"id":70500,"adult":false},{"id":4057,"adult":false},{"id":79698,"adult":false},{"id":62783,"adult":false},{"id":61692,"adult":false},{"id":64435,"adult":false},{"id":63038,"adult":false},{"id":62771,"adult":false},{"id":32716,"adult":false},{"id":32415,"adult":false},{"id":40420,"adult":false},{"id":72792,"adult":false},{"id":79699,"adult":false},{"id":61499,"adult":false},{"id":47316,"adult":false},{"id":19355,"adult":false},{"id":68286,"adult":false},{"id":37854,"adult":false},{"id":74926,"adult":null},{"id":78964,"adult":null},{"id":32062,"adult":false},{"id":63639,"adult":false},{"id":61922,"adult":false},{"id":43916,"adult":false},{"id":69050,"adult":false},{"id":18408,"adult":false},{"id":72002,"adult":false},{"id":79700,"adult":null},{"id":69478,"adult":false},{"id":79701,"adult":false},{"id":63210,"adult":false},{"id":79702,"adult":null},{"id":67026,"adult":false},{"id":78824,"adult":false},{"id":43217,"adult":false},{"id":65466,"adult":false},{"id":68467,"adult":false},{"id":20313,"adult":false},{"id":71181,"adult":false},{"id":61664,"adult":false},{"id":21731,"adult":false},{"id":38472,"adult":false},{"id":56570,"adult":false},{"id":5311,"adult":false},{"id":13674,"adult":false},{"id":40161,"adult":false},{"id":74577,"adult":false},{"id":3313,"adult":false},{"id":74204,"adult":false},{"id":1425,"adult":false},{"id":72339,"adult":false},{"id":79126,"adult":false},{"id":71680,"adult":false},{"id":71577,"adult":false},{"id":62838,"adult":false},{"id":62511,"adult":false},{"id":63247,"adult":false},{"id":64002,"adult":false},{"id":28594,"adult":false},{"id":79703,"adult":false},{"id":70523,"adult":false},{"id":56296,"adult":false},{"id":79704,"adult":false},{"id":65294,"adult":false},{"id":76062,"adult":false},{"id":16395,"adult":false},{"id":71225,"adult":false},{"id":32954,"adult":false},{"id":61889,"adult":false}],"page":1,"total_pages":5,"total_results":486}