HTTP/1.1 200 OK
Content-Type: application/json;charset=utf-8
Transfer-Encoding: chunked
Connection: close
Server: openresty
x-memc: MISS, STORE
x-memc-key: 638722e42d45f3b2ec7a81526aef21768a0f32e81d9521bd546eaeeed339f319
x-memc-age: 0
x-memc-expires: 600
x-az: us-east-1b
x-task-id: 67325ed8fae54d21938cb70a8a8db3b9
Date: Tue, 09 Dec 2025 15:07:22 GMT
Cache-Control: public, max-age=600
ETag: W/"054f1a4206c9226d64cfa0b86af31b26"
Vary: accept-encoding
Vary: Origin
X-Cache: Hit from cloudfront
Via: 1.1 af27d8f497c4d326909accf8eaaccca4.cloudfront.net (CloudFront)
X-Amz-Cf-Pop: MAD53-P8
Alt-Svc: h3=":443"; ma=86400
X-Amz-Cf-Id: P5cUbxzGA6C7yynapIxkjb7ljy1Fn0wDg7P6VJqzex6Ew0x-SEe2SA==
Age: 455
Content-Length: 2933

{"results":[{"id":146516,"adult":false},{"id":4475567,"adult":false},{"id":5865673,"adult":false},{"id":1178531,"adult":false},{"id":58723,"adult":false},{"id":180359,"adult":false},{"id":102448,"adult":false},{"id":129928,"adult":false},{"id":5844907,"adult":false},{"id":12793,"adult":false},{"id":57532,"adult":false},{"id":11248,"adult":false},{"id":568418,"adult":false},{"id":5865674,"adult":false},{"id":15486,"adult":false},{"id":1610373,"adult":false},{"id":2731955,"adult":false},{"id":5865675,"adult":false},{"id":2951325,"adult":false},{"id":57763,"adult":false},{"id":5865676,"adult":false},{"id":5865677,"adult":false},{"id":5865678,"adult":false},{"id":5865679,"adult":false},{"id":1834657,"adult":false},{"id":5865680,"adult":false},{"id":1751546,"adult":false},{"id":5865681,"adult":false},{"id":5865682,"adult":false},{"id":53328,"adult":false},{"id":5865683,"adult":false},{"id":5865684,"adult":false},{"id":5865685,"adult":false},{"id":5865686,"adult":false},{"id":5865687,"adult":false},{"id":1308531,"adult":false},{"id":5865688,"adult":false},{"id":103223,"adult":true},{"id":5865689,"adult":false},{"id":5865690,"adult":false},{"id":5865691,"adult":false},{"id":5865692,"adult":false},{"id":5865693,"adult":false},{"id":5865694,"adult":false},{"id":5865695,"adult":false},{"id":3669493,"adult":false},{"id":933861,"adult":true},{"id":5865696,"adult":false},{"id":1494060,"adult":false},{"id":5865697,"adult":false},{"id":5865698,"adult":false},{"id":5865699,"adult":false},{"id":5761795,"adult":false},{"id":5865700,"adult":false},{"id":5865701,"adult":false},{"id":5761794,"adult":false},{"id":5865702,"adult":false},{"id":5865703,"adult":false},{"id":5865704,"adult":false},{"id":5865705,"adult":false},{"id":5865706,"adult":false},{"id":5865707,"adult":false},{"id":5865708,"adult":false},{"id":5865709,"adult":false},{"id":5865710,"adult":false},{"id":5865711,"adult":false},{"id":5865712,"adult":false},{"id":5865713,"adult":false},{"id":5865714,"adult":false},{"id":5865715,"adult":false},{"id":5865716,"adult":false},{"id":5865717,"adult":false},{"id":5865718,"adult":false},{"id":31079,"adult":false},{"id":5865719,"adult":false},{"id":5865720,"adult":false},{"id":5865721,"adult":false},{"id":5865722,"adult":false},{"id":5865723,"adult":false},{"id":5865724,"adult":false},{"id":5865725,"adult":false},{"id":5865726,"adult":false},{"id":5865727,"adult":false},{"id":5865728,"adult":false},{"id":5865729,"adult":false},{"id":5865730,"adult":false},{"id":5865731,"adult":false},{"id":3806820,"adult":true},{"id":5865732,"adult":false},{"id":5865733,"adult":false},{"id":5723302,"adult":false},{"id":3825194,"adult":true},{"id":5865734,"adult":false},{"id":5865735,"adult":false},{"id":5865736,"adult":false},{"id":1401503,"adult":false},{"id":2444615,"adult":false},{"id":4504162,"adult":false},{"id":140984,"adult":false},{"id":5865737,"adult":false}],"page":45,"total_pages":69,"total_results":6860}