HTTP/1.1 200 OK
Content-Type: application/json;charset=utf-8
Transfer-Encoding: chunked
Connection: close
Server: openresty
x-memc: MISS, STORE
x-memc-key: af505c3ea4f2da955184a3f8793ce36f9cf461abf0c5ff163d5fbd419b7b77fa
x-memc-age: 0
x-memc-expires: 600
x-az: us-east-1c
x-task-id: 9b5a405761724a11a434fc2769395065
Date: Tue, 09 Dec 2025 15:07:26 GMT
Cache-Control: public, max-age=600
ETag: W/"64ffef9cc5c7c7ae3e19f051a7d1e975"
Vary: accept-encoding
Vary: Origin
X-Cache: Hit from cloudfront
Via: 1.1 ab1aa335aa7cf217c3ce07ab38ba2f80.cloudfront.net (CloudFront)
X-Amz-Cf-Pop: MAD53-P8
Alt-Svc: h3=":443"; ma=86400
X-Amz-Cf-Id: 55Y0sGlg68Pgc9XcNw31lH5WISxBOqIPhwS9TaThEQ1gl1PprMXUOQ==
Age: 452
Content-Length: 2929

{"results":[{"id":5866766,"adult":false},{"id":5866767,"adult":false},{"id":5866768,"adult":false},{"id":5866769,"adult":false},{"id":5866770,"adult":false},{"id":5866771,"adult":false},{"id":5866772,"adult":false},{"id":5866773,"adult":false},{"id":5866774,"adult":false},{"id":4343537,"adult":false},{"id":5866775,"adult":false},{"id":5866776,"adult":false},{"id":5866777,"adult":false},{"id":5866778,"adult":false},{"id":5866779,"adult":false},{"id":5866780,"adult":false},{"id":5866781,"adult":false},{"id":5866782,"adult":false},{"id":5866783,"adult":false},{"id":5866784,"adult":false},{"id":5866785,"adult":false},{"id":5866786,"adult":false},{"id":5866787,"adult":false},{"id":5866788,"adult":false},{"id":5866789,"adult":true},{"id":5866790,"adult":false},{"id":5866791,"adult":false},{"id":5866792,"adult":false},{"id":2056866,"adult":false},{"id":2792944,"adult":false},{"id":5866793,"adult":false},{"id":2604718,"adult":false},{"id":5866794,"adult":false},{"id":5866795,"adult":false},{"id":5866796,"adult":false},{"id":70696,"adult":false},{"id":1762176,"adult":false},{"id":3733388,"adult":true},{"id":5866797,"adult":false},{"id":5866798,"adult":true},{"id":5866799,"adult":true},{"id":5866800,"adult":true},{"id":5866801,"adult":true},{"id":5866802,"adult":false},{"id":5866803,"adult":false},{"id":5866804,"adult":false},{"id":5866805,"adult":false},{"id":5866806,"adult":false},{"id":5866807,"adult":true},{"id":1049870,"adult":false},{"id":5866808,"adult":true},{"id":5866809,"adult":true},{"id":5866810,"adult":true},{"id":5866811,"adult":true},{"id":5866812,"adult":false},{"id":2238735,"adult":false},{"id":5866813,"adult":false},{"id":5704185,"adult":null},{"id":5866814,"adult":true},{"id":5866815,"adult":true},{"id":5191652,"adult":false},{"id":5866816,"adult":false},{"id":5866817,"adult":true},{"id":5866818,"adult":true},{"id":5866819,"adult":false},{"id":5866820,"adult":false},{"id":5866821,"adult":false},{"id":5231027,"adult":true},{"id":5866822,"adult":false},{"id":5866823,"adult":true},{"id":5866824,"adult":true},{"id":5866825,"adult":true},{"id":5866826,"adult":true},{"id":5866827,"adult":false},{"id":4378304,"adult":false},{"id":18915,"adult":false},{"id":5866828,"adult":false},{"id":5866829,"adult":false},{"id":4352207,"adult":false},{"id":5866830,"adult":false},{"id":5435632,"adult":false},{"id":5866831,"adult":false},{"id":5866832,"adult":false},{"id":5866833,"adult":false},{"id":400,"adult":false},{"id":2617466,"adult":false},{"id":5866834,"adult":false},{"id":5606548,"adult":null},{"id":5866835,"adult":false},{"id":5752756,"adult":null},{"id":5866836,"adult":false},{"id":4563924,"adult":false},{"id":5866837,"adult":false},{"id":5866838,"adult":false},{"id":5866839,"adult":false},{"id":5866840,"adult":false},{"id":5866841,"adult":false},{"id":5866842,"adult":false},{"id":5866843,"adult":false},{"id":5800817,"adult":null}],"page":68,"total_pages":69,"total_results":6860}