HTTP/1.1 200 OK
Content-Type: application/json;charset=utf-8
Transfer-Encoding: chunked
Connection: close
Server: openresty
x-memc: MISS, STORE
x-memc-key: 0bec780fed88306b243bcb07281134c48f1cf9a5a932fe4f3cb901b4f7f293f5
x-memc-age: 0
x-memc-expires: 600
x-az: us-east-1b
x-task-id: 30da6ae4440a42f0a445f111617018a6
Date: Tue, 09 Dec 2025 15:22:22 GMT
Cache-Control: public, max-age=476
ETag: W/"d30a3ccabe40c99714a6732c9938f79d"
Vary: accept-encoding
Vary: Origin
X-Cache: RefreshHit from cloudfront
Via: 1.1 3731a260b105a218299d2247a68d88c4.cloudfront.net (CloudFront)
X-Amz-Cf-Pop: MAD53-P8
Alt-Svc: h3=":443"; ma=86400
X-Amz-Cf-Id: WhrTRFvpqeIW0OeHhOlTWydEBZrA2yQv9EtM8tkpKFEszPWKjiqKNg==
Content-Length: 2942

{"results":[{"id":1512073,"adult":false},{"id":89549,"adult":false},{"id":3681083,"adult":true},{"id":4256449,"adult":true},{"id":2688477,"adult":true},{"id":3206410,"adult":false},{"id":5839583,"adult":false},{"id":3206466,"adult":false},{"id":581414,"adult":false},{"id":4940998,"adult":true},{"id":3218989,"adult":true},{"id":1901722,"adult":false},{"id":5864027,"adult":false},{"id":2490072,"adult":false},{"id":5819653,"adult":false},{"id":1560686,"adult":false},{"id":3613936,"adult":false},{"id":1202954,"adult":false},{"id":1603986,"adult":false},{"id":1456175,"adult":false},{"id":5864028,"adult":false},{"id":5801919,"adult":false},{"id":5864029,"adult":false},{"id":4203230,"adult":false},{"id":3726121,"adult":false},{"id":2722361,"adult":false},{"id":2641696,"adult":false},{"id":5864030,"adult":false},{"id":1115237,"adult":false},{"id":5864031,"adult":false},{"id":3931209,"adult":false},{"id":2661401,"adult":false},{"id":5774574,"adult":false},{"id":4316444,"adult":false},{"id":5864032,"adult":false},{"id":2846999,"adult":false},{"id":5864033,"adult":false},{"id":4151245,"adult":false},{"id":3431878,"adult":false},{"id":4461664,"adult":false},{"id":5864034,"adult":false},{"id":4244385,"adult":false},{"id":2275311,"adult":false},{"id":4789711,"adult":false},{"id":3168639,"adult":false},{"id":4448788,"adult":false},{"id":4448776,"adult":false},{"id":2913845,"adult":false},{"id":10987,"adult":false},{"id":4283465,"adult":false},{"id":98805,"adult":false},{"id":5864035,"adult":false},{"id":5820814,"adult":false},{"id":1831502,"adult":false},{"id":2757473,"adult":null},{"id":5828916,"adult":false},{"id":5828917,"adult":false},{"id":5822795,"adult":false},{"id":5828922,"adult":false},{"id":3097886,"adult":false},{"id":4194298,"adult":true},{"id":5864036,"adult":false},{"id":128701,"adult":false},{"id":1685376,"adult":false},{"id":1882971,"adult":false},{"id":1719569,"adult":false},{"id":5864037,"adult":false},{"id":5864038,"adult":false},{"id":5845288,"adult":false},{"id":2983287,"adult":false},{"id":1798987,"adult":false},{"id":2983286,"adult":false},{"id":5864039,"adult":false},{"id":12453,"adult":false},{"id":5816916,"adult":false},{"id":2577949,"adult":false},{"id":5864040,"adult":false},{"id":5864041,"adult":false},{"id":2282095,"adult":false},{"id":3717671,"adult":false},{"id":237048,"adult":false},{"id":5864042,"adult":false},{"id":4790154,"adult":false},{"id":5864043,"adult":false},{"id":2827115,"adult":false},{"id":4791756,"adult":false},{"id":4791591,"adult":false},{"id":4790162,"adult":false},{"id":4790164,"adult":false},{"id":4256848,"adult":false},{"id":2018013,"adult":false},{"id":4042102,"adult":false},{"id":2889520,"adult":false},{"id":1454674,"adult":false},{"id":2889521,"adult":false},{"id":5864044,"adult":false},{"id":3910796,"adult":false},{"id":3785356,"adult":false},{"id":5864045,"adult":false},{"id":5864046,"adult":false}],"page":4,"total_pages":69,"total_results":6860}