HTTP/1.1 200 OK
Content-Type: application/json;charset=utf-8
Transfer-Encoding: chunked
Connection: close
Server: openresty
x-memc: MISS, STORE
x-memc-key: 907ccb875a0b780a414346cbdbb9e073b3e09e50b98b5253ea83120e848b3703
x-memc-age: 0
x-memc-expires: 600
x-az: us-east-1a
x-task-id: b0eafb7727e14bcabac0e4abd1a9419d
Date: Tue, 09 Dec 2025 15:07:15 GMT
Cache-Control: public, max-age=600
ETag: W/"208ada5d8ca6cc21d3025d4bb3a30446"
Vary: accept-encoding
Vary: Origin
X-Cache: Hit from cloudfront
Via: 1.1 b36b68631c5d4e671b86b622ad61723a.cloudfront.net (CloudFront)
X-Amz-Cf-Pop: MAD53-P8
Alt-Svc: h3=":443"; ma=86400
X-Amz-Cf-Id: FlzGcXodhs4pNhRfxoOaGf_NRizJwiVZ9LtXZZyHC7j_qrZM572Hlg==
Age: 460
Content-Length: 2951

{"results":[{"id":1450957,"adult":false},{"id":5864170,"adult":false},{"id":1005911,"adult":false},{"id":5864171,"adult":false},{"id":4203374,"adult":false},{"id":3404029,"adult":false},{"id":4203380,"adult":false},{"id":4922523,"adult":false},{"id":5864172,"adult":false},{"id":3040850,"adult":false},{"id":5839845,"adult":false},{"id":5864173,"adult":false},{"id":5634980,"adult":false},{"id":5864174,"adult":false},{"id":5052836,"adult":false},{"id":2646185,"adult":false},{"id":5864175,"adult":false},{"id":5864176,"adult":false},{"id":5864177,"adult":false},{"id":3310691,"adult":true},{"id":5864178,"adult":false},{"id":5864179,"adult":false},{"id":3270591,"adult":false},{"id":2838953,"adult":false},{"id":5864180,"adult":false},{"id":3032993,"adult":false},{"id":5864181,"adult":false},{"id":3117930,"adult":false},{"id":2049724,"adult":false},{"id":2276614,"adult":false},{"id":5864182,"adult":false},{"id":5864183,"adult":false},{"id":3094194,"adult":false},{"id":4651970,"adult":false},{"id":4634275,"adult":false},{"id":5864184,"adult":false},{"id":1926437,"adult":false},{"id":94972,"adult":false},{"id":1577793,"adult":false},{"id":1191783,"adult":false},{"id":5864185,"adult":false},{"id":5589101,"adult":false},{"id":5864186,"adult":false},{"id":3491904,"adult":false},{"id":3756329,"adult":false},{"id":1720975,"adult":false},{"id":1173802,"adult":false},{"id":590921,"adult":false},{"id":5155262,"adult":false},{"id":5864187,"adult":false},{"id":1634891,"adult":false},{"id":2560752,"adult":false},{"id":1619665,"adult":false},{"id":3111708,"adult":false},{"id":1611480,"adult":false},{"id":5140716,"adult":false},{"id":3100579,"adult":false},{"id":5864188,"adult":false},{"id":5824448,"adult":false},{"id":5864189,"adult":false},{"id":5864190,"adult":false},{"id":3185833,"adult":false},{"id":3039577,"adult":false},{"id":1837628,"adult":false},{"id":5864191,"adult":false},{"id":5864192,"adult":false},{"id":5816665,"adult":false},{"id":5864193,"adult":false},{"id":1748287,"adult":false},{"id":1183230,"adult":false},{"id":1183232,"adult":false},{"id":1748277,"adult":false},{"id":5864194,"adult":false},{"id":5157655,"adult":false},{"id":5811823,"adult":false},{"id":4035348,"adult":false},{"id":5864195,"adult":false},{"id":5864196,"adult":false},{"id":5140345,"adult":false},{"id":227,"adult":false},{"id":5854371,"adult":false},{"id":5796264,"adult":false},{"id":5835719,"adult":false},{"id":2221768,"adult":false},{"id":2232032,"adult":false},{"id":2566141,"adult":false},{"id":2566144,"adult":false},{"id":2566146,"adult":false},{"id":2566152,"adult":false},{"id":144588,"adult":false},{"id":4650371,"adult":false},{"id":4650372,"adult":false},{"id":3191699,"adult":false},{"id":4650393,"adult":false},{"id":4650413,"adult":false},{"id":4650414,"adult":false},{"id":4650419,"adult":false},{"id":3437930,"adult":false},{"id":4650422,"adult":false},{"id":4650425,"adult":false}],"page":9,"total_pages":69,"total_results":6860}