HTTP/1.1 200 OK
Content-Type: application/json;charset=utf-8
Transfer-Encoding: chunked
Connection: close
Server: openresty
x-memc: MISS, STORE
x-memc-key: 92354beeb1de247ac3ff76e4a01fee74eed20595c69fe003264b886cb7dd3382
x-memc-age: 0
x-memc-expires: 600
x-az: us-east-1a
x-task-id: 739b3c9060e343a0ba63ac3c33a555bf
Date: Tue, 09 Dec 2025 15:22:31 GMT
Cache-Control: public, max-age=485
ETag: W/"3fdcdc2197c2d63d54c903efb7e93a4c"
Vary: accept-encoding
Vary: Origin
X-Cache: RefreshHit from cloudfront
Via: 1.1 7cb5e6ca8e491181a91096729b24a17c.cloudfront.net (CloudFront)
X-Amz-Cf-Pop: MAD53-P8
Alt-Svc: h3=":443"; ma=86400
X-Amz-Cf-Id: EW7ipfpwCw2wJ5nPuzXtgmtssfhQWzgLZhyZI6aayc6vTTKtiPP1Mg==
Content-Length: 2949

{"results":[{"id":1286723,"adult":false},{"id":4873625,"adult":false},{"id":5754592,"adult":false},{"id":3880615,"adult":false},{"id":2698226,"adult":false},{"id":5866314,"adult":false},{"id":5339777,"adult":null},{"id":5339753,"adult":null},{"id":4248139,"adult":false},{"id":1766978,"adult":false},{"id":5866315,"adult":false},{"id":5866316,"adult":false},{"id":5866317,"adult":false},{"id":5866318,"adult":false},{"id":1689491,"adult":false},{"id":5866319,"adult":false},{"id":5866320,"adult":false},{"id":3786730,"adult":false},{"id":5866321,"adult":false},{"id":5866322,"adult":false},{"id":5866323,"adult":false},{"id":5866324,"adult":false},{"id":5866325,"adult":false},{"id":4114607,"adult":false},{"id":5866326,"adult":false},{"id":5866327,"adult":false},{"id":5866328,"adult":false},{"id":5866329,"adult":false},{"id":5866330,"adult":false},{"id":5866331,"adult":false},{"id":5866332,"adult":false},{"id":5866333,"adult":false},{"id":5866334,"adult":false},{"id":1873288,"adult":false},{"id":1381186,"adult":false},{"id":5866335,"adult":false},{"id":5866336,"adult":false},{"id":3989428,"adult":false},{"id":83489,"adult":false},{"id":4397103,"adult":false},{"id":89409,"adult":false},{"id":4827781,"adult":false},{"id":5036922,"adult":false},{"id":5866337,"adult":false},{"id":5866338,"adult":false},{"id":2976174,"adult":false},{"id":2679507,"adult":false},{"id":5866339,"adult":false},{"id":5036925,"adult":false},{"id":5049397,"adult":false},{"id":5686569,"adult":false},{"id":5866340,"adult":false},{"id":5752346,"adult":false},{"id":5805385,"adult":false},{"id":5866341,"adult":false},{"id":5866342,"adult":true},{"id":3115247,"adult":false},{"id":5866343,"adult":true},{"id":5866344,"adult":false},{"id":2409948,"adult":false},{"id":2302189,"adult":false},{"id":2637954,"adult":false},{"id":5866345,"adult":true},{"id":1627616,"adult":false},{"id":4014188,"adult":false},{"id":4012841,"adult":false},{"id":2481327,"adult":false},{"id":4012860,"adult":false},{"id":4012865,"adult":false},{"id":4012905,"adult":false},{"id":3148256,"adult":false},{"id":5866346,"adult":false},{"id":4014180,"adult":false},{"id":4014209,"adult":false},{"id":1641903,"adult":false},{"id":1676283,"adult":false},{"id":3548607,"adult":false},{"id":2887281,"adult":false},{"id":2995806,"adult":false},{"id":3285113,"adult":false},{"id":2145271,"adult":false},{"id":5866347,"adult":true},{"id":5866348,"adult":false},{"id":5174901,"adult":true},{"id":5866349,"adult":false},{"id":5866350,"adult":false},{"id":5866351,"adult":true},{"id":5866352,"adult":false},{"id":5866353,"adult":false},{"id":5866354,"adult":false},{"id":1658759,"adult":false},{"id":3277192,"adult":false},{"id":2669277,"adult":false},{"id":4911159,"adult":false},{"id":5818558,"adult":false},{"id":5818559,"adult":false},{"id":3791653,"adult":false},{"id":5866355,"adult":false},{"id":4480596,"adult":false},{"id":5866356,"adult":false}],"page":57,"total_pages":69,"total_results":6860}