HTTP/1.1 200 OK
Content-Type: application/json;charset=utf-8
Transfer-Encoding: chunked
Connection: close
Date: Tue, 09 Dec 2025 14:44:11 GMT
Server: openresty
Cache-Control: public, max-age=86400
x-memc: MISS, STORE
x-memc-key: 42acadde2b8c65c6d29d68a067761dcd5a6a91e95959a017bfee870cdcef9fd1
x-memc-age: 0
x-memc-expires: 86400
x-az: us-east-1c
x-task-id: 103f998e1c2c4a63887a6c2a34892de4
ETag: W/"a85a50c46cb71a4713fb962c438095b0"
Vary: accept-encoding
Vary: Origin
X-Cache: Hit from cloudfront
Via: 1.1 aaa7ac5749bcacfb16caeb80b579a9b4.cloudfront.net (CloudFront)
X-Amz-Cf-Pop: MAD53-P8
Alt-Svc: h3=":443"; ma=86400
X-Amz-Cf-Id: 6OVUGGntylxzZ0gSgzgpaiCszL-buKm9LprJQnxQzy0n0dV_M0BnpA==
Age: 1847
Content-Length: 2931

{"results":[{"id":2049446,"adult":false},{"id":2049447,"adult":false},{"id":2049448,"adult":false},{"id":2049449,"adult":null},{"id":230194,"adult":false},{"id":2049450,"adult":false},{"id":2049451,"adult":false},{"id":2049452,"adult":false},{"id":8990,"adult":false},{"id":2049453,"adult":false},{"id":2049454,"adult":false},{"id":2049455,"adult":false},{"id":2049456,"adult":false},{"id":2049457,"adult":false},{"id":2049458,"adult":false},{"id":2049459,"adult":false},{"id":1181798,"adult":null},{"id":2049460,"adult":null},{"id":2049461,"adult":null},{"id":2049462,"adult":false},{"id":2049463,"adult":false},{"id":2049464,"adult":false},{"id":2049465,"adult":false},{"id":2049466,"adult":false},{"id":2049467,"adult":false},{"id":2049468,"adult":false},{"id":1674672,"adult":null},{"id":2049469,"adult":false},{"id":2049470,"adult":false},{"id":2049471,"adult":false},{"id":2049472,"adult":false},{"id":1911925,"adult":false},{"id":2049473,"adult":null},{"id":2049474,"adult":false},{"id":1674673,"adult":null},{"id":2049475,"adult":false},{"id":2049476,"adult":false},{"id":230195,"adult":false},{"id":2049477,"adult":false},{"id":2049478,"adult":false},{"id":2049479,"adult":false},{"id":2049480,"adult":false},{"id":1157291,"adult":false},{"id":2049481,"adult":false},{"id":2049482,"adult":false},{"id":1179801,"adult":null},{"id":2049483,"adult":false},{"id":63574,"adult":false},{"id":2049484,"adult":false},{"id":2049485,"adult":false},{"id":2049486,"adult":false},{"id":2049487,"adult":false},{"id":1315041,"adult":null},{"id":2049488,"adult":false},{"id":1522796,"adult":null},{"id":1877017,"adult":false},{"id":1315042,"adult":false},{"id":1315043,"adult":null},{"id":1748003,"adult":false},{"id":2049489,"adult":false},{"id":2049490,"adult":false},{"id":1315044,"adult":null},{"id":2049491,"adult":false},{"id":2049492,"adult":false},{"id":2049493,"adult":false},{"id":1159696,"adult":false},{"id":2049494,"adult":false},{"id":2049495,"adult":false},{"id":2049496,"adult":false},{"id":2049497,"adult":false},{"id":1363611,"adult":false},{"id":2049498,"adult":false},{"id":2049499,"adult":false},{"id":1094727,"adult":false},{"id":2049500,"adult":false},{"id":2049501,"adult":false},{"id":2049502,"adult":false},{"id":2042675,"adult":false},{"id":1081494,"adult":false},{"id":1916965,"adult":false},{"id":2049503,"adult":false},{"id":2049504,"adult":false},{"id":2049505,"adult":false},{"id":1212136,"adult":null},{"id":153950,"adult":false},{"id":2049506,"adult":false},{"id":674355,"adult":false},{"id":1447898,"adult":null},{"id":1576086,"adult":false},{"id":1505461,"adult":false},{"id":2049507,"adult":null},{"id":2049508,"adult":null},{"id":2049509,"adult":null},{"id":2049510,"adult":false},{"id":231149,"adult":false},{"id":1350051,"adult":false},{"id":72865,"adult":false},{"id":1559419,"adult":false},{"id":1261402,"adult":false},{"id":1195512,"adult":false}],"page":1,"total_pages":22,"total_results":2166}