HTTP/1.1 200 OK
Content-Type: application/json;charset=utf-8
Transfer-Encoding: chunked
Connection: close
Server: openresty
x-memc: MISS, STORE
x-memc-key: d5e973d6e4446af0958cb0a4e28887b61dc3726184c9fe52ff556ec5e8de3317
x-memc-age: 0
x-memc-expires: 600
x-az: us-east-1c
x-task-id: 9b5a405761724a11a434fc2769395065
Date: Tue, 09 Dec 2025 15:07:25 GMT
Cache-Control: public, max-age=600
ETag: W/"75da42774d564c3d3c7e09c3962d818c"
Vary: accept-encoding
Vary: Origin
X-Cache: Hit from cloudfront
Via: 1.1 aef1665c302c83421efd2e16a8dd31a2.cloudfront.net (CloudFront)
X-Amz-Cf-Pop: MAD53-P8
Alt-Svc: h3=":443"; ma=86400
X-Amz-Cf-Id: Hc9KjjMfRac-mqZJEJnYu-UuM_5nNwj9q4WvAZ6RxEmJwfaUGm_HSg==
Age: 453
Content-Length: 2958

{"results":[{"id":5866656,"adult":false},{"id":5866657,"adult":false},{"id":2337397,"adult":false},{"id":5866658,"adult":false},{"id":5866659,"adult":false},{"id":5866660,"adult":false},{"id":5866661,"adult":false},{"id":5866662,"adult":false},{"id":4686909,"adult":false},{"id":5866663,"adult":true},{"id":5866664,"adult":false},{"id":4218108,"adult":false},{"id":4050190,"adult":false},{"id":4496277,"adult":false},{"id":4892481,"adult":false},{"id":4892507,"adult":false},{"id":5866665,"adult":false},{"id":114406,"adult":false},{"id":5866666,"adult":false},{"id":1220539,"adult":false},{"id":3410825,"adult":false},{"id":3410831,"adult":false},{"id":5545087,"adult":false},{"id":5545144,"adult":false},{"id":5571546,"adult":false},{"id":5264458,"adult":false},{"id":5866667,"adult":false},{"id":3566468,"adult":false},{"id":1927960,"adult":false},{"id":5634971,"adult":false},{"id":5634987,"adult":false},{"id":5866668,"adult":false},{"id":5634976,"adult":false},{"id":5634984,"adult":false},{"id":3524098,"adult":false},{"id":5866669,"adult":false},{"id":3533848,"adult":false},{"id":3566445,"adult":false},{"id":3524020,"adult":false},{"id":3533844,"adult":false},{"id":5866670,"adult":false},{"id":5866671,"adult":false},{"id":2798879,"adult":false},{"id":3566474,"adult":false},{"id":5866672,"adult":false},{"id":5866673,"adult":false},{"id":5866674,"adult":false},{"id":2986027,"adult":false},{"id":5866675,"adult":false},{"id":5866676,"adult":false},{"id":3567190,"adult":false},{"id":5866677,"adult":false},{"id":5866678,"adult":false},{"id":5866679,"adult":false},{"id":3299310,"adult":false},{"id":5866680,"adult":false},{"id":2355291,"adult":false},{"id":5866681,"adult":false},{"id":5866682,"adult":false},{"id":5866683,"adult":false},{"id":5866684,"adult":false},{"id":5866685,"adult":false},{"id":3789320,"adult":false},{"id":5866686,"adult":false},{"id":3807810,"adult":false},{"id":2404049,"adult":false},{"id":5866687,"adult":false},{"id":2623227,"adult":false},{"id":5866688,"adult":false},{"id":1547474,"adult":false},{"id":5866689,"adult":false},{"id":2251466,"adult":false},{"id":2440364,"adult":false},{"id":1254348,"adult":false},{"id":5866690,"adult":false},{"id":3729471,"adult":false},{"id":5866691,"adult":false},{"id":5577257,"adult":false},{"id":3553033,"adult":false},{"id":5866692,"adult":false},{"id":5866693,"adult":false},{"id":5866694,"adult":false},{"id":5866695,"adult":false},{"id":5866696,"adult":false},{"id":2134546,"adult":false},{"id":3411915,"adult":false},{"id":2621203,"adult":false},{"id":5797848,"adult":false},{"id":5866697,"adult":false},{"id":224356,"adult":false},{"id":2874791,"adult":false},{"id":5866698,"adult":false},{"id":5866699,"adult":false},{"id":2682027,"adult":false},{"id":5866700,"adult":false},{"id":5866701,"adult":false},{"id":2568885,"adult":false},{"id":3969101,"adult":false},{"id":5866702,"adult":false},{"id":5866703,"adult":false}],"page":66,"total_pages":69,"total_results":6860}