HTTP/1.1 200 OK
Content-Type: application/json;charset=utf-8
Transfer-Encoding: chunked
Connection: close
Server: openresty
x-memc: MISS, STORE
x-memc-key: 32bac9712100c99e6c8e4647a423323148f29c0d9c127558625b86ea57b892c3
x-memc-age: 0
x-memc-expires: 600
x-az: us-east-1b
x-task-id: 67325ed8fae54d21938cb70a8a8db3b9
Date: Tue, 09 Dec 2025 15:07:23 GMT
Cache-Control: public, max-age=600
ETag: W/"197fe4f241304548a4e5376f6f3dafc1"
Vary: accept-encoding
Vary: Origin
X-Cache: Hit from cloudfront
Via: 1.1 2ef1b1b84e938b6071d9a4f357c18e56.cloudfront.net (CloudFront)
X-Amz-Cf-Pop: MAD53-P8
Alt-Svc: h3=":443"; ma=86400
X-Amz-Cf-Id: E8fn7CcuvtZXzCt-HqscIuUKnitPVm0sX2zVmDcgtywAOfcVHMwmtg==
Age: 454
Content-Length: 2949

{"results":[{"id":3822284,"adult":false},{"id":120229,"adult":false},{"id":5866135,"adult":false},{"id":4320230,"adult":false},{"id":4320228,"adult":false},{"id":3858668,"adult":false},{"id":2589423,"adult":true},{"id":5866136,"adult":false},{"id":5866137,"adult":false},{"id":5866138,"adult":false},{"id":2589424,"adult":true},{"id":1471054,"adult":false},{"id":2589425,"adult":true},{"id":5866139,"adult":false},{"id":3661037,"adult":false},{"id":5866140,"adult":false},{"id":3661081,"adult":false},{"id":2589426,"adult":true},{"id":1963195,"adult":false},{"id":5866141,"adult":false},{"id":5866142,"adult":false},{"id":1173201,"adult":false},{"id":3337932,"adult":false},{"id":5866143,"adult":false},{"id":5866144,"adult":false},{"id":5866145,"adult":false},{"id":3346218,"adult":false},{"id":5774329,"adult":false},{"id":5774314,"adult":false},{"id":1675293,"adult":false},{"id":5774361,"adult":false},{"id":2642841,"adult":false},{"id":5862239,"adult":false},{"id":5866146,"adult":false},{"id":4313639,"adult":false},{"id":4313638,"adult":false},{"id":4378897,"adult":false},{"id":3803869,"adult":false},{"id":3814172,"adult":false},{"id":3814171,"adult":false},{"id":3814173,"adult":false},{"id":5866147,"adult":false},{"id":3858248,"adult":false},{"id":1642051,"adult":false},{"id":3732233,"adult":false},{"id":3506254,"adult":false},{"id":3803865,"adult":false},{"id":3749837,"adult":false},{"id":3529225,"adult":false},{"id":3794276,"adult":false},{"id":3803887,"adult":false},{"id":3844998,"adult":false},{"id":3506222,"adult":false},{"id":2201856,"adult":false},{"id":560316,"adult":false},{"id":122045,"adult":false},{"id":5866148,"adult":false},{"id":3953896,"adult":false},{"id":2266230,"adult":false},{"id":2266231,"adult":false},{"id":5602882,"adult":false},{"id":3808817,"adult":false},{"id":5866149,"adult":false},{"id":5603322,"adult":false},{"id":5866150,"adult":false},{"id":3960751,"adult":false},{"id":5602895,"adult":false},{"id":5707284,"adult":false},{"id":5603187,"adult":false},{"id":4003250,"adult":false},{"id":57649,"adult":false},{"id":5651495,"adult":null},{"id":5688859,"adult":false},{"id":5866151,"adult":false},{"id":5866152,"adult":false},{"id":2522745,"adult":false},{"id":23874,"adult":false},{"id":2131229,"adult":false},{"id":5866153,"adult":false},{"id":5866154,"adult":false},{"id":2541890,"adult":false},{"id":3946940,"adult":false},{"id":2140108,"adult":false},{"id":1557921,"adult":false},{"id":1557926,"adult":false},{"id":1557927,"adult":false},{"id":4034105,"adult":false},{"id":3901570,"adult":false},{"id":3901572,"adult":false},{"id":3502944,"adult":false},{"id":5866155,"adult":false},{"id":1823994,"adult":false},{"id":1557932,"adult":false},{"id":5866156,"adult":false},{"id":5866157,"adult":false},{"id":5866158,"adult":false},{"id":1557934,"adult":false},{"id":5866159,"adult":false},{"id":5866160,"adult":false},{"id":1557936,"adult":false}],"page":53,"total_pages":69,"total_results":6860}