HTTP/1.1 200 OK
Content-Type: application/json;charset=utf-8
Transfer-Encoding: chunked
Connection: close
Server: openresty
x-memc: MISS, STORE
x-memc-key: 914d09ec6841633ed8ea52982e29c9ae6ca6fbd015f78a0cb759ca47b02cf2fe
x-memc-age: 0
x-memc-expires: 600
x-az: us-east-1b
x-task-id: a3e141f8953e47ba98ae07d024bcd603
Date: Tue, 09 Dec 2025 15:22:22 GMT
Cache-Control: public, max-age=475
ETag: W/"b8fe23fdb9ab2f1904d85579fb24ee6e"
Vary: accept-encoding
Vary: Origin
X-Cache: RefreshHit from cloudfront
Via: 1.1 994deeea5117897efd50b3e367af0a6a.cloudfront.net (CloudFront)
X-Amz-Cf-Pop: MAD53-P8
Alt-Svc: h3=":443"; ma=86400
X-Amz-Cf-Id: Bkt5wZAEEVG97b-clgv8WBSCwtIXf4m1-dcLW4ran19KIcjEDkMjwA==
Content-Length: 2953

{"results":[{"id":5863978,"adult":false},{"id":936644,"adult":false},{"id":1194844,"adult":false},{"id":1196700,"adult":false},{"id":158038,"adult":false},{"id":1196696,"adult":false},{"id":5863979,"adult":false},{"id":1108052,"adult":false},{"id":5863980,"adult":false},{"id":3502908,"adult":false},{"id":936648,"adult":false},{"id":5863981,"adult":true},{"id":1256376,"adult":false},{"id":1155263,"adult":false},{"id":1574904,"adult":false},{"id":1076684,"adult":false},{"id":5863982,"adult":true},{"id":1196703,"adult":false},{"id":5863983,"adult":false},{"id":5863984,"adult":false},{"id":3447336,"adult":false},{"id":2670922,"adult":false},{"id":2091655,"adult":false},{"id":5478669,"adult":null},{"id":5863985,"adult":false},{"id":5863986,"adult":false},{"id":5863987,"adult":false},{"id":2476421,"adult":false},{"id":2476423,"adult":false},{"id":5863988,"adult":false},{"id":5863989,"adult":false},{"id":5863990,"adult":false},{"id":1399234,"adult":false},{"id":5863991,"adult":false},{"id":1603758,"adult":false},{"id":1282325,"adult":false},{"id":1484353,"adult":false},{"id":4324777,"adult":false},{"id":4274067,"adult":false},{"id":5863992,"adult":false},{"id":5863993,"adult":false},{"id":5863994,"adult":false},{"id":5863995,"adult":false},{"id":5863996,"adult":false},{"id":5863997,"adult":false},{"id":5863998,"adult":false},{"id":2407929,"adult":false},{"id":4881633,"adult":false},{"id":5863999,"adult":false},{"id":4012558,"adult":false},{"id":4468482,"adult":false},{"id":5864000,"adult":false},{"id":1789117,"adult":false},{"id":5864001,"adult":false},{"id":5864002,"adult":false},{"id":5864003,"adult":false},{"id":4964493,"adult":false},{"id":5864004,"adult":false},{"id":1777988,"adult":false},{"id":5864005,"adult":false},{"id":3648157,"adult":false},{"id":5864006,"adult":false},{"id":4304002,"adult":false},{"id":4965399,"adult":false},{"id":5864007,"adult":false},{"id":5864008,"adult":false},{"id":5864009,"adult":false},{"id":5864010,"adult":false},{"id":5864011,"adult":false},{"id":1368688,"adult":false},{"id":5864012,"adult":false},{"id":5864013,"adult":false},{"id":5864014,"adult":false},{"id":5864015,"adult":false},{"id":5864016,"adult":false},{"id":4708185,"adult":false},{"id":5864017,"adult":false},{"id":5864018,"adult":false},{"id":5864019,"adult":false},{"id":5864020,"adult":false},{"id":5864021,"adult":false},{"id":5862584,"adult":false},{"id":5864022,"adult":false},{"id":5864023,"adult":false},{"id":3209732,"adult":false},{"id":5864024,"adult":false},{"id":2925469,"adult":false},{"id":5864025,"adult":false},{"id":3209866,"adult":false},{"id":1327571,"adult":false},{"id":2188565,"adult":false},{"id":5075437,"adult":false},{"id":1822021,"adult":false},{"id":2563762,"adult":false},{"id":4666780,"adult":false},{"id":3157305,"adult":false},{"id":5864026,"adult":false},{"id":1576421,"adult":false},{"id":5508059,"adult":true},{"id":5808819,"adult":false}],"page":3,"total_pages":69,"total_results":6860}