HTTP/1.1 200 OK
Content-Type: application/json;charset=utf-8
Transfer-Encoding: chunked
Connection: close
Server: openresty
x-memc: MISS, STORE
x-memc-key: a0477e3bd546aede81b0d81f8ae3c3b8e540f3ea21f62c59d3b1fb977587e1bd
x-memc-age: 0
x-memc-expires: 600
x-az: us-east-1b
x-task-id: b8242b4982bb449b83edb73b5551b01a
Date: Tue, 09 Dec 2025 15:22:29 GMT
Cache-Control: public, max-age=484
ETag: W/"aca6fc9e20d719350038befda336b4b2"
Vary: accept-encoding
Vary: Origin
X-Cache: RefreshHit from cloudfront
Via: 1.1 69e32d27190fc5c6d8b4a04f715c7d9a.cloudfront.net (CloudFront)
X-Amz-Cf-Pop: MAD53-P8
Alt-Svc: h3=":443"; ma=86400
X-Amz-Cf-Id: F12JQT43xYDC4GghZnAxAUzIaVjJ6xtdswmGdSqPcNhMw2-EVURJYg==
Content-Length: 2955

{"results":[{"id":1679238,"adult":false},{"id":5865481,"adult":false},{"id":5865482,"adult":false},{"id":2261687,"adult":false},{"id":5865483,"adult":false},{"id":3023251,"adult":false},{"id":5865484,"adult":false},{"id":2244850,"adult":false},{"id":5865485,"adult":false},{"id":5865486,"adult":false},{"id":109589,"adult":false},{"id":1951804,"adult":false},{"id":5865487,"adult":false},{"id":5865488,"adult":false},{"id":5865489,"adult":false},{"id":5865490,"adult":false},{"id":5865491,"adult":false},{"id":5865492,"adult":false},{"id":2281552,"adult":false},{"id":5865493,"adult":false},{"id":5865494,"adult":false},{"id":5865495,"adult":null},{"id":5865496,"adult":false},{"id":1829772,"adult":false},{"id":5865497,"adult":false},{"id":5865498,"adult":false},{"id":5865499,"adult":false},{"id":5865500,"adult":false},{"id":2281553,"adult":false},{"id":5865501,"adult":false},{"id":2281554,"adult":false},{"id":2416610,"adult":false},{"id":3694314,"adult":false},{"id":2437249,"adult":false},{"id":5865502,"adult":false},{"id":5865503,"adult":false},{"id":2428225,"adult":false},{"id":3054961,"adult":false},{"id":5865504,"adult":false},{"id":1853393,"adult":false},{"id":5865505,"adult":false},{"id":1839959,"adult":false},{"id":5865506,"adult":false},{"id":5865507,"adult":false},{"id":2215728,"adult":false},{"id":5865508,"adult":false},{"id":5460235,"adult":false},{"id":2244855,"adult":false},{"id":5865509,"adult":false},{"id":5865510,"adult":false},{"id":3928527,"adult":false},{"id":5865511,"adult":false},{"id":5865512,"adult":false},{"id":5865513,"adult":false},{"id":5865514,"adult":false},{"id":1590182,"adult":false},{"id":15135,"adult":false},{"id":2048703,"adult":false},{"id":2235102,"adult":false},{"id":5865515,"adult":false},{"id":5865516,"adult":false},{"id":2427917,"adult":false},{"id":5865517,"adult":false},{"id":2038641,"adult":false},{"id":5865518,"adult":false},{"id":5865519,"adult":false},{"id":5865520,"adult":false},{"id":1557806,"adult":false},{"id":5823241,"adult":false},{"id":2794242,"adult":true},{"id":5865521,"adult":false},{"id":1328740,"adult":false},{"id":1541958,"adult":false},{"id":5865522,"adult":false},{"id":5865523,"adult":false},{"id":5865524,"adult":false},{"id":5865525,"adult":false},{"id":5865526,"adult":false},{"id":1391305,"adult":false},{"id":5865527,"adult":false},{"id":5865528,"adult":false},{"id":2112924,"adult":false},{"id":5865529,"adult":false},{"id":1391314,"adult":false},{"id":1307556,"adult":false},{"id":5865530,"adult":false},{"id":1852135,"adult":false},{"id":5863240,"adult":null},{"id":1891474,"adult":false},{"id":5865531,"adult":false},{"id":5865532,"adult":false},{"id":5865533,"adult":false},{"id":5865534,"adult":false},{"id":5865535,"adult":false},{"id":5865536,"adult":false},{"id":5865537,"adult":false},{"id":5865538,"adult":false},{"id":5865539,"adult":false},{"id":3107258,"adult":false},{"id":5865540,"adult":false}],"page":42,"total_pages":69,"total_results":6860}