HTTP/1.1 200 OK
Content-Type: application/json;charset=utf-8
Transfer-Encoding: chunked
Connection: close
Server: openresty
x-memc: MISS, STORE
x-memc-key: 89a23fbd84bccc893249d06d2d5146b2cec83696eb8060660bcf0cd3bb45d9a1
x-memc-age: 0
x-memc-expires: 600
x-az: us-east-1c
x-task-id: 9b5a405761724a11a434fc2769395065
Date: Tue, 09 Dec 2025 15:22:30 GMT
Cache-Control: public, max-age=485
ETag: W/"1a22708945cd9aedc50b788c7a8a5612"
Vary: accept-encoding
Vary: Origin
X-Cache: RefreshHit from cloudfront
Via: 1.1 65fafc6240b0e8b3e15609a24840fab6.cloudfront.net (CloudFront)
X-Amz-Cf-Pop: MAD53-P8
Alt-Svc: h3=":443"; ma=86400
X-Amz-Cf-Id: X4m1jZC_nF-9aRxCeArShCf0_bWHTTf8zl-FsZ2VvFPkZuziJv-UAg==
Content-Length: 2947

{"results":[{"id":5865934,"adult":false},{"id":5465881,"adult":false},{"id":5865935,"adult":null},{"id":5865936,"adult":false},{"id":5865937,"adult":false},{"id":5865938,"adult":false},{"id":5865939,"adult":false},{"id":5865940,"adult":null},{"id":5865941,"adult":false},{"id":5865942,"adult":false},{"id":5865943,"adult":false},{"id":5827820,"adult":false},{"id":5865944,"adult":false},{"id":5865945,"adult":false},{"id":5865946,"adult":false},{"id":5311707,"adult":false},{"id":4180562,"adult":false},{"id":5865947,"adult":false},{"id":5865948,"adult":false},{"id":5865949,"adult":false},{"id":5865950,"adult":false},{"id":2202271,"adult":false},{"id":5865951,"adult":false},{"id":5865952,"adult":false},{"id":5865953,"adult":false},{"id":5865954,"adult":false},{"id":5865955,"adult":false},{"id":5865956,"adult":false},{"id":5865957,"adult":false},{"id":5865958,"adult":false},{"id":4685643,"adult":false},{"id":5865959,"adult":false},{"id":5865960,"adult":false},{"id":5194006,"adult":false},{"id":5865961,"adult":false},{"id":5865962,"adult":false},{"id":5865963,"adult":false},{"id":5865964,"adult":false},{"id":5865965,"adult":false},{"id":5865966,"adult":false},{"id":5865967,"adult":false},{"id":5865968,"adult":false},{"id":5865969,"adult":false},{"id":5865970,"adult":false},{"id":1551472,"adult":false},{"id":5865971,"adult":false},{"id":5865972,"adult":false},{"id":5865973,"adult":false},{"id":5865974,"adult":false},{"id":5865975,"adult":false},{"id":5865976,"adult":false},{"id":5865977,"adult":false},{"id":5865978,"adult":false},{"id":5865979,"adult":false},{"id":4155725,"adult":false},{"id":5865980,"adult":false},{"id":5865981,"adult":false},{"id":5865982,"adult":false},{"id":5865983,"adult":false},{"id":5865984,"adult":false},{"id":5865985,"adult":false},{"id":4723556,"adult":false},{"id":5865986,"adult":false},{"id":5865987,"adult":false},{"id":5865988,"adult":false},{"id":5865989,"adult":false},{"id":5865990,"adult":false},{"id":5865991,"adult":false},{"id":4310375,"adult":false},{"id":5865992,"adult":false},{"id":5865993,"adult":false},{"id":5865994,"adult":false},{"id":5865995,"adult":false},{"id":5865996,"adult":false},{"id":5865997,"adult":false},{"id":5865998,"adult":false},{"id":5865999,"adult":false},{"id":1966781,"adult":false},{"id":5866000,"adult":false},{"id":5866001,"adult":false},{"id":5866002,"adult":false},{"id":5866003,"adult":false},{"id":5866004,"adult":false},{"id":5866005,"adult":false},{"id":5866006,"adult":false},{"id":5866007,"adult":false},{"id":3510469,"adult":false},{"id":1905,"adult":false},{"id":12149,"adult":false},{"id":224168,"adult":false},{"id":7351,"adult":false},{"id":5866008,"adult":false},{"id":5866009,"adult":false},{"id":5866010,"adult":false},{"id":10158,"adult":false},{"id":1214573,"adult":false},{"id":106049,"adult":false},{"id":2720194,"adult":false},{"id":5866011,"adult":false},{"id":5866012,"adult":false}],"page":50,"total_pages":69,"total_results":6860}