HTTP/1.1 200 OK
Content-Type: application/json;charset=utf-8
Transfer-Encoding: chunked
Connection: close
Server: openresty
x-memc: MISS, STORE
x-memc-key: 579a746fd654959fc46c6d01c684d04b488643e9b947a9f62ab198ee77549e53
x-memc-age: 0
x-memc-expires: 600
x-az: us-east-1b
x-task-id: 90d49b9610bc4c5f88809459f968de34
Date: Tue, 09 Dec 2025 15:22:29 GMT
Cache-Control: public, max-age=484
ETag: W/"028228da445c118aefb6bcc98ec634af"
Vary: accept-encoding
Vary: Origin
X-Cache: RefreshHit from cloudfront
Via: 1.1 994deeea5117897efd50b3e367af0a6a.cloudfront.net (CloudFront)
X-Amz-Cf-Pop: MAD53-P8
Alt-Svc: h3=":443"; ma=86400
X-Amz-Cf-Id: WyD-r9uMOpCdko6a0s8Lv1AecJhRD8k4s-sEsthao5cCIQM7GXyjAQ==
Content-Length: 2943

{"results":[{"id":5865603,"adult":false},{"id":5865604,"adult":false},{"id":5865605,"adult":false},{"id":5865606,"adult":false},{"id":5865607,"adult":false},{"id":5865608,"adult":false},{"id":5845115,"adult":null},{"id":1538,"adult":false},{"id":5865609,"adult":false},{"id":5865610,"adult":false},{"id":5865611,"adult":false},{"id":5865612,"adult":false},{"id":5865613,"adult":false},{"id":5865614,"adult":false},{"id":5865615,"adult":false},{"id":5865616,"adult":false},{"id":5865617,"adult":false},{"id":5865618,"adult":false},{"id":5865619,"adult":false},{"id":5865620,"adult":false},{"id":5865621,"adult":false},{"id":5865622,"adult":false},{"id":5865623,"adult":false},{"id":1027060,"adult":false},{"id":5865624,"adult":false},{"id":5865625,"adult":false},{"id":5865626,"adult":false},{"id":5865627,"adult":false},{"id":5865628,"adult":false},{"id":5865629,"adult":false},{"id":5865630,"adult":false},{"id":975362,"adult":false},{"id":5865631,"adult":false},{"id":5865632,"adult":false},{"id":5865633,"adult":false},{"id":5865634,"adult":false},{"id":5865635,"adult":false},{"id":5865636,"adult":false},{"id":177214,"adult":false},{"id":18316,"adult":false},{"id":2840499,"adult":false},{"id":5865637,"adult":false},{"id":1722546,"adult":false},{"id":939127,"adult":false},{"id":5477857,"adult":false},{"id":5325529,"adult":false},{"id":5865638,"adult":false},{"id":5865639,"adult":false},{"id":5865640,"adult":false},{"id":5865641,"adult":false},{"id":5865642,"adult":false},{"id":5865643,"adult":false},{"id":5865644,"adult":false},{"id":5865645,"adult":false},{"id":5865646,"adult":false},{"id":3002037,"adult":false},{"id":5865647,"adult":false},{"id":5865648,"adult":false},{"id":5865649,"adult":false},{"id":5865650,"adult":false},{"id":5865651,"adult":false},{"id":4321150,"adult":false},{"id":2394600,"adult":false},{"id":4064373,"adult":false},{"id":5865652,"adult":false},{"id":5865653,"adult":false},{"id":1643904,"adult":false},{"id":2771536,"adult":false},{"id":1881789,"adult":false},{"id":4064383,"adult":false},{"id":51390,"adult":false},{"id":170906,"adult":false},{"id":121706,"adult":false},{"id":5844908,"adult":false},{"id":1244876,"adult":false},{"id":1249786,"adult":false},{"id":5865654,"adult":false},{"id":5865655,"adult":false},{"id":5865656,"adult":false},{"id":5865657,"adult":false},{"id":5865658,"adult":false},{"id":5865659,"adult":false},{"id":5865660,"adult":false},{"id":5865661,"adult":false},{"id":5865662,"adult":false},{"id":58006,"adult":false},{"id":58737,"adult":false},{"id":5865663,"adult":false},{"id":5865664,"adult":false},{"id":5865665,"adult":false},{"id":5865666,"adult":false},{"id":5865667,"adult":false},{"id":3485209,"adult":false},{"id":5865668,"adult":false},{"id":5865669,"adult":false},{"id":4648878,"adult":false},{"id":5865670,"adult":false},{"id":5865671,"adult":false},{"id":5865672,"adult":false},{"id":211998,"adult":false}],"page":44,"total_pages":69,"total_results":6860}