HTTP/1.1 200 OK
Content-Type: application/json;charset=utf-8
Transfer-Encoding: chunked
Connection: close
Server: openresty
x-memc: MISS, STORE
x-memc-key: a7ddced58e65d82159e7ef5550e90c544cdd813a22f37e74b8fe6a1dffe9325a
x-memc-age: 0
x-memc-expires: 600
x-az: us-east-1c
x-task-id: 9b5a405761724a11a434fc2769395065
Date: Tue, 09 Dec 2025 15:07:20 GMT
Cache-Control: public, max-age=600
ETag: W/"ea242ebe9bb082e03ac91c030b324827"
Vary: accept-encoding
Vary: Origin
X-Cache: Hit from cloudfront
Via: 1.1 b36b68631c5d4e671b86b622ad61723a.cloudfront.net (CloudFront)
X-Amz-Cf-Pop: MAD53-P8
Alt-Svc: h3=":443"; ma=86400
X-Amz-Cf-Id: WPXAVsd-ZRO4JprfC21qKlBljW3ZdyVpWMLieNNiK4vEf6zoPFrYMQ==
Age: 456
Content-Length: 2945

{"results":[{"id":3791716,"adult":false},{"id":3691695,"adult":false},{"id":5864967,"adult":false},{"id":3154540,"adult":false},{"id":2857194,"adult":false},{"id":2133489,"adult":false},{"id":2023903,"adult":false},{"id":5501587,"adult":false},{"id":3525988,"adult":false},{"id":3784798,"adult":false},{"id":1625523,"adult":false},{"id":3980000,"adult":false},{"id":4316710,"adult":false},{"id":5864968,"adult":false},{"id":4057785,"adult":false},{"id":5864969,"adult":false},{"id":2605744,"adult":false},{"id":3475213,"adult":false},{"id":4200547,"adult":false},{"id":4678935,"adult":false},{"id":1866371,"adult":false},{"id":2765664,"adult":false},{"id":120408,"adult":false},{"id":2823682,"adult":false},{"id":2187815,"adult":false},{"id":86987,"adult":false},{"id":3353260,"adult":false},{"id":2669722,"adult":false},{"id":16171,"adult":false},{"id":5864970,"adult":false},{"id":3273782,"adult":false},{"id":3822530,"adult":false},{"id":2502795,"adult":false},{"id":127694,"adult":false},{"id":3318722,"adult":false},{"id":3252238,"adult":false},{"id":3524157,"adult":false},{"id":3872402,"adult":false},{"id":5406452,"adult":false},{"id":5864971,"adult":false},{"id":5864972,"adult":false},{"id":2815844,"adult":false},{"id":5864973,"adult":false},{"id":5501589,"adult":false},{"id":5864974,"adult":false},{"id":5864975,"adult":false},{"id":5864976,"adult":false},{"id":5864977,"adult":false},{"id":5864978,"adult":false},{"id":1689981,"adult":false},{"id":5864979,"adult":false},{"id":5864980,"adult":false},{"id":5864981,"adult":false},{"id":152670,"adult":false},{"id":5864982,"adult":false},{"id":5864983,"adult":false},{"id":5864984,"adult":false},{"id":3744904,"adult":false},{"id":3737272,"adult":false},{"id":5576992,"adult":false},{"id":3532766,"adult":false},{"id":4309045,"adult":false},{"id":3737281,"adult":false},{"id":3532951,"adult":false},{"id":5656819,"adult":null},{"id":1506259,"adult":false},{"id":3747574,"adult":false},{"id":5864985,"adult":false},{"id":4386298,"adult":false},{"id":5864986,"adult":false},{"id":5853419,"adult":null},{"id":5864987,"adult":false},{"id":5864988,"adult":false},{"id":4963688,"adult":false},{"id":42335,"adult":false},{"id":3276255,"adult":false},{"id":2203371,"adult":false},{"id":5864989,"adult":false},{"id":5864990,"adult":false},{"id":8654,"adult":false},{"id":223251,"adult":false},{"id":5853424,"adult":null},{"id":5864991,"adult":false},{"id":5864992,"adult":false},{"id":5864993,"adult":false},{"id":5864994,"adult":false},{"id":4084786,"adult":false},{"id":1479573,"adult":false},{"id":2720672,"adult":false},{"id":5864995,"adult":false},{"id":3855351,"adult":false},{"id":5864996,"adult":false},{"id":5864997,"adult":false},{"id":5864998,"adult":false},{"id":5864999,"adult":false},{"id":5865000,"adult":false},{"id":5203579,"adult":false},{"id":5865001,"adult":false},{"id":5865002,"adult":false},{"id":5865003,"adult":false}],"page":34,"total_pages":69,"total_results":6860}