HTTP/1.1 200 OK
Content-Type: application/json;charset=utf-8
Transfer-Encoding: chunked
Connection: close
Date: Tue, 09 Dec 2025 14:44:07 GMT
Server: openresty
Cache-Control: public, max-age=86400
x-memc: MISS, STORE
x-memc-key: 8521989235cff112413c3bc144cf8aca81ca52e48772378b7e7ba6bcbbc085b7
x-memc-age: 0
x-memc-expires: 86400
x-az: us-east-1a
x-task-id: 739b3c9060e343a0ba63ac3c33a555bf
ETag: W/"d0bc1cce9b0e8e95badb9ec5b3b2cd51"
Vary: accept-encoding
Vary: Origin
X-Cache: Hit from cloudfront
Via: 1.1 994deeea5117897efd50b3e367af0a6a.cloudfront.net (CloudFront)
X-Amz-Cf-Pop: MAD53-P8
Alt-Svc: h3=":443"; ma=86400
X-Amz-Cf-Id: DKdZnzP9KqAdK71ZHbNNnUkcI5sToluxFtP2UhSlWOO7WCSpTSxH6w==
Age: 1851
Content-Length: 2933

{"results":[{"id":2046294,"adult":false},{"id":1131785,"adult":false},{"id":126232,"adult":false},{"id":2046295,"adult":false},{"id":2046296,"adult":false},{"id":2046297,"adult":false},{"id":2046298,"adult":false},{"id":2046299,"adult":false},{"id":554486,"adult":false},{"id":1854901,"adult":false},{"id":1854903,"adult":false},{"id":2046300,"adult":false},{"id":2046301,"adult":false},{"id":2046302,"adult":false},{"id":2046303,"adult":false},{"id":2046304,"adult":false},{"id":2046305,"adult":false},{"id":2046306,"adult":false},{"id":2046307,"adult":false},{"id":2046308,"adult":false},{"id":1644514,"adult":false},{"id":1102159,"adult":false},{"id":2046309,"adult":false},{"id":2046310,"adult":false},{"id":2046311,"adult":false},{"id":2046312,"adult":false},{"id":2046313,"adult":false},{"id":2046314,"adult":false},{"id":2046315,"adult":false},{"id":2046316,"adult":false},{"id":2046317,"adult":false},{"id":2046318,"adult":false},{"id":2046319,"adult":false},{"id":2046320,"adult":false},{"id":2046321,"adult":false},{"id":1987451,"adult":false},{"id":1488237,"adult":false},{"id":2046322,"adult":null},{"id":2046323,"adult":null},{"id":2046324,"adult":false},{"id":2046325,"adult":false},{"id":2046326,"adult":false},{"id":2046327,"adult":false},{"id":2046328,"adult":false},{"id":2046329,"adult":false},{"id":2046330,"adult":false},{"id":2046331,"adult":false},{"id":2046332,"adult":false},{"id":1400366,"adult":false},{"id":1402027,"adult":false},{"id":2046333,"adult":false},{"id":14880,"adult":false},{"id":1232427,"adult":false},{"id":2046334,"adult":false},{"id":2046335,"adult":false},{"id":2046336,"adult":false},{"id":26874,"adult":false},{"id":1762325,"adult":false},{"id":1081521,"adult":false},{"id":1264843,"adult":false},{"id":1752020,"adult":false},{"id":1605597,"adult":false},{"id":2046337,"adult":false},{"id":2046338,"adult":null},{"id":2046339,"adult":false},{"id":2046340,"adult":false},{"id":2046341,"adult":false},{"id":1137280,"adult":false},{"id":2046342,"adult":false},{"id":2046343,"adult":false},{"id":2046344,"adult":false},{"id":2046345,"adult":null},{"id":1910714,"adult":true},{"id":1106086,"adult":true},{"id":587900,"adult":true},{"id":1735403,"adult":false},{"id":2046346,"adult":false},{"id":2046347,"adult":false},{"id":1826561,"adult":false},{"id":2046348,"adult":false},{"id":99166,"adult":false},{"id":2046349,"adult":false},{"id":2046350,"adult":false},{"id":2046351,"adult":false},{"id":2046352,"adult":false},{"id":2046353,"adult":false},{"id":2046354,"adult":null},{"id":2046355,"adult":false},{"id":2046356,"adult":null},{"id":2046357,"adult":null},{"id":2046358,"adult":null},{"id":2046359,"adult":null},{"id":28279,"adult":false},{"id":2046360,"adult":false},{"id":1264065,"adult":true},{"id":1172313,"adult":true},{"id":2046361,"adult":null},{"id":2046362,"adult":false},{"id":2046363,"adult":false},{"id":2046364,"adult":null}],"page":2,"total_pages":25,"total_results":2415}