HTTP/1.1 200 OK
Content-Type: application/json;charset=utf-8
Transfer-Encoding: chunked
Connection: close
Server: openresty
x-memc: MISS, STORE
x-memc-key: bbcee34cc64a9422669165e85f618c9b201be28974607e77515a70ce153018d8
x-memc-age: 0
x-memc-expires: 600
x-az: us-east-1b
x-task-id: b8242b4982bb449b83edb73b5551b01a
Date: Tue, 09 Dec 2025 15:07:16 GMT
Cache-Control: public, max-age=600
ETag: W/"a8e4fad708db0d245d53c2fe246efab7"
Vary: accept-encoding
Vary: Origin
X-Cache: Hit from cloudfront
Via: 1.1 8651dec5501a9be54b46f44ea7098ae2.cloudfront.net (CloudFront)
X-Amz-Cf-Pop: MAD53-P8
Alt-Svc: h3=":443"; ma=86400
X-Amz-Cf-Id: 3f_ZEmAhaIebl5dNBQFMXi_SKloMeKeulMhDfFFb7VZH3FHp6y63KQ==
Age: 460
Content-Length: 2878

{"results":[{"id":5864327,"adult":false},{"id":1383775,"adult":false},{"id":5864328,"adult":false},{"id":5864329,"adult":false},{"id":5864330,"adult":false},{"id":934809,"adult":false},{"id":2576850,"adult":false},{"id":5544847,"adult":null},{"id":5544848,"adult":null},{"id":5544849,"adult":null},{"id":5544850,"adult":null},{"id":5544851,"adult":null},{"id":5544852,"adult":null},{"id":5544853,"adult":null},{"id":5544854,"adult":null},{"id":5544855,"adult":null},{"id":5544856,"adult":null},{"id":5544857,"adult":null},{"id":5544858,"adult":null},{"id":5544859,"adult":null},{"id":5544860,"adult":null},{"id":5544861,"adult":null},{"id":5544862,"adult":null},{"id":5544863,"adult":null},{"id":5544864,"adult":null},{"id":5544867,"adult":null},{"id":5544868,"adult":null},{"id":5864331,"adult":false},{"id":5610354,"adult":null},{"id":5610358,"adult":null},{"id":5610359,"adult":null},{"id":5610362,"adult":null},{"id":5610364,"adult":null},{"id":5610365,"adult":null},{"id":5610368,"adult":null},{"id":5610370,"adult":null},{"id":5610372,"adult":null},{"id":5610374,"adult":null},{"id":5610379,"adult":null},{"id":5610380,"adult":null},{"id":5610381,"adult":null},{"id":5610383,"adult":null},{"id":5610385,"adult":null},{"id":5610386,"adult":null},{"id":5862063,"adult":false},{"id":5864332,"adult":false},{"id":5858304,"adult":false},{"id":5858303,"adult":false},{"id":975515,"adult":false},{"id":1435816,"adult":false},{"id":1442069,"adult":false},{"id":5864333,"adult":false},{"id":93177,"adult":false},{"id":5864334,"adult":false},{"id":34971,"adult":false},{"id":5864335,"adult":false},{"id":5864336,"adult":false},{"id":1435815,"adult":false},{"id":5864337,"adult":false},{"id":5808229,"adult":null},{"id":5858737,"adult":null},{"id":5858738,"adult":null},{"id":5858816,"adult":null},{"id":5858817,"adult":null},{"id":5858818,"adult":null},{"id":5858819,"adult":null},{"id":5858823,"adult":null},{"id":5858826,"adult":null},{"id":5858836,"adult":null},{"id":5858911,"adult":null},{"id":5858917,"adult":null},{"id":5858921,"adult":null},{"id":5858924,"adult":null},{"id":5858925,"adult":null},{"id":5858929,"adult":null},{"id":5858938,"adult":null},{"id":5858940,"adult":null},{"id":5858947,"adult":null},{"id":5858950,"adult":null},{"id":5858955,"adult":null},{"id":5858956,"adult":null},{"id":5858963,"adult":null},{"id":5858965,"adult":null},{"id":5858967,"adult":null},{"id":5858974,"adult":null},{"id":5858983,"adult":null},{"id":5858988,"adult":null},{"id":5858992,"adult":null},{"id":5859000,"adult":null},{"id":5859311,"adult":null},{"id":5859314,"adult":null},{"id":5859317,"adult":null},{"id":5859318,"adult":null},{"id":5859321,"adult":null},{"id":5859322,"adult":null},{"id":5859349,"adult":null},{"id":5859355,"adult":null},{"id":5859360,"adult":null},{"id":5859365,"adult":null},{"id":5859366,"adult":null}],"page":15,"total_pages":69,"total_results":6860}