HTTP/1.1 200 OK
Content-Type: application/json;charset=utf-8
Transfer-Encoding: chunked
Connection: close
Server: openresty
x-memc: MISS, STORE
x-memc-key: 15f3a88d9700db7744455572f44df946dd8e83bb771258b88ba66cbed80fd145
x-memc-age: 0
x-memc-expires: 600
x-az: us-east-1b
x-task-id: 67325ed8fae54d21938cb70a8a8db3b9
Date: Tue, 09 Dec 2025 15:22:29 GMT
Cache-Control: public, max-age=485
ETag: W/"77b530268c6938b91b60899e7a8662be"
Vary: accept-encoding
Vary: Origin
X-Cache: RefreshHit from cloudfront
Via: 1.1 69e32d27190fc5c6d8b4a04f715c7d9a.cloudfront.net (CloudFront)
X-Amz-Cf-Pop: MAD53-P8
Alt-Svc: h3=":443"; ma=86400
X-Amz-Cf-Id: LB7w8AGAA2oJnNQ7hfIvg-uzqP1j6ei9d9CRAFJQGCeveCEr4muBdg==
Content-Length: 2952

{"results":[{"id":5436672,"adult":false},{"id":3013070,"adult":false},{"id":4898715,"adult":false},{"id":2823753,"adult":false},{"id":5865738,"adult":false},{"id":2154260,"adult":false},{"id":5865739,"adult":false},{"id":5487497,"adult":false},{"id":5624511,"adult":false},{"id":5865740,"adult":false},{"id":5865741,"adult":false},{"id":5865742,"adult":false},{"id":5865743,"adult":false},{"id":5865744,"adult":false},{"id":4458282,"adult":false},{"id":5361866,"adult":false},{"id":5361865,"adult":false},{"id":5865745,"adult":false},{"id":5718292,"adult":null},{"id":5731397,"adult":null},{"id":4487385,"adult":null},{"id":5865746,"adult":false},{"id":5865747,"adult":false},{"id":5865748,"adult":false},{"id":5865749,"adult":false},{"id":4446224,"adult":false},{"id":5865750,"adult":false},{"id":5865751,"adult":false},{"id":117656,"adult":false},{"id":5865752,"adult":false},{"id":2852225,"adult":false},{"id":5865753,"adult":null},{"id":5865754,"adult":false},{"id":3736540,"adult":false},{"id":2823790,"adult":false},{"id":5865755,"adult":false},{"id":5865756,"adult":false},{"id":5865757,"adult":false},{"id":1272180,"adult":false},{"id":5865758,"adult":false},{"id":3125872,"adult":false},{"id":5865759,"adult":false},{"id":2797826,"adult":false},{"id":4396614,"adult":false},{"id":5865760,"adult":false},{"id":3204408,"adult":false},{"id":655,"adult":false},{"id":5865761,"adult":false},{"id":5865762,"adult":false},{"id":5865763,"adult":false},{"id":5865764,"adult":false},{"id":5865765,"adult":false},{"id":5865766,"adult":false},{"id":5865767,"adult":false},{"id":5865768,"adult":false},{"id":1479008,"adult":false},{"id":5865769,"adult":false},{"id":5865770,"adult":false},{"id":5865771,"adult":false},{"id":5865772,"adult":false},{"id":5865773,"adult":false},{"id":5865774,"adult":false},{"id":5865775,"adult":false},{"id":2877279,"adult":false},{"id":2877100,"adult":false},{"id":5865776,"adult":false},{"id":2877138,"adult":false},{"id":5865777,"adult":false},{"id":2877277,"adult":false},{"id":2877426,"adult":false},{"id":2877496,"adult":false},{"id":2877541,"adult":false},{"id":5865778,"adult":false},{"id":3492544,"adult":false},{"id":2534909,"adult":false},{"id":2394685,"adult":false},{"id":3013025,"adult":false},{"id":2393564,"adult":false},{"id":2393553,"adult":false},{"id":5572816,"adult":false},{"id":5865779,"adult":false},{"id":5572810,"adult":false},{"id":2393591,"adult":false},{"id":5865780,"adult":false},{"id":2393596,"adult":false},{"id":2892213,"adult":false},{"id":5865781,"adult":false},{"id":2879701,"adult":false},{"id":5865782,"adult":false},{"id":2896192,"adult":false},{"id":2954437,"adult":false},{"id":2888448,"adult":false},{"id":5865783,"adult":false},{"id":1608521,"adult":false},{"id":2879834,"adult":false},{"id":5865784,"adult":false},{"id":3464346,"adult":false},{"id":3019136,"adult":false},{"id":5865785,"adult":false},{"id":2880583,"adult":false}],"page":46,"total_pages":69,"total_results":6860}