HTTP/1.1 200 OK
Content-Type: application/json;charset=utf-8
Transfer-Encoding: chunked
Connection: close
Server: openresty
x-memc: MISS, STORE
x-memc-key: c4b4ea10682e4b3ff464ef56201d53b811e4f62d9369f8c2e7ae565820601be1
x-memc-age: 0
x-memc-expires: 600
x-az: us-east-1a
x-task-id: 739b3c9060e343a0ba63ac3c33a555bf
Date: Tue, 09 Dec 2025 15:07:23 GMT
Cache-Control: public, max-age=600
ETag: W/"14f20127ee1c51c75b819a92a2d8dd5d"
Vary: accept-encoding
Vary: Origin
X-Cache: Hit from cloudfront
Via: 1.1 cbf33f1ce87e15a598a4a078f6825e00.cloudfront.net (CloudFront)
X-Amz-Cf-Pop: MAD53-P8
Alt-Svc: h3=":443"; ma=86400
X-Amz-Cf-Id: PCxVB6Uz5DeEMTZjRz61wZFesV0rWuflmimOQFVu46ks-oqkAnB8Xw==
Age: 454
Content-Length: 2956

{"results":[{"id":5866207,"adult":false},{"id":5866208,"adult":false},{"id":5866209,"adult":false},{"id":2194275,"adult":false},{"id":5866210,"adult":false},{"id":5593269,"adult":null},{"id":5542988,"adult":null},{"id":3795333,"adult":false},{"id":3234984,"adult":false},{"id":1846018,"adult":false},{"id":2118564,"adult":false},{"id":5866211,"adult":false},{"id":5866212,"adult":false},{"id":5866213,"adult":false},{"id":5528153,"adult":false},{"id":5866214,"adult":false},{"id":5866215,"adult":false},{"id":3407226,"adult":null},{"id":4062450,"adult":null},{"id":2019180,"adult":false},{"id":5837955,"adult":false},{"id":1154740,"adult":false},{"id":5866216,"adult":false},{"id":3714580,"adult":false},{"id":5866217,"adult":false},{"id":5837956,"adult":false},{"id":3826873,"adult":null},{"id":5837958,"adult":false},{"id":5837960,"adult":false},{"id":5866218,"adult":false},{"id":5837964,"adult":false},{"id":5866219,"adult":false},{"id":5146445,"adult":false},{"id":5866220,"adult":false},{"id":5837965,"adult":false},{"id":5146479,"adult":false},{"id":5146627,"adult":false},{"id":5866221,"adult":false},{"id":5146769,"adult":false},{"id":5147811,"adult":false},{"id":5145286,"adult":false},{"id":3498678,"adult":false},{"id":5145277,"adult":false},{"id":5146377,"adult":false},{"id":5144780,"adult":false},{"id":5866222,"adult":false},{"id":5866223,"adult":false},{"id":5866224,"adult":false},{"id":5866225,"adult":false},{"id":5866226,"adult":false},{"id":5866227,"adult":false},{"id":5603204,"adult":false},{"id":5866228,"adult":false},{"id":5866229,"adult":false},{"id":5866230,"adult":false},{"id":5866231,"adult":false},{"id":5866232,"adult":false},{"id":4846637,"adult":false},{"id":3013750,"adult":false},{"id":5146876,"adult":false},{"id":5866233,"adult":false},{"id":5866234,"adult":false},{"id":5866235,"adult":false},{"id":3933682,"adult":false},{"id":3293481,"adult":false},{"id":1924489,"adult":false},{"id":3475753,"adult":false},{"id":3806860,"adult":false},{"id":2752842,"adult":false},{"id":5866236,"adult":false},{"id":5866237,"adult":false},{"id":5866238,"adult":false},{"id":5866239,"adult":false},{"id":5866240,"adult":false},{"id":5866241,"adult":false},{"id":5866242,"adult":false},{"id":5866243,"adult":false},{"id":5866244,"adult":false},{"id":5866245,"adult":false},{"id":5866246,"adult":false},{"id":5866247,"adult":false},{"id":5866248,"adult":false},{"id":3274709,"adult":false},{"id":5866249,"adult":false},{"id":5866250,"adult":false},{"id":5866251,"adult":false},{"id":5866252,"adult":false},{"id":5866253,"adult":false},{"id":5866254,"adult":false},{"id":5866255,"adult":false},{"id":5866256,"adult":false},{"id":5866257,"adult":false},{"id":5866258,"adult":false},{"id":5866259,"adult":false},{"id":5866260,"adult":false},{"id":5866261,"adult":false},{"id":2441286,"adult":false},{"id":5866262,"adult":false},{"id":5866263,"adult":false},{"id":5866264,"adult":false}],"page":55,"total_pages":69,"total_results":6860}