HTTP/1.1 200 OK
Content-Type: application/json;charset=utf-8
Transfer-Encoding: chunked
Connection: close
Server: openresty
x-memc: MISS, STORE
x-memc-key: 399e7fec10febf0deac34f635c382191099955cb5d7124dbb6cece9a39709070
x-memc-age: 0
x-memc-expires: 600
x-az: us-east-1a
x-task-id: 813dbd8b691649a2820aa3f2bfa6a3d7
Date: Tue, 09 Dec 2025 15:07:17 GMT
Cache-Control: public, max-age=600
ETag: W/"9b626be06f4b17da76f9486c18aa6e53"
Vary: accept-encoding
Vary: Origin
X-Cache: Hit from cloudfront
Via: 1.1 7e7ba163f7cdb4f59c418e3f1e0e1656.cloudfront.net (CloudFront)
X-Amz-Cf-Pop: MAD53-P8
Alt-Svc: h3=":443"; ma=86400
X-Amz-Cf-Id: B0SEl64rJCW_azYPEt0dPCsrsitSuK7qa0AdozoojVyyaSO88nsC4A==
Age: 459
Content-Length: 2921

{"results":[{"id":5864499,"adult":false},{"id":5864500,"adult":false},{"id":106252,"adult":false},{"id":167918,"adult":false},{"id":5864501,"adult":false},{"id":1283860,"adult":false},{"id":5864502,"adult":false},{"id":1465471,"adult":false},{"id":544808,"adult":false},{"id":544809,"adult":false},{"id":19707,"adult":false},{"id":5864503,"adult":false},{"id":1117284,"adult":false},{"id":82242,"adult":false},{"id":4138137,"adult":null},{"id":2297007,"adult":null},{"id":1378573,"adult":false},{"id":86414,"adult":false},{"id":1838609,"adult":false},{"id":1693290,"adult":false},{"id":4138146,"adult":null},{"id":77945,"adult":false},{"id":4138149,"adult":null},{"id":70707,"adult":false},{"id":5835350,"adult":false},{"id":227632,"adult":false},{"id":544800,"adult":null},{"id":5864504,"adult":false},{"id":1767232,"adult":false},{"id":4074154,"adult":null},{"id":5864505,"adult":false},{"id":4080036,"adult":false},{"id":5864506,"adult":false},{"id":3999706,"adult":false},{"id":1013936,"adult":false},{"id":5864507,"adult":false},{"id":5864508,"adult":false},{"id":5864509,"adult":false},{"id":5864510,"adult":false},{"id":5864511,"adult":false},{"id":5864512,"adult":false},{"id":5864513,"adult":false},{"id":5864514,"adult":false},{"id":5864515,"adult":false},{"id":5864516,"adult":false},{"id":5864517,"adult":false},{"id":5864518,"adult":false},{"id":5860931,"adult":false},{"id":5864519,"adult":false},{"id":5864520,"adult":false},{"id":5864521,"adult":false},{"id":5864522,"adult":false},{"id":5864523,"adult":false},{"id":5744680,"adult":null},{"id":1024315,"adult":false},{"id":5864524,"adult":false},{"id":5864525,"adult":false},{"id":5864526,"adult":false},{"id":5864527,"adult":false},{"id":5864528,"adult":false},{"id":5864529,"adult":false},{"id":5864530,"adult":false},{"id":5864531,"adult":false},{"id":4451473,"adult":false},{"id":5786201,"adult":false},{"id":5864532,"adult":false},{"id":5864533,"adult":false},{"id":5864534,"adult":false},{"id":5864535,"adult":false},{"id":4167796,"adult":false},{"id":5864536,"adult":false},{"id":5864537,"adult":false},{"id":5864538,"adult":false},{"id":5864539,"adult":false},{"id":5864540,"adult":false},{"id":4841249,"adult":false},{"id":5864541,"adult":false},{"id":5864542,"adult":false},{"id":5864543,"adult":false},{"id":1602724,"adult":false},{"id":5864544,"adult":false},{"id":5864545,"adult":false},{"id":5708350,"adult":false},{"id":2933308,"adult":false},{"id":16970,"adult":false},{"id":219763,"adult":false},{"id":5861986,"adult":null},{"id":5861987,"adult":null},{"id":5861998,"adult":null},{"id":5861990,"adult":null},{"id":5861991,"adult":null},{"id":4844692,"adult":null},{"id":5862004,"adult":null},{"id":5861994,"adult":null},{"id":5862006,"adult":null},{"id":5861999,"adult":null},{"id":5727715,"adult":null},{"id":5862007,"adult":null},{"id":5862009,"adult":null},{"id":5863627,"adult":null}],"page":21,"total_pages":69,"total_results":6860}