HTTP/1.1 200 OK
Content-Type: application/json;charset=utf-8
Transfer-Encoding: chunked
Connection: close
Server: openresty
x-memc: MISS, STORE
x-memc-key: c7c94b54aec248d06d3308343a9287603c7871789dd9c031973691dde6da1aa3
x-memc-age: 0
x-memc-expires: 600
x-az: us-east-1c
x-task-id: 9b5a405761724a11a434fc2769395065
Date: Tue, 09 Dec 2025 15:22:33 GMT
Cache-Control: public, max-age=498
ETag: W/"5f8c304091be4d78a873588dba4757b5"
Vary: accept-encoding
Vary: Origin
X-Cache: RefreshHit from cloudfront
Via: 1.1 b36b68631c5d4e671b86b622ad61723a.cloudfront.net (CloudFront)
X-Amz-Cf-Pop: MAD53-P8
Alt-Svc: h3=":443"; ma=86400
X-Amz-Cf-Id: yNwGlFM532kydzK0-Y7GtIpGKitu2ula4XL5jaEjZhrEp53mdPTm-Q==
Content-Length: 2947

{"results":[{"id":1909259,"adult":false},{"id":3062261,"adult":false},{"id":5866618,"adult":false},{"id":5866619,"adult":false},{"id":9315,"adult":false},{"id":5866620,"adult":false},{"id":5866621,"adult":false},{"id":5866622,"adult":false},{"id":5705657,"adult":null},{"id":5705659,"adult":null},{"id":5866623,"adult":false},{"id":5705661,"adult":null},{"id":5705662,"adult":null},{"id":5214418,"adult":false},{"id":5866624,"adult":false},{"id":5866625,"adult":false},{"id":5866626,"adult":false},{"id":5866627,"adult":false},{"id":5866628,"adult":false},{"id":5866629,"adult":false},{"id":5866630,"adult":false},{"id":5866631,"adult":false},{"id":1703599,"adult":false},{"id":5866632,"adult":false},{"id":5866633,"adult":false},{"id":5866634,"adult":false},{"id":3459532,"adult":false},{"id":3459768,"adult":false},{"id":5866635,"adult":false},{"id":5866636,"adult":false},{"id":53185,"adult":false},{"id":5866637,"adult":false},{"id":5866638,"adult":false},{"id":5866639,"adult":false},{"id":5866640,"adult":false},{"id":5866641,"adult":false},{"id":5866642,"adult":false},{"id":5866643,"adult":true},{"id":5866644,"adult":false},{"id":5866645,"adult":false},{"id":4873110,"adult":false},{"id":5866646,"adult":false},{"id":1476536,"adult":false},{"id":5866647,"adult":false},{"id":5866648,"adult":false},{"id":1403621,"adult":false},{"id":1883930,"adult":false},{"id":3845851,"adult":false},{"id":1798127,"adult":false},{"id":5840061,"adult":false},{"id":4012232,"adult":false},{"id":5866649,"adult":false},{"id":5866650,"adult":false},{"id":5235668,"adult":false},{"id":5866651,"adult":false},{"id":5732949,"adult":null},{"id":5526426,"adult":null},{"id":4055290,"adult":false},{"id":3937241,"adult":false},{"id":3766354,"adult":null},{"id":3948696,"adult":false},{"id":3714875,"adult":false},{"id":3714874,"adult":false},{"id":3798438,"adult":false},{"id":3971983,"adult":false},{"id":4694765,"adult":false},{"id":3442551,"adult":false},{"id":3873048,"adult":false},{"id":3873055,"adult":false},{"id":3820386,"adult":false},{"id":3820382,"adult":false},{"id":4021164,"adult":null},{"id":3873075,"adult":false},{"id":3971970,"adult":false},{"id":3916097,"adult":false},{"id":3971974,"adult":false},{"id":3948717,"adult":false},{"id":4103772,"adult":false},{"id":3948720,"adult":false},{"id":1731961,"adult":false},{"id":3948715,"adult":false},{"id":4483066,"adult":false},{"id":3948686,"adult":false},{"id":3948721,"adult":false},{"id":3928505,"adult":false},{"id":3863275,"adult":false},{"id":3916106,"adult":false},{"id":3948718,"adult":false},{"id":3948713,"adult":false},{"id":5267515,"adult":false},{"id":3831096,"adult":false},{"id":3948714,"adult":false},{"id":3928506,"adult":false},{"id":1124887,"adult":false},{"id":2844161,"adult":false},{"id":5855971,"adult":false},{"id":5866652,"adult":false},{"id":5866653,"adult":false},{"id":5866654,"adult":false},{"id":5866655,"adult":false}],"page":65,"total_pages":69,"total_results":6860}