HTTP/1.1 200 OK
Content-Type: application/json;charset=utf-8
Transfer-Encoding: chunked
Connection: close
Server: openresty
x-memc: MISS, STORE
x-memc-key: da65aadc0b4079ffcd5284b053fc3c18d62a77dcf8c56040a817471280133fda
x-memc-age: 0
x-memc-expires: 600
x-az: us-east-1b
x-task-id: 90d49b9610bc4c5f88809459f968de34
Date: Tue, 09 Dec 2025 15:07:19 GMT
Cache-Control: public, max-age=600
ETag: W/"d6290d2621fc251ab982168e591fcbd8"
Vary: accept-encoding
Vary: Origin
X-Cache: Hit from cloudfront
Via: 1.1 3731a260b105a218299d2247a68d88c4.cloudfront.net (CloudFront)
X-Amz-Cf-Pop: MAD53-P8
Alt-Svc: h3=":443"; ma=86400
X-Amz-Cf-Id: Bnh8UcViHWM45B7KUJ8dTMoCt8Yx-krkWKxOvLKzF-gaj-P2m820Fw==
Age: 457
Content-Length: 2941

{"results":[{"id":5864767,"adult":false},{"id":2762132,"adult":false},{"id":5389981,"adult":false},{"id":5709614,"adult":false},{"id":86253,"adult":false},{"id":195450,"adult":false},{"id":581194,"adult":false},{"id":1819383,"adult":false},{"id":2863126,"adult":false},{"id":3173262,"adult":false},{"id":3166182,"adult":false},{"id":3556005,"adult":false},{"id":2628735,"adult":false},{"id":990648,"adult":false},{"id":2072198,"adult":false},{"id":54052,"adult":false},{"id":4108055,"adult":false},{"id":5864768,"adult":false},{"id":4318904,"adult":false},{"id":5864769,"adult":false},{"id":2651752,"adult":false},{"id":5864770,"adult":false},{"id":5864771,"adult":false},{"id":5864772,"adult":false},{"id":133212,"adult":false},{"id":5864773,"adult":false},{"id":1038757,"adult":true},{"id":1640647,"adult":false},{"id":5864774,"adult":false},{"id":5864775,"adult":false},{"id":3812384,"adult":false},{"id":5610427,"adult":false},{"id":5354155,"adult":false},{"id":5864776,"adult":false},{"id":5864777,"adult":false},{"id":2347654,"adult":false},{"id":3779787,"adult":false},{"id":2007911,"adult":false},{"id":5864778,"adult":false},{"id":5864779,"adult":false},{"id":5864780,"adult":false},{"id":5864781,"adult":false},{"id":5864782,"adult":false},{"id":5864783,"adult":false},{"id":5864784,"adult":false},{"id":5864785,"adult":false},{"id":5432732,"adult":null},{"id":2387198,"adult":false},{"id":5432733,"adult":null},{"id":5864786,"adult":false},{"id":936436,"adult":false},{"id":5864787,"adult":false},{"id":5864788,"adult":false},{"id":5864789,"adult":false},{"id":5864790,"adult":false},{"id":5864791,"adult":false},{"id":5864792,"adult":false},{"id":2448331,"adult":false},{"id":5864793,"adult":false},{"id":1666366,"adult":false},{"id":5864794,"adult":false},{"id":5864795,"adult":false},{"id":5864796,"adult":false},{"id":5864797,"adult":false},{"id":5864798,"adult":false},{"id":5864799,"adult":false},{"id":5864800,"adult":false},{"id":1859875,"adult":false},{"id":5864801,"adult":false},{"id":1995178,"adult":false},{"id":5864802,"adult":false},{"id":5864803,"adult":false},{"id":5864804,"adult":false},{"id":5864805,"adult":false},{"id":1206705,"adult":true},{"id":1300976,"adult":true},{"id":99186,"adult":false},{"id":5864806,"adult":false},{"id":4481504,"adult":false},{"id":5864807,"adult":false},{"id":5864808,"adult":false},{"id":50229,"adult":false},{"id":1190684,"adult":false},{"id":3001045,"adult":false},{"id":5864809,"adult":false},{"id":82403,"adult":false},{"id":5864810,"adult":false},{"id":5864811,"adult":false},{"id":5864812,"adult":false},{"id":5864813,"adult":false},{"id":5864814,"adult":false},{"id":5864815,"adult":false},{"id":5864816,"adult":false},{"id":2757653,"adult":false},{"id":5864817,"adult":false},{"id":5864818,"adult":false},{"id":1088742,"adult":false},{"id":5864819,"adult":false},{"id":5864820,"adult":false},{"id":5864821,"adult":false}],"page":30,"total_pages":69,"total_results":6860}