HTTP/1.1 200 OK
Content-Type: application/json;charset=utf-8
Transfer-Encoding: chunked
Connection: close
Date: Tue, 09 Dec 2025 14:44:12 GMT
Server: openresty
Cache-Control: public, max-age=86400
x-memc: MISS, STORE
x-memc-key: e48de891b53c24215c67bcd5fe0311844dd860ad27772a51e5fc1d525def27ff
x-memc-age: 0
x-memc-expires: 86400
x-az: us-east-1a
x-task-id: 813dbd8b691649a2820aa3f2bfa6a3d7
ETag: W/"17e89c5721ebc999adacdf5e7e6d1fca"
Vary: accept-encoding
Vary: Origin
X-Cache: Hit from cloudfront
Via: 1.1 8ea5a89d0fc9db6bcaef3f8d436858ae.cloudfront.net (CloudFront)
X-Amz-Cf-Pop: MAD53-P8
Alt-Svc: h3=":443"; ma=86400
X-Amz-Cf-Id: JP8sK7ZuDN2wnlc-VI1A1WIDn5uCrqgfRRBXDitV9CD-bXxrRlkC6w==
Age: 2302
Content-Length: 2942

{"results":[{"id":2049511,"adult":false},{"id":1551176,"adult":null},{"id":2049512,"adult":false},{"id":1212673,"adult":null},{"id":2049513,"adult":false},{"id":2049514,"adult":false},{"id":2049515,"adult":false},{"id":1541576,"adult":false},{"id":2049516,"adult":false},{"id":2049517,"adult":false},{"id":2049518,"adult":false},{"id":2049519,"adult":false},{"id":2049520,"adult":false},{"id":2049521,"adult":false},{"id":2049522,"adult":false},{"id":2049523,"adult":false},{"id":2049524,"adult":null},{"id":2836,"adult":false},{"id":2049525,"adult":false},{"id":2049526,"adult":false},{"id":2049527,"adult":false},{"id":2049528,"adult":false},{"id":2049529,"adult":false},{"id":2049530,"adult":false},{"id":2049531,"adult":false},{"id":2049532,"adult":false},{"id":2049533,"adult":false},{"id":2049534,"adult":false},{"id":2049535,"adult":false},{"id":2049536,"adult":false},{"id":2049537,"adult":false},{"id":2049538,"adult":null},{"id":2049539,"adult":null},{"id":2049540,"adult":false},{"id":2049541,"adult":false},{"id":2049542,"adult":false},{"id":2049543,"adult":false},{"id":2049544,"adult":false},{"id":2049545,"adult":false},{"id":2049546,"adult":false},{"id":2049547,"adult":false},{"id":2049548,"adult":false},{"id":2049549,"adult":false},{"id":2049550,"adult":false},{"id":2049551,"adult":false},{"id":2049552,"adult":false},{"id":2049553,"adult":false},{"id":2049554,"adult":false},{"id":2049555,"adult":false},{"id":2049556,"adult":false},{"id":2049557,"adult":false},{"id":2049558,"adult":false},{"id":1070010,"adult":false},{"id":2049559,"adult":false},{"id":2049560,"adult":false},{"id":2049561,"adult":false},{"id":2049562,"adult":false},{"id":2049563,"adult":false},{"id":2049564,"adult":false},{"id":95768,"adult":false},{"id":2049565,"adult":null},{"id":2049566,"adult":false},{"id":1473121,"adult":false},{"id":1798949,"adult":false},{"id":2049567,"adult":null},{"id":1473122,"adult":false},{"id":2049568,"adult":false},{"id":1798950,"adult":false},{"id":1798951,"adult":false},{"id":2049569,"adult":false},{"id":1798952,"adult":false},{"id":2049570,"adult":false},{"id":1473120,"adult":false},{"id":2049571,"adult":false},{"id":2049572,"adult":false},{"id":2049573,"adult":null},{"id":2049574,"adult":false},{"id":1130198,"adult":null},{"id":2049575,"adult":false},{"id":2049576,"adult":false},{"id":2049577,"adult":false},{"id":45923,"adult":false},{"id":2049578,"adult":false},{"id":2049579,"adult":false},{"id":2049580,"adult":false},{"id":1021587,"adult":false},{"id":2049581,"adult":null},{"id":2049582,"adult":false},{"id":2049583,"adult":false},{"id":2049584,"adult":false},{"id":2049585,"adult":false},{"id":2049586,"adult":null},{"id":2049587,"adult":false},{"id":2049588,"adult":false},{"id":2049589,"adult":false},{"id":2049590,"adult":false},{"id":2049591,"adult":false},{"id":1279059,"adult":false},{"id":2049592,"adult":false},{"id":2049593,"adult":false}],"page":2,"total_pages":22,"total_results":2166}