HTTP/1.1 200 OK
Content-Type: application/json;charset=utf-8
Transfer-Encoding: chunked
Connection: close
Server: openresty
x-memc: MISS, STORE
x-memc-key: 3ac1f2369d007e9ceedc278c5d1f1e0aeb95b1930bb03501c6b693a079f05a2a
x-memc-age: 0
x-memc-expires: 600
x-az: us-east-1b
x-task-id: 30da6ae4440a42f0a445f111617018a6
Date: Tue, 09 Dec 2025 15:07:24 GMT
Cache-Control: public, max-age=600
ETag: W/"d256e6a8b637d0ef91cf5ec25832ff95"
Vary: accept-encoding
Vary: Origin
X-Cache: Hit from cloudfront
Via: 1.1 8dd6c31efab2c0e3b91356d912029cae.cloudfront.net (CloudFront)
X-Amz-Cf-Pop: MAD53-P8
Alt-Svc: h3=":443"; ma=86400
X-Amz-Cf-Id: ZsHyoKaZpgXY8iaKhqutj1zR-mU1PPjhBkZ_-sHCSBcMUOgPWgE8MA==
Age: 453
Content-Length: 2914

{"results":[{"id":5866420,"adult":false},{"id":5866421,"adult":false},{"id":5866422,"adult":false},{"id":5126848,"adult":true},{"id":5505967,"adult":false},{"id":3705723,"adult":false},{"id":3788584,"adult":false},{"id":5753621,"adult":null},{"id":3452080,"adult":false},{"id":4064480,"adult":false},{"id":4047222,"adult":false},{"id":4115146,"adult":null},{"id":4115155,"adult":null},{"id":4115156,"adult":null},{"id":4123220,"adult":null},{"id":4123222,"adult":null},{"id":4123223,"adult":null},{"id":4403157,"adult":null},{"id":3125764,"adult":false},{"id":4403160,"adult":null},{"id":4403161,"adult":null},{"id":4403162,"adult":null},{"id":4403165,"adult":null},{"id":4403167,"adult":null},{"id":5399390,"adult":null},{"id":5399396,"adult":null},{"id":5399399,"adult":null},{"id":5399401,"adult":null},{"id":5399402,"adult":null},{"id":5399408,"adult":null},{"id":5399409,"adult":null},{"id":5680355,"adult":null},{"id":5680357,"adult":null},{"id":5680358,"adult":null},{"id":5680359,"adult":null},{"id":5681037,"adult":null},{"id":5683107,"adult":null},{"id":5734758,"adult":null},{"id":5734917,"adult":null},{"id":5854391,"adult":null},{"id":3642736,"adult":false},{"id":5866423,"adult":false},{"id":5866424,"adult":false},{"id":3539738,"adult":false},{"id":3836848,"adult":false},{"id":3488584,"adult":false},{"id":3836852,"adult":false},{"id":5866425,"adult":false},{"id":4193236,"adult":false},{"id":5866426,"adult":false},{"id":5866427,"adult":false},{"id":17628,"adult":false},{"id":4767161,"adult":false},{"id":4402397,"adult":false},{"id":5866428,"adult":false},{"id":4402396,"adult":false},{"id":4402400,"adult":false},{"id":4389905,"adult":false},{"id":5866429,"adult":false},{"id":5243294,"adult":false},{"id":5866430,"adult":false},{"id":5866431,"adult":false},{"id":98537,"adult":false},{"id":1945694,"adult":false},{"id":1834508,"adult":false},{"id":5866432,"adult":false},{"id":3118730,"adult":false},{"id":4078895,"adult":false},{"id":4089231,"adult":false},{"id":59522,"adult":false},{"id":5480503,"adult":false},{"id":3487317,"adult":false},{"id":1023296,"adult":false},{"id":1250543,"adult":false},{"id":5862893,"adult":null},{"id":4534590,"adult":false},{"id":1250542,"adult":false},{"id":2618312,"adult":false},{"id":5862885,"adult":null},{"id":2161276,"adult":false},{"id":55466,"adult":false},{"id":5856524,"adult":null},{"id":5856523,"adult":null},{"id":1269683,"adult":false},{"id":5866433,"adult":false},{"id":1504740,"adult":false},{"id":5866434,"adult":false},{"id":5866435,"adult":false},{"id":1277093,"adult":false},{"id":4037902,"adult":false},{"id":1651968,"adult":false},{"id":4490660,"adult":null},{"id":4502998,"adult":null},{"id":5824643,"adult":null},{"id":5824645,"adult":null},{"id":5824646,"adult":null},{"id":5866436,"adult":false},{"id":5866437,"adult":false},{"id":5866438,"adult":false},{"id":5866439,"adult":false}],"page":59,"total_pages":69,"total_results":6860}