HTTP/1.1 200 OK
Content-Type: application/json;charset=utf-8
Transfer-Encoding: chunked
Connection: close
Server: openresty
x-memc: MISS, STORE
x-memc-key: 168908b58b4b8cce65a4ebfc1dc8ca9d0c5de66b4394f87bf54db30a1b45da89
x-memc-age: 0
x-memc-expires: 600
x-az: us-east-1b
x-task-id: b8242b4982bb449b83edb73b5551b01a
Date: Tue, 09 Dec 2025 15:22:22 GMT
Cache-Control: public, max-age=477
ETag: W/"00ab0051f02c85baa2cee3f724ca1d98"
Vary: accept-encoding
Vary: Origin
X-Cache: RefreshHit from cloudfront
Via: 1.1 2ef1b1b84e938b6071d9a4f357c18e56.cloudfront.net (CloudFront)
X-Amz-Cf-Pop: MAD53-P8
Alt-Svc: h3=":443"; ma=86400
X-Amz-Cf-Id: 11Wqnl2tLwT5cBrikuKiOqNz_F5ucwi7A7sQrNx34DeraMZDjntWGw==
Content-Length: 2935

{"results":[{"id":5863532,"adult":null},{"id":5863515,"adult":null},{"id":5863481,"adult":null},{"id":5863476,"adult":null},{"id":5863320,"adult":null},{"id":5863319,"adult":null},{"id":5863317,"adult":null},{"id":5863313,"adult":null},{"id":5863312,"adult":null},{"id":5863311,"adult":null},{"id":2324116,"adult":false},{"id":5598330,"adult":false},{"id":5864082,"adult":false},{"id":2519333,"adult":false},{"id":51944,"adult":false},{"id":5864083,"adult":false},{"id":4868900,"adult":false},{"id":5864084,"adult":false},{"id":4409305,"adult":false},{"id":5864085,"adult":false},{"id":5864086,"adult":false},{"id":5864087,"adult":false},{"id":5864088,"adult":false},{"id":5243908,"adult":false},{"id":5864089,"adult":null},{"id":5864090,"adult":false},{"id":5864091,"adult":false},{"id":5864092,"adult":false},{"id":5864093,"adult":false},{"id":5864094,"adult":null},{"id":5864095,"adult":false},{"id":5864096,"adult":false},{"id":2361758,"adult":false},{"id":5864097,"adult":false},{"id":5864098,"adult":false},{"id":5864099,"adult":false},{"id":5864100,"adult":false},{"id":5864101,"adult":false},{"id":5864102,"adult":false},{"id":2860060,"adult":false},{"id":5641679,"adult":false},{"id":4309008,"adult":false},{"id":5864103,"adult":false},{"id":5864104,"adult":false},{"id":5864105,"adult":false},{"id":5264528,"adult":false},{"id":5864106,"adult":false},{"id":5864107,"adult":false},{"id":5864108,"adult":false},{"id":3820902,"adult":false},{"id":5864109,"adult":false},{"id":3128760,"adult":false},{"id":5864110,"adult":false},{"id":15439,"adult":false},{"id":5864111,"adult":false},{"id":5864112,"adult":false},{"id":5864113,"adult":false},{"id":5864114,"adult":false},{"id":5864115,"adult":false},{"id":5864116,"adult":false},{"id":2474444,"adult":true},{"id":5864117,"adult":false},{"id":5864118,"adult":false},{"id":3313929,"adult":false},{"id":5864119,"adult":false},{"id":5864120,"adult":false},{"id":5230611,"adult":false},{"id":5864121,"adult":null},{"id":5864122,"adult":false},{"id":5864123,"adult":null},{"id":5864124,"adult":false},{"id":2725104,"adult":false},{"id":5864125,"adult":false},{"id":5864126,"adult":false},{"id":2882539,"adult":false},{"id":4462782,"adult":false},{"id":5864127,"adult":false},{"id":5864128,"adult":null},{"id":1384151,"adult":false},{"id":2475433,"adult":false},{"id":5864129,"adult":false},{"id":5864130,"adult":false},{"id":1956319,"adult":false},{"id":5864131,"adult":false},{"id":5864132,"adult":null},{"id":5864133,"adult":false},{"id":71054,"adult":false},{"id":4236679,"adult":false},{"id":4236677,"adult":false},{"id":5864134,"adult":null},{"id":4042460,"adult":false},{"id":2820422,"adult":false},{"id":1841733,"adult":false},{"id":3083206,"adult":false},{"id":5864135,"adult":false},{"id":3838524,"adult":false},{"id":2054461,"adult":false},{"id":5864136,"adult":null},{"id":3537364,"adult":false},{"id":5492318,"adult":false}],"page":6,"total_pages":69,"total_results":6860}