HTTP/1.1 200 OK
Content-Type: application/json;charset=utf-8
Transfer-Encoding: chunked
Connection: close
Server: openresty
x-memc: MISS, STORE
x-memc-key: 2d3a2ab4aeb77c6250eefd7ee536f62ee16eb136b8186c46194d3170de9a24bd
x-memc-age: 0
x-memc-expires: 600
x-az: us-east-1b
x-task-id: 67325ed8fae54d21938cb70a8a8db3b9
Date: Tue, 09 Dec 2025 15:22:22 GMT
Cache-Control: public, max-age=477
ETag: W/"78a928becb1eca2ba38ee2f56d725a1a"
Vary: accept-encoding
Vary: Origin
X-Cache: RefreshHit from cloudfront
Via: 1.1 af27d8f497c4d326909accf8eaaccca4.cloudfront.net (CloudFront)
X-Amz-Cf-Pop: MAD53-P8
Alt-Svc: h3=":443"; ma=86400
X-Amz-Cf-Id: Wq2Sc6FjYqpxJsmevafImh0Q7_a2_eK13cV89RTbNIXo1ChS28FycQ==
Content-Length: 2941

{"results":[{"id":5851008,"adult":false},{"id":3493363,"adult":false},{"id":5204861,"adult":false},{"id":4383264,"adult":false},{"id":3039804,"adult":false},{"id":4969564,"adult":false},{"id":5864137,"adult":null},{"id":5864138,"adult":false},{"id":1173585,"adult":false},{"id":1925442,"adult":false},{"id":1407532,"adult":false},{"id":5864139,"adult":false},{"id":4212064,"adult":false},{"id":5864140,"adult":null},{"id":23984,"adult":false},{"id":18865,"adult":false},{"id":3987236,"adult":false},{"id":5864141,"adult":null},{"id":1844141,"adult":false},{"id":4607427,"adult":false},{"id":1136778,"adult":false},{"id":4607450,"adult":false},{"id":4607454,"adult":false},{"id":5692240,"adult":false},{"id":124889,"adult":false},{"id":1631344,"adult":false},{"id":3970723,"adult":true},{"id":4865963,"adult":false},{"id":5864142,"adult":null},{"id":4865964,"adult":false},{"id":4865965,"adult":false},{"id":4865972,"adult":false},{"id":3510301,"adult":false},{"id":5864143,"adult":null},{"id":4865928,"adult":false},{"id":4865933,"adult":false},{"id":1535563,"adult":false},{"id":2260220,"adult":false},{"id":65986,"adult":false},{"id":1755388,"adult":false},{"id":2272517,"adult":false},{"id":130204,"adult":false},{"id":5775903,"adult":false},{"id":4026744,"adult":false},{"id":5120542,"adult":false},{"id":5120551,"adult":false},{"id":3447631,"adult":false},{"id":1964825,"adult":false},{"id":1992425,"adult":false},{"id":5813238,"adult":false},{"id":5864144,"adult":false},{"id":5250793,"adult":false},{"id":5864145,"adult":false},{"id":4946580,"adult":false},{"id":5864146,"adult":false},{"id":3812821,"adult":false},{"id":5864147,"adult":false},{"id":5864148,"adult":false},{"id":5864149,"adult":false},{"id":5864150,"adult":false},{"id":1353701,"adult":false},{"id":5864151,"adult":false},{"id":5401348,"adult":false},{"id":144510,"adult":false},{"id":64500,"adult":false},{"id":1140989,"adult":false},{"id":4435858,"adult":false},{"id":2465833,"adult":false},{"id":562203,"adult":false},{"id":5832293,"adult":false},{"id":3433991,"adult":false},{"id":4700912,"adult":false},{"id":556830,"adult":false},{"id":4837703,"adult":false},{"id":4837711,"adult":false},{"id":4837700,"adult":false},{"id":3438411,"adult":false},{"id":1679125,"adult":false},{"id":3637343,"adult":false},{"id":4837701,"adult":false},{"id":2340770,"adult":false},{"id":3945560,"adult":false},{"id":2420015,"adult":false},{"id":2355360,"adult":false},{"id":1441257,"adult":false},{"id":2019817,"adult":false},{"id":4877913,"adult":false},{"id":4877946,"adult":false},{"id":4849588,"adult":false},{"id":5864152,"adult":false},{"id":4878925,"adult":false},{"id":4878927,"adult":false},{"id":4878928,"adult":false},{"id":4878940,"adult":false},{"id":3191681,"adult":false},{"id":4878972,"adult":false},{"id":5864153,"adult":false},{"id":4878981,"adult":false},{"id":4878982,"adult":false},{"id":4878983,"adult":false}],"page":7,"total_pages":69,"total_results":6860}