HTTP/1.1 200 OK
Content-Type: application/json;charset=utf-8
Transfer-Encoding: chunked
Connection: close
Server: openresty
x-memc: MISS, STORE
x-memc-key: cae88285459cc4866c89db3ed8390d05ada15812d23bd0ed40c7552b3675fd1e
x-memc-age: 0
x-memc-expires: 600
x-az: us-east-1c
x-task-id: 9b5a405761724a11a434fc2769395065
Date: Tue, 09 Dec 2025 15:07:20 GMT
Cache-Control: public, max-age=600
ETag: W/"5a35cc17187a3c3f2d38dd83580f85a9"
Vary: accept-encoding
Vary: Origin
X-Cache: Hit from cloudfront
Via: 1.1 994deeea5117897efd50b3e367af0a6a.cloudfront.net (CloudFront)
X-Amz-Cf-Pop: MAD53-P8
Alt-Svc: h3=":443"; ma=86400
X-Amz-Cf-Id: uKsxILilhNxB82p41QbuEfbwmod4XHwBpxR02qxdfTqK4lL_HVy4tQ==
Age: 456
Content-Length: 2947

{"results":[{"id":5865203,"adult":false},{"id":5865204,"adult":false},{"id":5865205,"adult":false},{"id":5865206,"adult":false},{"id":5865207,"adult":false},{"id":5865208,"adult":false},{"id":5865209,"adult":false},{"id":5865210,"adult":false},{"id":5865211,"adult":false},{"id":5865212,"adult":false},{"id":5865213,"adult":false},{"id":20354,"adult":false},{"id":116882,"adult":false},{"id":1517535,"adult":false},{"id":26997,"adult":false},{"id":26291,"adult":false},{"id":5865214,"adult":false},{"id":139760,"adult":false},{"id":5865215,"adult":false},{"id":5865216,"adult":false},{"id":5865217,"adult":false},{"id":5865218,"adult":false},{"id":4517006,"adult":false},{"id":1517134,"adult":false},{"id":5865219,"adult":false},{"id":134180,"adult":false},{"id":5865220,"adult":false},{"id":5865221,"adult":false},{"id":5865222,"adult":false},{"id":5865223,"adult":false},{"id":5865224,"adult":false},{"id":5865225,"adult":false},{"id":1873539,"adult":false},{"id":5865226,"adult":false},{"id":5865227,"adult":false},{"id":5865228,"adult":false},{"id":5865229,"adult":false},{"id":5865230,"adult":false},{"id":5865231,"adult":false},{"id":5865232,"adult":true},{"id":5865233,"adult":false},{"id":3018675,"adult":false},{"id":5080416,"adult":false},{"id":1482651,"adult":false},{"id":1250863,"adult":false},{"id":5865234,"adult":false},{"id":3970591,"adult":true},{"id":583796,"adult":false},{"id":5865235,"adult":false},{"id":5865236,"adult":false},{"id":1065710,"adult":false},{"id":5865237,"adult":false},{"id":1592289,"adult":false},{"id":5865238,"adult":false},{"id":5865239,"adult":false},{"id":5865240,"adult":false},{"id":5865241,"adult":false},{"id":5865242,"adult":false},{"id":5865243,"adult":false},{"id":5865244,"adult":false},{"id":5865245,"adult":false},{"id":5865246,"adult":false},{"id":5865247,"adult":false},{"id":5865248,"adult":false},{"id":5865249,"adult":false},{"id":5865250,"adult":false},{"id":5865251,"adult":false},{"id":5865252,"adult":false},{"id":5865253,"adult":false},{"id":5865254,"adult":false},{"id":5865255,"adult":false},{"id":5865256,"adult":false},{"id":5865257,"adult":false},{"id":5865258,"adult":false},{"id":5865259,"adult":false},{"id":5865260,"adult":false},{"id":5865261,"adult":false},{"id":1360317,"adult":false},{"id":2395446,"adult":false},{"id":5865262,"adult":true},{"id":1873443,"adult":false},{"id":5865263,"adult":false},{"id":5865264,"adult":false},{"id":5865265,"adult":false},{"id":5865266,"adult":false},{"id":1089416,"adult":false},{"id":1260481,"adult":false},{"id":5865267,"adult":true},{"id":5823211,"adult":false},{"id":5865268,"adult":false},{"id":5865269,"adult":false},{"id":5865270,"adult":false},{"id":5865271,"adult":false},{"id":5865272,"adult":false},{"id":5865273,"adult":false},{"id":5865274,"adult":false},{"id":5865275,"adult":false},{"id":5865276,"adult":false},{"id":5865277,"adult":false},{"id":5865278,"adult":false}],"page":38,"total_pages":69,"total_results":6860}