HTTP/1.1 200 OK
Content-Type: application/json;charset=utf-8
Transfer-Encoding: chunked
Connection: close
Server: openresty
x-memc: MISS, STORE
x-memc-key: 588b39a0ca73b7e0ddfaee3a41f80371e5181215b8ed60f91e5d53c654b0de8c
x-memc-age: 0
x-memc-expires: 600
x-az: us-east-1a
x-task-id: 813dbd8b691649a2820aa3f2bfa6a3d7
Date: Tue, 09 Dec 2025 15:07:18 GMT
Cache-Control: public, max-age=600
ETag: W/"28253cf523557eaeb38f1588f39b0d63"
Vary: accept-encoding
Vary: Origin
X-Cache: Hit from cloudfront
Via: 1.1 e9f03a34d7973367544d730361789f76.cloudfront.net (CloudFront)
X-Amz-Cf-Pop: MAD53-P8
Alt-Svc: h3=":443"; ma=86400
X-Amz-Cf-Id: 3yQeGbZzc8XyJY7pVCzLS6Rj7Rk_K2mgOxA2j0E8hm3ZvFRpBblt0w==
Age: 458
Content-Length: 2952

{"results":[{"id":5864629,"adult":false},{"id":3764428,"adult":false},{"id":2859357,"adult":false},{"id":5864630,"adult":false},{"id":5861924,"adult":false},{"id":5864631,"adult":false},{"id":1705504,"adult":false},{"id":3256834,"adult":false},{"id":5864632,"adult":false},{"id":5308432,"adult":false},{"id":5308435,"adult":false},{"id":5661269,"adult":false},{"id":1880391,"adult":false},{"id":3191695,"adult":false},{"id":5864633,"adult":false},{"id":5864634,"adult":false},{"id":5847374,"adult":false},{"id":5864635,"adult":false},{"id":1790768,"adult":false},{"id":5864636,"adult":false},{"id":5847381,"adult":false},{"id":5864637,"adult":false},{"id":1422097,"adult":false},{"id":5864638,"adult":false},{"id":3953574,"adult":false},{"id":5864639,"adult":false},{"id":5864640,"adult":false},{"id":5864641,"adult":false},{"id":5864642,"adult":false},{"id":1632465,"adult":false},{"id":1639378,"adult":false},{"id":4094476,"adult":false},{"id":5847391,"adult":false},{"id":5864643,"adult":false},{"id":5864644,"adult":false},{"id":5864645,"adult":false},{"id":556106,"adult":false},{"id":5864646,"adult":false},{"id":3879834,"adult":false},{"id":2481171,"adult":false},{"id":3995101,"adult":false},{"id":3189594,"adult":false},{"id":1641427,"adult":false},{"id":5864647,"adult":false},{"id":110927,"adult":false},{"id":5864648,"adult":false},{"id":3371880,"adult":false},{"id":3527804,"adult":false},{"id":1689152,"adult":false},{"id":5864649,"adult":false},{"id":1662999,"adult":false},{"id":4888499,"adult":false},{"id":1716915,"adult":false},{"id":1771027,"adult":false},{"id":1716927,"adult":false},{"id":5864650,"adult":false},{"id":1664841,"adult":false},{"id":2257708,"adult":false},{"id":2211189,"adult":false},{"id":1677586,"adult":false},{"id":5784612,"adult":false},{"id":2862032,"adult":false},{"id":5864651,"adult":false},{"id":4807163,"adult":false},{"id":5863098,"adult":null},{"id":5864652,"adult":false},{"id":1427076,"adult":false},{"id":3767030,"adult":false},{"id":5863101,"adult":null},{"id":5864653,"adult":false},{"id":4788430,"adult":false},{"id":2306806,"adult":false},{"id":5469008,"adult":false},{"id":5864654,"adult":false},{"id":4788436,"adult":false},{"id":2818769,"adult":false},{"id":5864655,"adult":false},{"id":3887608,"adult":false},{"id":5667857,"adult":false},{"id":4788541,"adult":false},{"id":1552504,"adult":false},{"id":1930794,"adult":false},{"id":1683043,"adult":false},{"id":5277781,"adult":false},{"id":5864656,"adult":false},{"id":5864657,"adult":false},{"id":4685937,"adult":false},{"id":5864658,"adult":false},{"id":5277782,"adult":false},{"id":2212290,"adult":false},{"id":3965522,"adult":false},{"id":4803473,"adult":false},{"id":184002,"adult":false},{"id":5265042,"adult":false},{"id":1617113,"adult":false},{"id":2263472,"adult":false},{"id":5864659,"adult":false},{"id":5864660,"adult":false},{"id":17442,"adult":false},{"id":136557,"adult":true}],"page":25,"total_pages":69,"total_results":6860}