HTTP/1.1 200 OK
Content-Type: application/json;charset=utf-8
Transfer-Encoding: chunked
Connection: close
Server: openresty
x-memc: MISS, STORE
x-memc-key: 988aa1e8b6c67a7a1dca01886700104d53cab45155c6c5fa8458adbffbffcf0f
x-memc-age: 0
x-memc-expires: 600
x-az: us-east-1a
x-task-id: 813dbd8b691649a2820aa3f2bfa6a3d7
Date: Tue, 09 Dec 2025 15:22:30 GMT
Cache-Control: public, max-age=484
ETag: W/"4c30ea8c268f7903e22da9c3b9bdd598"
Vary: accept-encoding
Vary: Origin
X-Cache: RefreshHit from cloudfront
Via: 1.1 c5aaac5b3515508fe019ba38a51d29f4.cloudfront.net (CloudFront)
X-Amz-Cf-Pop: MAD53-P8
Alt-Svc: h3=":443"; ma=86400
X-Amz-Cf-Id: cGha4VEHF2m_fOfsb-gyAcy9WVkk5e2p9ov06IIn8jJPE3Hsus2_OQ==
Content-Length: 2924

{"results":[{"id":1224765,"adult":false},{"id":216409,"adult":false},{"id":503,"adult":false},{"id":3172420,"adult":false},{"id":2373047,"adult":false},{"id":5865883,"adult":false},{"id":148352,"adult":false},{"id":5865884,"adult":null},{"id":81209,"adult":false},{"id":5865885,"adult":false},{"id":5865886,"adult":false},{"id":1224796,"adult":false},{"id":996687,"adult":false},{"id":980834,"adult":false},{"id":51866,"adult":false},{"id":5865887,"adult":false},{"id":5865888,"adult":false},{"id":5865889,"adult":false},{"id":3033044,"adult":false},{"id":967321,"adult":false},{"id":4828604,"adult":true},{"id":3820567,"adult":true},{"id":5865890,"adult":false},{"id":5566456,"adult":false},{"id":3851128,"adult":false},{"id":4356362,"adult":false},{"id":5865891,"adult":false},{"id":5865892,"adult":false},{"id":5865893,"adult":false},{"id":5047995,"adult":false},{"id":5048029,"adult":false},{"id":1119521,"adult":false},{"id":5865894,"adult":false},{"id":5865895,"adult":false},{"id":5865896,"adult":false},{"id":5862039,"adult":false},{"id":5865897,"adult":null},{"id":5865898,"adult":false},{"id":1148755,"adult":false},{"id":1708362,"adult":false},{"id":1708361,"adult":false},{"id":5865899,"adult":false},{"id":1327998,"adult":false},{"id":143174,"adult":false},{"id":56930,"adult":false},{"id":11318,"adult":false},{"id":9047,"adult":false},{"id":1270436,"adult":false},{"id":550913,"adult":false},{"id":5865900,"adult":false},{"id":5865901,"adult":false},{"id":5865902,"adult":false},{"id":2747380,"adult":false},{"id":5858302,"adult":false},{"id":5865903,"adult":false},{"id":5865904,"adult":false},{"id":5865905,"adult":false},{"id":5865906,"adult":false},{"id":3478918,"adult":false},{"id":12893,"adult":false},{"id":5865907,"adult":false},{"id":3287257,"adult":false},{"id":5865908,"adult":null},{"id":5865909,"adult":false},{"id":5865910,"adult":false},{"id":5865911,"adult":false},{"id":5865912,"adult":false},{"id":5865913,"adult":false},{"id":5865914,"adult":false},{"id":5865915,"adult":false},{"id":5865916,"adult":false},{"id":5865917,"adult":false},{"id":5865918,"adult":false},{"id":21075,"adult":false},{"id":5865919,"adult":false},{"id":1784348,"adult":false},{"id":1686427,"adult":false},{"id":82587,"adult":false},{"id":1701005,"adult":false},{"id":1372629,"adult":false},{"id":5865920,"adult":false},{"id":1347947,"adult":false},{"id":1255064,"adult":false},{"id":1678104,"adult":false},{"id":5865921,"adult":false},{"id":5865922,"adult":false},{"id":5865923,"adult":false},{"id":5865924,"adult":false},{"id":5865925,"adult":false},{"id":5865926,"adult":false},{"id":5865927,"adult":false},{"id":5865928,"adult":false},{"id":5865929,"adult":false},{"id":5865930,"adult":false},{"id":5865931,"adult":false},{"id":3127,"adult":false},{"id":5865932,"adult":false},{"id":5532619,"adult":null},{"id":5865933,"adult":false},{"id":1249143,"adult":false}],"page":49,"total_pages":69,"total_results":6860}