HTTP/1.1 200 OK
Content-Type: application/json;charset=utf-8
Transfer-Encoding: chunked
Connection: close
Server: openresty
x-memc: MISS, STORE
x-memc-key: 93a45f6c3ddc1de0a7699c8e8d7515ac670061ec6d09b5a19cc2fb06527b6b05
x-memc-age: 0
x-memc-expires: 600
x-az: us-east-1b
x-task-id: b8242b4982bb449b83edb73b5551b01a
Date: Tue, 09 Dec 2025 15:07:23 GMT
Cache-Control: public, max-age=600
ETag: W/"3f112ab716efc093506bbb44e115a37d"
Vary: accept-encoding
Vary: Origin
X-Cache: Hit from cloudfront
Via: 1.1 7e7ba163f7cdb4f59c418e3f1e0e1656.cloudfront.net (CloudFront)
X-Amz-Cf-Pop: MAD53-P8
Alt-Svc: h3=":443"; ma=86400
X-Amz-Cf-Id: 5P6D6RCEGN9j3iZ-Esw-h3kxg_AiWzLbXFmznUInwAIUoMaYIs5Rlg==
Age: 454
Content-Length: 2951

{"results":[{"id":2519535,"adult":false},{"id":3809923,"adult":false},{"id":3809924,"adult":false},{"id":3128325,"adult":false},{"id":3809922,"adult":false},{"id":5866013,"adult":false},{"id":5866014,"adult":false},{"id":5866015,"adult":false},{"id":5866016,"adult":false},{"id":5806740,"adult":false},{"id":2301863,"adult":true},{"id":5866017,"adult":false},{"id":5866018,"adult":false},{"id":5866019,"adult":false},{"id":5866020,"adult":false},{"id":3201248,"adult":true},{"id":1137824,"adult":false},{"id":1226116,"adult":false},{"id":5866021,"adult":false},{"id":5866022,"adult":false},{"id":5866023,"adult":false},{"id":5808779,"adult":false},{"id":5866024,"adult":false},{"id":5866025,"adult":false},{"id":5866026,"adult":false},{"id":5866027,"adult":false},{"id":5866028,"adult":false},{"id":5866029,"adult":false},{"id":1107492,"adult":false},{"id":5806748,"adult":false},{"id":5866030,"adult":false},{"id":5866031,"adult":false},{"id":5866032,"adult":false},{"id":5866033,"adult":false},{"id":5866034,"adult":false},{"id":5866035,"adult":false},{"id":5866036,"adult":false},{"id":5866037,"adult":false},{"id":3691136,"adult":true},{"id":5866038,"adult":false},{"id":5866039,"adult":false},{"id":1237725,"adult":false},{"id":4179771,"adult":false},{"id":3498525,"adult":false},{"id":5860428,"adult":false},{"id":5866040,"adult":false},{"id":3227170,"adult":false},{"id":5866041,"adult":false},{"id":5866042,"adult":false},{"id":5866043,"adult":false},{"id":5866044,"adult":false},{"id":5866045,"adult":false},{"id":5866046,"adult":false},{"id":5866047,"adult":false},{"id":5866048,"adult":false},{"id":5866049,"adult":false},{"id":5866050,"adult":false},{"id":5866051,"adult":false},{"id":5866052,"adult":false},{"id":5866053,"adult":false},{"id":5866054,"adult":false},{"id":5671440,"adult":false},{"id":5866055,"adult":false},{"id":5866056,"adult":false},{"id":5866057,"adult":false},{"id":5866058,"adult":false},{"id":5866059,"adult":false},{"id":5866060,"adult":false},{"id":5866061,"adult":false},{"id":5866062,"adult":false},{"id":5866063,"adult":false},{"id":5866064,"adult":false},{"id":5866065,"adult":false},{"id":5866066,"adult":false},{"id":5866067,"adult":false},{"id":5866068,"adult":false},{"id":5866069,"adult":false},{"id":5866070,"adult":false},{"id":2441244,"adult":false},{"id":3333844,"adult":false},{"id":3154761,"adult":false},{"id":4433843,"adult":false},{"id":4433864,"adult":false},{"id":5866071,"adult":false},{"id":5866072,"adult":false},{"id":5866073,"adult":false},{"id":854,"adult":false},{"id":5866074,"adult":false},{"id":5866075,"adult":false},{"id":5866076,"adult":false},{"id":1595499,"adult":false},{"id":5866077,"adult":false},{"id":5195913,"adult":true},{"id":71610,"adult":false},{"id":3333980,"adult":false},{"id":3333979,"adult":false},{"id":3333983,"adult":false},{"id":5866078,"adult":false},{"id":5866079,"adult":false},{"id":5866080,"adult":false}],"page":51,"total_pages":69,"total_results":6860}