HTTP/1.1 200 OK
Content-Type: application/json;charset=utf-8
Transfer-Encoding: chunked
Connection: close
Server: openresty
x-memc: MISS, STORE
x-memc-key: 3d4ff334888ad15c5d85191b156f2eb8c97d6b90d23b8b8ad9dbabd7eaa14999
x-memc-age: 0
x-memc-expires: 600
x-az: us-east-1b
x-task-id: b8242b4982bb449b83edb73b5551b01a
Date: Tue, 09 Dec 2025 15:22:23 GMT
Cache-Control: public, max-age=478
ETag: W/"1c4e1f68d8d182a64efafc72256a2599"
Vary: accept-encoding
Vary: Origin
X-Cache: RefreshHit from cloudfront
Via: 1.1 cbf33f1ce87e15a598a4a078f6825e00.cloudfront.net (CloudFront)
X-Amz-Cf-Pop: MAD53-P8
Alt-Svc: h3=":443"; ma=86400
X-Amz-Cf-Id: lXsxTl7DyxX7cGyQsBeHOoeW-_otMa4btc9WcmwWhxJec8_lePfZdg==
Content-Length: 2884

{"results":[{"id":13023,"adult":false},{"id":2182257,"adult":false},{"id":51797,"adult":false},{"id":5864244,"adult":false},{"id":20982,"adult":false},{"id":5864245,"adult":false},{"id":1291220,"adult":false},{"id":5864246,"adult":false},{"id":5855642,"adult":false},{"id":1371769,"adult":false},{"id":5864247,"adult":false},{"id":2346808,"adult":false},{"id":5803287,"adult":false},{"id":5864248,"adult":false},{"id":976,"adult":false},{"id":4431,"adult":false},{"id":21246,"adult":false},{"id":5864249,"adult":false},{"id":1614284,"adult":false},{"id":1480931,"adult":false},{"id":59620,"adult":false},{"id":3264243,"adult":false},{"id":5864250,"adult":false},{"id":9281,"adult":false},{"id":67119,"adult":false},{"id":5864251,"adult":false},{"id":1631599,"adult":false},{"id":94797,"adult":false},{"id":18918,"adult":false},{"id":5864252,"adult":false},{"id":52300,"adult":false},{"id":179625,"adult":false},{"id":4734867,"adult":false},{"id":5864253,"adult":false},{"id":5864254,"adult":false},{"id":5864255,"adult":false},{"id":4730,"adult":false},{"id":4277856,"adult":false},{"id":4277859,"adult":false},{"id":5864256,"adult":false},{"id":8534,"adult":false},{"id":1381631,"adult":false},{"id":5864257,"adult":false},{"id":148617,"adult":false},{"id":148618,"adult":false},{"id":5864258,"adult":false},{"id":8699,"adult":false},{"id":5864259,"adult":false},{"id":116051,"adult":false},{"id":1793568,"adult":false},{"id":105030,"adult":false},{"id":5864260,"adult":false},{"id":11863,"adult":false},{"id":2491820,"adult":false},{"id":2032382,"adult":false},{"id":5864261,"adult":false},{"id":2573529,"adult":false},{"id":2336779,"adult":false},{"id":3477223,"adult":false},{"id":5864262,"adult":false},{"id":5864263,"adult":false},{"id":3477224,"adult":false},{"id":3477225,"adult":false},{"id":5864264,"adult":false},{"id":3477229,"adult":false},{"id":1753341,"adult":false},{"id":5864265,"adult":false},{"id":936459,"adult":false},{"id":31512,"adult":false},{"id":1420406,"adult":false},{"id":2134053,"adult":true},{"id":25879,"adult":false},{"id":1181123,"adult":false},{"id":1908252,"adult":false},{"id":2831847,"adult":false},{"id":2691227,"adult":false},{"id":55117,"adult":false},{"id":5864266,"adult":false},{"id":70587,"adult":false},{"id":1589504,"adult":false},{"id":2039,"adult":false},{"id":9565,"adult":false},{"id":1941782,"adult":false},{"id":136936,"adult":true},{"id":89040,"adult":false},{"id":529,"adult":false},{"id":20211,"adult":false},{"id":1215283,"adult":false},{"id":52271,"adult":false},{"id":3004041,"adult":false},{"id":66743,"adult":false},{"id":3148644,"adult":false},{"id":2450445,"adult":false},{"id":141748,"adult":false},{"id":3868761,"adult":false},{"id":60672,"adult":false},{"id":3586406,"adult":false},{"id":1320623,"adult":false},{"id":5161223,"adult":false},{"id":4198113,"adult":false}],"page":12,"total_pages":69,"total_results":6860}