HTTP/1.1 200 OK
Content-Type: application/json;charset=utf-8
Transfer-Encoding: chunked
Connection: close
Server: openresty
x-memc: MISS, STORE
x-memc-key: 3da7a7be70b277d3f28b9d1a9a84f14edfd218d38ad57da68efef53936b05ca4
x-memc-age: 0
x-memc-expires: 600
x-az: us-east-1b
x-task-id: b8242b4982bb449b83edb73b5551b01a
Date: Tue, 09 Dec 2025 15:22:25 GMT
Cache-Control: public, max-age=480
ETag: W/"0cf3fa9b458875b443f90c1cd6ac35b8"
Vary: accept-encoding
Vary: Origin
X-Cache: RefreshHit from cloudfront
Via: 1.1 aaa7ac5749bcacfb16caeb80b579a9b4.cloudfront.net (CloudFront)
X-Amz-Cf-Pop: MAD53-P8
Alt-Svc: h3=":443"; ma=86400
X-Amz-Cf-Id: CffHmp6Bo1C5qmgE9P8BDKUj6y4nfqirXzabas5iTnanvi64AKWCdw==
Content-Length: 2898

{"results":[{"id":1442620,"adult":false},{"id":5864546,"adult":false},{"id":5140996,"adult":null},{"id":4619498,"adult":null},{"id":4619502,"adult":null},{"id":4619504,"adult":null},{"id":1838010,"adult":false},{"id":5099777,"adult":null},{"id":5099795,"adult":null},{"id":5099796,"adult":null},{"id":5099798,"adult":null},{"id":5099782,"adult":null},{"id":5863630,"adult":null},{"id":5249010,"adult":false},{"id":5864547,"adult":false},{"id":5864548,"adult":false},{"id":5864549,"adult":false},{"id":5864550,"adult":false},{"id":5864551,"adult":false},{"id":5864552,"adult":false},{"id":3882450,"adult":false},{"id":54794,"adult":false},{"id":4962991,"adult":false},{"id":5864553,"adult":false},{"id":5864554,"adult":false},{"id":5864555,"adult":false},{"id":5864556,"adult":false},{"id":5864557,"adult":false},{"id":5531592,"adult":null},{"id":5531593,"adult":null},{"id":5864558,"adult":false},{"id":5864559,"adult":false},{"id":5864560,"adult":false},{"id":5864561,"adult":false},{"id":5864562,"adult":false},{"id":1898023,"adult":false},{"id":2866080,"adult":false},{"id":5864563,"adult":false},{"id":5859975,"adult":null},{"id":5859902,"adult":null},{"id":5864564,"adult":false},{"id":5859903,"adult":null},{"id":5864565,"adult":false},{"id":5864566,"adult":false},{"id":5864567,"adult":false},{"id":5864568,"adult":false},{"id":5864569,"adult":true},{"id":5848244,"adult":null},{"id":5864570,"adult":false},{"id":5707557,"adult":null},{"id":150219,"adult":false},{"id":3609960,"adult":null},{"id":3609956,"adult":null},{"id":3609961,"adult":null},{"id":3609953,"adult":null},{"id":3609962,"adult":null},{"id":3609952,"adult":null},{"id":3609936,"adult":null},{"id":3609939,"adult":null},{"id":3609940,"adult":null},{"id":3609941,"adult":null},{"id":3358919,"adult":null},{"id":3609935,"adult":null},{"id":3609944,"adult":null},{"id":3609930,"adult":null},{"id":3609947,"adult":null},{"id":3609948,"adult":null},{"id":3609950,"adult":null},{"id":3609951,"adult":null},{"id":5588520,"adult":false},{"id":3609927,"adult":null},{"id":2040795,"adult":false},{"id":3609925,"adult":null},{"id":5707567,"adult":null},{"id":1573968,"adult":false},{"id":5855919,"adult":null},{"id":5855918,"adult":null},{"id":4189102,"adult":false},{"id":5855920,"adult":null},{"id":5855921,"adult":null},{"id":5855922,"adult":null},{"id":5855923,"adult":null},{"id":5855924,"adult":null},{"id":5855925,"adult":null},{"id":5855926,"adult":null},{"id":5855917,"adult":null},{"id":5855916,"adult":null},{"id":2833578,"adult":false},{"id":5855928,"adult":null},{"id":5855931,"adult":null},{"id":5855932,"adult":null},{"id":5860743,"adult":null},{"id":5860746,"adult":null},{"id":5860753,"adult":null},{"id":5860765,"adult":null},{"id":5860768,"adult":null},{"id":1937950,"adult":false},{"id":4702674,"adult":false},{"id":5855904,"adult":null},{"id":5855905,"adult":null}],"page":22,"total_pages":69,"total_results":6860}