HTTP/1.1 200 OK
Content-Type: application/json;charset=utf-8
Transfer-Encoding: chunked
Connection: close
Server: openresty
x-memc: MISS, STORE
x-memc-key: 7ef39ca4f3d4f841f87025eae96a5ec45840c5d67011ab5d0fc622cacf0fefd9
x-memc-age: 0
x-memc-expires: 600
x-az: us-east-1b
x-task-id: 67325ed8fae54d21938cb70a8a8db3b9
Date: Tue, 09 Dec 2025 15:07:19 GMT
Cache-Control: public, max-age=600
ETag: W/"0423948ace911f3d9db72e57bc0699c1"
Vary: accept-encoding
Vary: Origin
X-Cache: Hit from cloudfront
Via: 1.1 994deeea5117897efd50b3e367af0a6a.cloudfront.net (CloudFront)
X-Amz-Cf-Pop: MAD53-P8
Alt-Svc: h3=":443"; ma=86400
X-Amz-Cf-Id: gpGnHZN5ncwdGtJ5YNO61_kjW5vU-b03DN5LhXE9gSCVAgjzWWrzEA==
Age: 457
Content-Length: 2941

{"results":[{"id":5864822,"adult":false},{"id":5864823,"adult":false},{"id":3716049,"adult":false},{"id":5864824,"adult":false},{"id":5864825,"adult":false},{"id":5864826,"adult":false},{"id":5864827,"adult":false},{"id":5864828,"adult":false},{"id":5864829,"adult":false},{"id":5864830,"adult":false},{"id":5864831,"adult":false},{"id":5864832,"adult":false},{"id":3739035,"adult":true},{"id":5864833,"adult":false},{"id":35000,"adult":false},{"id":3882491,"adult":false},{"id":3313827,"adult":false},{"id":1491884,"adult":false},{"id":5864834,"adult":false},{"id":3100620,"adult":true},{"id":5864835,"adult":false},{"id":5864836,"adult":false},{"id":5864837,"adult":false},{"id":5864838,"adult":false},{"id":1102362,"adult":false},{"id":5864839,"adult":false},{"id":5864840,"adult":false},{"id":5864841,"adult":false},{"id":3815194,"adult":false},{"id":1301462,"adult":true},{"id":5864842,"adult":false},{"id":5864843,"adult":false},{"id":36992,"adult":false},{"id":3865039,"adult":false},{"id":5853425,"adult":null},{"id":3865051,"adult":false},{"id":3565901,"adult":false},{"id":4074299,"adult":false},{"id":5864844,"adult":false},{"id":2243451,"adult":false},{"id":5864845,"adult":false},{"id":5864846,"adult":false},{"id":5864847,"adult":false},{"id":2442704,"adult":false},{"id":5864848,"adult":false},{"id":5864849,"adult":false},{"id":5864850,"adult":false},{"id":5864851,"adult":false},{"id":5864852,"adult":false},{"id":52998,"adult":false},{"id":4978055,"adult":false},{"id":5858026,"adult":false},{"id":5864853,"adult":false},{"id":5864854,"adult":false},{"id":1737541,"adult":null},{"id":3646040,"adult":null},{"id":2219789,"adult":null},{"id":5517274,"adult":null},{"id":5817718,"adult":null},{"id":1737539,"adult":null},{"id":1737540,"adult":null},{"id":5864855,"adult":false},{"id":5864856,"adult":false},{"id":5864857,"adult":false},{"id":2207213,"adult":false},{"id":5864858,"adult":false},{"id":3070800,"adult":false},{"id":5058316,"adult":false},{"id":935000,"adult":false},{"id":5381446,"adult":false},{"id":5864859,"adult":false},{"id":2919993,"adult":false},{"id":1449790,"adult":false},{"id":4420752,"adult":false},{"id":3245380,"adult":false},{"id":5864860,"adult":false},{"id":5864861,"adult":false},{"id":4198121,"adult":false},{"id":5864862,"adult":false},{"id":5864863,"adult":false},{"id":5864864,"adult":false},{"id":5864865,"adult":false},{"id":4426750,"adult":true},{"id":5864866,"adult":false},{"id":5864867,"adult":false},{"id":5864868,"adult":false},{"id":3885687,"adult":true},{"id":2861063,"adult":false},{"id":3118169,"adult":false},{"id":5862933,"adult":false},{"id":4021086,"adult":false},{"id":5864869,"adult":false},{"id":4078982,"adult":false},{"id":3988619,"adult":false},{"id":3994063,"adult":false},{"id":5864870,"adult":false},{"id":4028376,"adult":false},{"id":4090600,"adult":false},{"id":3858376,"adult":false},{"id":3738184,"adult":false}],"page":31,"total_pages":69,"total_results":6860}