HTTP/1.1 200 OK
Content-Type: application/json;charset=utf-8
Transfer-Encoding: chunked
Connection: close
Server: openresty
x-memc: MISS, STORE
x-memc-key: 42d75dc6188b8a3403bca76ed7a5a32f1f8e21ba7f13171fe4cb1b90458d579a
x-memc-age: 0
x-memc-expires: 600
x-az: us-east-1c
x-task-id: 374f1f6eda394c62be1ca031f9631120
Date: Tue, 09 Dec 2025 15:22:27 GMT
Cache-Control: public, max-age=483
ETag: W/"5e4e838abfb0034bb71bb17dd350ca05"
Vary: accept-encoding
Vary: Origin
X-Cache: RefreshHit from cloudfront
Via: 1.1 e51128cbc5c6c2bfa2ca665022eb945e.cloudfront.net (CloudFront)
X-Amz-Cf-Pop: MAD53-P8
Alt-Svc: h3=":443"; ma=86400
X-Amz-Cf-Id: fKpgOOerbPlP0FdAjh7IE5zoBZdkx5kzbtHkdPpGORyvGG5nOszKfA==
Content-Length: 2953

{"results":[{"id":3319350,"adult":false},{"id":5864871,"adult":false},{"id":3024741,"adult":false},{"id":5864872,"adult":false},{"id":5864873,"adult":false},{"id":5864874,"adult":false},{"id":1906067,"adult":false},{"id":1822265,"adult":false},{"id":1822224,"adult":false},{"id":5864875,"adult":false},{"id":5589758,"adult":false},{"id":1967041,"adult":false},{"id":1967043,"adult":false},{"id":3773813,"adult":false},{"id":3786310,"adult":false},{"id":3788174,"adult":false},{"id":5864876,"adult":false},{"id":1649803,"adult":false},{"id":5864877,"adult":false},{"id":4647242,"adult":false},{"id":3186642,"adult":false},{"id":3653213,"adult":false},{"id":3653224,"adult":false},{"id":3774307,"adult":null},{"id":5864878,"adult":false},{"id":134178,"adult":false},{"id":5864879,"adult":false},{"id":1920,"adult":false},{"id":5864880,"adult":false},{"id":5864881,"adult":false},{"id":5864882,"adult":false},{"id":5864883,"adult":false},{"id":5864884,"adult":false},{"id":5864885,"adult":false},{"id":5864886,"adult":false},{"id":5864887,"adult":false},{"id":5864888,"adult":false},{"id":5864889,"adult":false},{"id":5864890,"adult":false},{"id":5864891,"adult":false},{"id":5864892,"adult":false},{"id":5864893,"adult":false},{"id":5864894,"adult":false},{"id":5864896,"adult":false},{"id":5864895,"adult":false},{"id":5864897,"adult":false},{"id":5864898,"adult":false},{"id":5864899,"adult":false},{"id":5864900,"adult":false},{"id":5864901,"adult":false},{"id":5864902,"adult":false},{"id":5864903,"adult":false},{"id":5864904,"adult":false},{"id":5864905,"adult":false},{"id":5864906,"adult":false},{"id":5832970,"adult":false},{"id":5864907,"adult":false},{"id":5864908,"adult":false},{"id":5864909,"adult":false},{"id":5864910,"adult":false},{"id":5864911,"adult":false},{"id":3919669,"adult":false},{"id":5864912,"adult":false},{"id":5864913,"adult":false},{"id":5864914,"adult":false},{"id":5864915,"adult":false},{"id":1558750,"adult":false},{"id":5864916,"adult":false},{"id":5864917,"adult":false},{"id":5864918,"adult":false},{"id":5864919,"adult":false},{"id":5864920,"adult":false},{"id":5864921,"adult":false},{"id":5864922,"adult":false},{"id":5864923,"adult":false},{"id":5864924,"adult":false},{"id":5864925,"adult":false},{"id":5864926,"adult":false},{"id":5864927,"adult":false},{"id":5864928,"adult":false},{"id":5864929,"adult":false},{"id":5864930,"adult":false},{"id":1842085,"adult":false},{"id":5864931,"adult":false},{"id":5864932,"adult":false},{"id":5864933,"adult":false},{"id":5864934,"adult":false},{"id":5864935,"adult":false},{"id":5864936,"adult":false},{"id":5864937,"adult":false},{"id":5864938,"adult":false},{"id":5864939,"adult":false},{"id":1676570,"adult":false},{"id":5864940,"adult":false},{"id":1349959,"adult":false},{"id":5864941,"adult":false},{"id":2890387,"adult":false},{"id":5864942,"adult":false},{"id":5568013,"adult":false},{"id":97698,"adult":true}],"page":32,"total_pages":69,"total_results":6860}