HTTP/1.1 200 OK
Content-Type: application/json;charset=utf-8
Transfer-Encoding: chunked
Connection: close
Server: openresty
x-memc: MISS, STORE
x-memc-key: 9b4fa3cf0595deef61d4f5ae1c692ad76737663553f3c15a87cb156fdf6fa6b3
x-memc-age: 0
x-memc-expires: 600
x-az: us-east-1c
x-task-id: 103f998e1c2c4a63887a6c2a34892de4
Date: Tue, 09 Dec 2025 15:07:23 GMT
Cache-Control: public, max-age=600
ETag: W/"c845819f29ca1927a21bdb268ca1d7f8"
Vary: accept-encoding
Vary: Origin
X-Cache: Hit from cloudfront
Via: 1.1 45a29b86bae07b09ddc92c2b533e0470.cloudfront.net (CloudFront)
X-Amz-Cf-Pop: MAD53-P8
Alt-Svc: h3=":443"; ma=86400
X-Amz-Cf-Id: SCyFi5fFGFOdp43KXA8jc7mivnYn9YJovTdU0UZdpXoU79j86Rz2vQ==
Age: 454
Content-Length: 2951

{"results":[{"id":2487556,"adult":false},{"id":1557940,"adult":false},{"id":5866161,"adult":false},{"id":1557941,"adult":false},{"id":2082221,"adult":false},{"id":5866162,"adult":false},{"id":5866163,"adult":false},{"id":1557944,"adult":false},{"id":3353375,"adult":false},{"id":2936863,"adult":false},{"id":1557945,"adult":false},{"id":5866164,"adult":false},{"id":4554944,"adult":false},{"id":10089,"adult":false},{"id":5866165,"adult":false},{"id":5866166,"adult":false},{"id":3020493,"adult":false},{"id":5866167,"adult":false},{"id":5866168,"adult":false},{"id":5862904,"adult":null},{"id":3727480,"adult":false},{"id":3727492,"adult":false},{"id":5866169,"adult":false},{"id":5866170,"adult":false},{"id":5866171,"adult":false},{"id":5866172,"adult":false},{"id":5866173,"adult":false},{"id":3581306,"adult":false},{"id":2634708,"adult":false},{"id":3499090,"adult":false},{"id":5866174,"adult":false},{"id":4847986,"adult":null},{"id":5866175,"adult":false},{"id":5866176,"adult":false},{"id":5866177,"adult":false},{"id":5866178,"adult":false},{"id":579817,"adult":false},{"id":5866179,"adult":false},{"id":1040864,"adult":false},{"id":5866180,"adult":false},{"id":5375756,"adult":null},{"id":5866181,"adult":false},{"id":2039294,"adult":false},{"id":2707474,"adult":false},{"id":5866182,"adult":false},{"id":5866183,"adult":false},{"id":5866184,"adult":false},{"id":5866185,"adult":false},{"id":3695555,"adult":false},{"id":5866186,"adult":false},{"id":3472124,"adult":false},{"id":5866187,"adult":false},{"id":2605746,"adult":false},{"id":5866188,"adult":false},{"id":5866189,"adult":false},{"id":5866190,"adult":false},{"id":5866191,"adult":false},{"id":3881440,"adult":false},{"id":3218238,"adult":false},{"id":5866192,"adult":false},{"id":3903632,"adult":false},{"id":3881433,"adult":false},{"id":3910541,"adult":false},{"id":3961634,"adult":false},{"id":3897239,"adult":false},{"id":3897255,"adult":false},{"id":3903636,"adult":false},{"id":3680091,"adult":false},{"id":3961737,"adult":false},{"id":5551866,"adult":false},{"id":4115891,"adult":false},{"id":3877872,"adult":false},{"id":3910343,"adult":false},{"id":5866193,"adult":false},{"id":5866194,"adult":false},{"id":3994176,"adult":false},{"id":3961551,"adult":false},{"id":3961557,"adult":false},{"id":3930123,"adult":false},{"id":5866195,"adult":false},{"id":5866196,"adult":false},{"id":3877925,"adult":false},{"id":3931457,"adult":false},{"id":5866197,"adult":false},{"id":3930082,"adult":false},{"id":3112165,"adult":false},{"id":5866198,"adult":false},{"id":5866199,"adult":false},{"id":2419439,"adult":null},{"id":5866200,"adult":false},{"id":5718,"adult":false},{"id":5866201,"adult":false},{"id":3970235,"adult":false},{"id":5866202,"adult":false},{"id":4375712,"adult":false},{"id":5866203,"adult":false},{"id":5866204,"adult":false},{"id":5560580,"adult":false},{"id":5866205,"adult":false},{"id":5866206,"adult":false}],"page":54,"total_pages":69,"total_results":6860}