HTTP/1.1 200 OK
Content-Type: application/json;charset=utf-8
Transfer-Encoding: chunked
Connection: close
Date: Tue, 09 Dec 2025 14:44:07 GMT
Server: openresty
Cache-Control: public, max-age=86400
x-memc: MISS, STORE
x-memc-key: 1642bb8c0a6530da7d0ea3417dcec0cc9591849d1d4198ac30b6eaa1f1deb654
x-memc-age: 0
x-memc-expires: 86400
x-az: us-east-1b
x-task-id: 90d49b9610bc4c5f88809459f968de34
ETag: W/"a96306922ccfe6599a091c14893e3d98"
Vary: accept-encoding
Vary: Origin
X-Cache: Hit from cloudfront
Via: 1.1 3731a260b105a218299d2247a68d88c4.cloudfront.net (CloudFront)
X-Amz-Cf-Pop: MAD53-P8
Alt-Svc: h3=":443"; ma=86400
X-Amz-Cf-Id: jZrExaLxFcH3SeKwOUPElHnMasBtmnHOh7pjVbWiD3-Q0Nwi7RC4ew==
Age: 1851
Content-Length: 2944

{"results":[{"id":2046216,"adult":false},{"id":1985859,"adult":null},{"id":2046217,"adult":false},{"id":142032,"adult":false},{"id":1244782,"adult":null},{"id":175615,"adult":false},{"id":931211,"adult":false},{"id":2046218,"adult":false},{"id":2046219,"adult":false},{"id":2046220,"adult":false},{"id":2046221,"adult":false},{"id":2046222,"adult":false},{"id":2046223,"adult":false},{"id":2046224,"adult":false},{"id":2046225,"adult":false},{"id":2046226,"adult":false},{"id":2046227,"adult":false},{"id":2046228,"adult":false},{"id":2046229,"adult":false},{"id":2046230,"adult":false},{"id":2046231,"adult":false},{"id":2046232,"adult":false},{"id":2046233,"adult":false},{"id":1181141,"adult":false},{"id":2046234,"adult":false},{"id":1486204,"adult":null},{"id":2046235,"adult":false},{"id":2046236,"adult":false},{"id":1182574,"adult":false},{"id":1906186,"adult":false},{"id":220088,"adult":false},{"id":2046237,"adult":false},{"id":1650893,"adult":false},{"id":1063268,"adult":false},{"id":2046238,"adult":false},{"id":2046239,"adult":false},{"id":2046240,"adult":false},{"id":2046241,"adult":false},{"id":2046242,"adult":false},{"id":2046243,"adult":false},{"id":2046244,"adult":false},{"id":2046245,"adult":false},{"id":2046246,"adult":false},{"id":2046247,"adult":false},{"id":2046248,"adult":false},{"id":2046249,"adult":false},{"id":2046250,"adult":false},{"id":2046251,"adult":false},{"id":2046252,"adult":false},{"id":2046253,"adult":false},{"id":2046254,"adult":false},{"id":2046255,"adult":false},{"id":2046256,"adult":false},{"id":2046257,"adult":false},{"id":2046258,"adult":null},{"id":2046259,"adult":null},{"id":2046260,"adult":null},{"id":2046261,"adult":false},{"id":2046262,"adult":false},{"id":2046263,"adult":false},{"id":2046264,"adult":false},{"id":2046265,"adult":false},{"id":2046266,"adult":false},{"id":2046267,"adult":false},{"id":2046268,"adult":false},{"id":2046269,"adult":false},{"id":2046270,"adult":false},{"id":2046271,"adult":false},{"id":2046272,"adult":false},{"id":2046273,"adult":false},{"id":2046274,"adult":false},{"id":2046043,"adult":null},{"id":2046275,"adult":false},{"id":2046276,"adult":false},{"id":2046277,"adult":false},{"id":2046278,"adult":false},{"id":2046279,"adult":false},{"id":2046280,"adult":false},{"id":2046281,"adult":false},{"id":1813751,"adult":false},{"id":2046282,"adult":false},{"id":1951145,"adult":false},{"id":2046283,"adult":false},{"id":2046284,"adult":false},{"id":2046285,"adult":false},{"id":2046286,"adult":false},{"id":1066885,"adult":false},{"id":2046287,"adult":false},{"id":2046288,"adult":false},{"id":2046289,"adult":false},{"id":97332,"adult":null},{"id":2046290,"adult":false},{"id":56289,"adult":false},{"id":2046291,"adult":false},{"id":2046292,"adult":false},{"id":1181878,"adult":false},{"id":1465501,"adult":false},{"id":1830294,"adult":false},{"id":1854900,"adult":false},{"id":2046293,"adult":false}],"page":1,"total_pages":25,"total_results":2415}