HTTP/1.1 200 OK
Content-Type: application/json;charset=utf-8
Transfer-Encoding: chunked
Connection: close
Server: openresty
x-memc: MISS, STORE
x-memc-key: 3ad5c66517cc6a48e3d28873038e26207bf24c1f9f03726ae3536a9b650c1e52
x-memc-age: 0
x-memc-expires: 600
x-az: us-east-1b
x-task-id: a3e141f8953e47ba98ae07d024bcd603
Date: Tue, 09 Dec 2025 15:22:28 GMT
Cache-Control: public, max-age=484
ETag: W/"ef257c681a53e1ece235bfec995f95b7"
Vary: accept-encoding
Vary: Origin
X-Cache: RefreshHit from cloudfront
Via: 1.1 c5aaac5b3515508fe019ba38a51d29f4.cloudfront.net (CloudFront)
X-Amz-Cf-Pop: MAD53-P8
Alt-Svc: h3=":443"; ma=86400
X-Amz-Cf-Id: OpqjiQ1rlhHD8rQeVL_R3eDXFBmwZvXGyRTM2DB8zZ0bERRT-aXlBQ==
Content-Length: 2952

{"results":[{"id":1718906,"adult":false},{"id":1594033,"adult":false},{"id":5088842,"adult":false},{"id":5865422,"adult":false},{"id":1770057,"adult":false},{"id":5865423,"adult":false},{"id":1550261,"adult":false},{"id":2270013,"adult":false},{"id":5865424,"adult":false},{"id":5865425,"adult":false},{"id":5865426,"adult":false},{"id":1239109,"adult":false},{"id":5865427,"adult":false},{"id":5865428,"adult":false},{"id":5865429,"adult":false},{"id":5865430,"adult":false},{"id":1243966,"adult":false},{"id":5865431,"adult":false},{"id":5865432,"adult":false},{"id":5865433,"adult":false},{"id":3754579,"adult":false},{"id":5865434,"adult":false},{"id":5865435,"adult":false},{"id":5085270,"adult":null},{"id":2111465,"adult":false},{"id":5865436,"adult":false},{"id":5865437,"adult":false},{"id":5865438,"adult":false},{"id":5865439,"adult":false},{"id":24425,"adult":true},{"id":5865440,"adult":false},{"id":2315277,"adult":false},{"id":5865441,"adult":false},{"id":5865442,"adult":false},{"id":1597466,"adult":false},{"id":5865443,"adult":false},{"id":5865444,"adult":false},{"id":1657202,"adult":false},{"id":5865445,"adult":false},{"id":5865446,"adult":false},{"id":5865447,"adult":false},{"id":5865448,"adult":false},{"id":1264227,"adult":true},{"id":2308710,"adult":false},{"id":2841498,"adult":true},{"id":5865449,"adult":false},{"id":5865450,"adult":false},{"id":5865451,"adult":false},{"id":5865452,"adult":false},{"id":5865453,"adult":false},{"id":5865454,"adult":false},{"id":5865455,"adult":false},{"id":5865456,"adult":false},{"id":5865457,"adult":false},{"id":2155403,"adult":false},{"id":1546286,"adult":false},{"id":5602465,"adult":false},{"id":3291130,"adult":false},{"id":5865458,"adult":false},{"id":5865459,"adult":false},{"id":1873670,"adult":false},{"id":5865460,"adult":false},{"id":5865461,"adult":false},{"id":2215733,"adult":false},{"id":1498128,"adult":false},{"id":5865462,"adult":false},{"id":2284681,"adult":false},{"id":5865463,"adult":false},{"id":1314109,"adult":false},{"id":2261684,"adult":false},{"id":5792276,"adult":false},{"id":5865464,"adult":false},{"id":5865465,"adult":false},{"id":5865466,"adult":false},{"id":2215730,"adult":false},{"id":5865467,"adult":false},{"id":2065374,"adult":false},{"id":2215731,"adult":false},{"id":5865468,"adult":false},{"id":5865469,"adult":false},{"id":5865470,"adult":false},{"id":2155404,"adult":false},{"id":3101445,"adult":true},{"id":27578,"adult":false},{"id":5865471,"adult":false},{"id":1637781,"adult":false},{"id":4237318,"adult":false},{"id":5865472,"adult":false},{"id":1391317,"adult":false},{"id":5865473,"adult":false},{"id":5865474,"adult":false},{"id":3999241,"adult":false},{"id":5865475,"adult":false},{"id":5865476,"adult":false},{"id":5865477,"adult":false},{"id":5865478,"adult":false},{"id":2261685,"adult":false},{"id":4919692,"adult":false},{"id":5865479,"adult":false},{"id":5865480,"adult":false}],"page":41,"total_pages":69,"total_results":6860}