HTTP/1.1 200 OK
Content-Type: application/json;charset=utf-8
Transfer-Encoding: chunked
Connection: close
Server: openresty
x-memc: HIT
x-memc-key: 883ec9e0b0dd595dda98da6bebf6b9d015f31f173ae468ac1dadf88baf9ab420
x-memc-age: 332
x-memc-expires: 268
x-az: us-east-1c
x-task-id: c40e998d6f4646df92d8b97ee4ac8097
Date: Tue, 09 Dec 2025 15:22:21 GMT
Cache-Control: public, max-age=480
ETag: W/"db40bd66a9e47c08526445620f027d39"
Vary: accept-encoding
Vary: Origin
X-Cache: RefreshHit from cloudfront
Via: 1.1 c5aaac5b3515508fe019ba38a51d29f4.cloudfront.net (CloudFront)
X-Amz-Cf-Pop: MAD53-P8
Alt-Svc: h3=":443"; ma=86400
X-Amz-Cf-Id: BJbduG0MlrfLEO6ZxKLMtCJZnvElkO3slUG4CWhXVv-sFyDzGT0UNQ==
Content-Length: 2930

{"results":[{"id":296164,"adult":false},{"id":1594785,"adult":false},{"id":640962,"adult":false},{"id":1594784,"adult":false},{"id":618632,"adult":false},{"id":1593574,"adult":false},{"id":1539982,"adult":false},{"id":1527653,"adult":false},{"id":1520023,"adult":false},{"id":1547547,"adult":false},{"id":1579512,"adult":false},{"id":1592411,"adult":false},{"id":1579316,"adult":false},{"id":1558338,"adult":false},{"id":1594660,"adult":false},{"id":1220970,"adult":false},{"id":1271064,"adult":false},{"id":1283965,"adult":false},{"id":1533040,"adult":false},{"id":1554616,"adult":false},{"id":1573225,"adult":false},{"id":1575574,"adult":false},{"id":1576362,"adult":false},{"id":1577384,"adult":false},{"id":1578552,"adult":false},{"id":1579653,"adult":false},{"id":1588461,"adult":false},{"id":1588889,"adult":false},{"id":1590463,"adult":false},{"id":1590768,"adult":false},{"id":1591008,"adult":false},{"id":1591765,"adult":false},{"id":1593032,"adult":false},{"id":1593675,"adult":false},{"id":1594170,"adult":false},{"id":1594228,"adult":false},{"id":1248217,"adult":false},{"id":1015154,"adult":false},{"id":1379963,"adult":false},{"id":1446948,"adult":false},{"id":1457833,"adult":false},{"id":1507818,"adult":false},{"id":1508591,"adult":false},{"id":1533843,"adult":false},{"id":1538383,"adult":false},{"id":1544815,"adult":false},{"id":1551042,"adult":false},{"id":1559897,"adult":false},{"id":1561060,"adult":false},{"id":1562010,"adult":false},{"id":1572144,"adult":false},{"id":1574379,"adult":false},{"id":1576043,"adult":false},{"id":1587322,"adult":false},{"id":1591277,"adult":false},{"id":1594441,"adult":false},{"id":1594612,"adult":false},{"id":1594670,"adult":false},{"id":1594677,"adult":false},{"id":1563325,"adult":false},{"id":1594388,"adult":null},{"id":1594297,"adult":false},{"id":1588189,"adult":false},{"id":1594423,"adult":false},{"id":1594412,"adult":false},{"id":1594566,"adult":true},{"id":1594638,"adult":false},{"id":1445557,"adult":false},{"id":1402827,"adult":false},{"id":1594719,"adult":false},{"id":1107325,"adult":false},{"id":1524417,"adult":false},{"id":1594786,"adult":false},{"id":1083538,"adult":false},{"id":1594782,"adult":false},{"id":795977,"adult":false},{"id":614098,"adult":false},{"id":1000407,"adult":false},{"id":36127,"adult":false},{"id":1069905,"adult":false},{"id":1594787,"adult":true},{"id":772856,"adult":false},{"id":1469046,"adult":false},{"id":1594780,"adult":false},{"id":209269,"adult":false},{"id":1233413,"adult":false},{"id":848492,"adult":false},{"id":932844,"adult":false},{"id":147928,"adult":false},{"id":1287322,"adult":false},{"id":49110,"adult":false},{"id":791568,"adult":false},{"id":11922,"adult":false},{"id":930564,"adult":false},{"id":1431295,"adult":true},{"id":1594788,"adult":false},{"id":312854,"adult":false},{"id":905,"adult":false},{"id":19913,"adult":false},{"id":234284,"adult":false}],"page":1,"total_pages":69,"total_results":6884}