HTTP/1.1 200 OK
Content-Type: application/json;charset=utf-8
Transfer-Encoding: chunked
Connection: close
Server: openresty
x-memc: MISS, STORE
x-memc-key: fea50a6f8c520739c7e398ecbed8d1c6877fe2136f32b24ef59e7c03df7a42a4
x-memc-age: 0
x-memc-expires: 600
x-az: us-east-1b
x-task-id: b8242b4982bb449b83edb73b5551b01a
Date: Tue, 09 Dec 2025 15:07:21 GMT
Cache-Control: public, max-age=600
ETag: W/"69d2e0f615c082cf37738d40749de984"
Vary: accept-encoding
Vary: Origin
X-Cache: Hit from cloudfront
Via: 1.1 8651dec5501a9be54b46f44ea7098ae2.cloudfront.net (CloudFront)
X-Amz-Cf-Pop: MAD53-P8
Alt-Svc: h3=":443"; ma=86400
X-Amz-Cf-Id: qsSPkaJ3AZnthoXhzHgD9sGVc3vSbXVEBfg8J7EMv6SqPNxqjwyu_Q==
Age: 455
Content-Length: 2957

{"results":[{"id":5865279,"adult":false},{"id":5865280,"adult":false},{"id":5865281,"adult":false},{"id":5865282,"adult":false},{"id":5865283,"adult":false},{"id":5865284,"adult":false},{"id":5865285,"adult":false},{"id":2911246,"adult":false},{"id":5865286,"adult":false},{"id":5865287,"adult":false},{"id":5865288,"adult":false},{"id":5865289,"adult":false},{"id":5865290,"adult":false},{"id":5865291,"adult":false},{"id":5865292,"adult":false},{"id":5865293,"adult":false},{"id":5865294,"adult":false},{"id":5865295,"adult":false},{"id":5865296,"adult":false},{"id":5865297,"adult":false},{"id":5865298,"adult":false},{"id":5865299,"adult":false},{"id":5865300,"adult":false},{"id":5865301,"adult":false},{"id":5865302,"adult":false},{"id":5865303,"adult":false},{"id":5865304,"adult":false},{"id":5865305,"adult":false},{"id":5865306,"adult":false},{"id":1017284,"adult":false},{"id":5865307,"adult":false},{"id":5865308,"adult":false},{"id":5865309,"adult":false},{"id":5865310,"adult":false},{"id":5865311,"adult":false},{"id":5865312,"adult":false},{"id":5250509,"adult":false},{"id":5865313,"adult":false},{"id":5865314,"adult":false},{"id":5865315,"adult":false},{"id":5865316,"adult":false},{"id":5865317,"adult":false},{"id":1511739,"adult":false},{"id":5865318,"adult":false},{"id":5865319,"adult":false},{"id":5865320,"adult":false},{"id":1592302,"adult":false},{"id":1907712,"adult":false},{"id":5865321,"adult":false},{"id":5865322,"adult":false},{"id":5865323,"adult":false},{"id":5865324,"adult":true},{"id":5865325,"adult":false},{"id":5865326,"adult":false},{"id":1317240,"adult":false},{"id":2425897,"adult":false},{"id":5865327,"adult":false},{"id":5865328,"adult":false},{"id":2831669,"adult":false},{"id":5865329,"adult":false},{"id":5865330,"adult":false},{"id":5043866,"adult":false},{"id":5043875,"adult":false},{"id":1905838,"adult":false},{"id":5865331,"adult":false},{"id":5865332,"adult":false},{"id":5865333,"adult":false},{"id":5865334,"adult":false},{"id":5865335,"adult":false},{"id":5865336,"adult":false},{"id":5865337,"adult":true},{"id":5865338,"adult":false},{"id":5865339,"adult":false},{"id":5865340,"adult":false},{"id":5865341,"adult":false},{"id":5865342,"adult":false},{"id":5865343,"adult":false},{"id":5865344,"adult":false},{"id":5865345,"adult":false},{"id":5865346,"adult":false},{"id":5865347,"adult":false},{"id":5865348,"adult":false},{"id":5865349,"adult":false},{"id":5865350,"adult":false},{"id":5865351,"adult":false},{"id":12134,"adult":false},{"id":5865352,"adult":false},{"id":5865353,"adult":false},{"id":5865354,"adult":false},{"id":5865355,"adult":false},{"id":5865356,"adult":false},{"id":1716316,"adult":false},{"id":5865357,"adult":false},{"id":5865358,"adult":false},{"id":5865359,"adult":false},{"id":4906083,"adult":false},{"id":5865360,"adult":false},{"id":5865361,"adult":false},{"id":5865362,"adult":false},{"id":5865363,"adult":false}],"page":39,"total_pages":69,"total_results":6860}