HTTP/1.1 200 OK
Content-Type: application/json;charset=utf-8
Transfer-Encoding: chunked
Connection: close
Server: openresty
x-memc: HIT
x-memc-key: 067c650f70f3aecd9bcb80f7ad987841bde4705db0cff41327f13b7b9a3d0905
x-memc-age: 85
x-memc-expires: 515
x-az: us-east-1b
x-task-id: 67325ed8fae54d21938cb70a8a8db3b9
Date: Tue, 09 Dec 2025 15:22:21 GMT
Cache-Control: public, max-age=454
ETag: W/"1ad13083daa4ff36dc59b9ce51b2534d"
Vary: accept-encoding
Vary: Origin
X-Cache: RefreshHit from cloudfront
Via: 1.1 7e7ba163f7cdb4f59c418e3f1e0e1656.cloudfront.net (CloudFront)
X-Amz-Cf-Pop: MAD53-P8
Alt-Svc: h3=":443"; ma=86400
X-Amz-Cf-Id: 9BilJXcdd4vROgn-6D41mFzSnbTm02ksNMCDE2et0XbrRkb83S7wuA==
Content-Length: 2821

{"results":[{"id":118115,"adult":false},{"id":307731,"adult":false},{"id":4604,"adult":false},{"id":605,"adult":false},{"id":259886,"adult":false},{"id":16964,"adult":false},{"id":307730,"adult":true},{"id":306909,"adult":false},{"id":293635,"adult":false},{"id":109470,"adult":false},{"id":249409,"adult":false},{"id":200875,"adult":false},{"id":135709,"adult":false},{"id":202382,"adult":false},{"id":154283,"adult":false},{"id":88869,"adult":false},{"id":307345,"adult":false},{"id":1423,"adult":false},{"id":299611,"adult":true},{"id":307705,"adult":false},{"id":286954,"adult":false},{"id":302354,"adult":false},{"id":107465,"adult":false},{"id":74277,"adult":false},{"id":285764,"adult":false},{"id":305928,"adult":false},{"id":307374,"adult":false},{"id":45782,"adult":false},{"id":307733,"adult":false},{"id":285756,"adult":false},{"id":48318,"adult":false},{"id":106162,"adult":false},{"id":240459,"adult":false},{"id":93352,"adult":false},{"id":304068,"adult":false},{"id":301244,"adult":false},{"id":61617,"adult":false},{"id":63919,"adult":false},{"id":1433,"adult":false},{"id":108150,"adult":false},{"id":138606,"adult":false},{"id":307624,"adult":false},{"id":39758,"adult":false},{"id":273825,"adult":false},{"id":3934,"adult":false},{"id":303109,"adult":false},{"id":154359,"adult":false},{"id":291559,"adult":false},{"id":245026,"adult":false},{"id":229891,"adult":false},{"id":209110,"adult":false},{"id":285788,"adult":false},{"id":19457,"adult":false},{"id":196025,"adult":false},{"id":307677,"adult":false},{"id":67136,"adult":false},{"id":301507,"adult":false},{"id":245441,"adult":false},{"id":301245,"adult":false},{"id":223300,"adult":false},{"id":307734,"adult":false},{"id":65659,"adult":false},{"id":31785,"adult":false},{"id":307735,"adult":false},{"id":213331,"adult":false},{"id":301886,"adult":false},{"id":298194,"adult":false},{"id":288605,"adult":false},{"id":1622,"adult":false},{"id":273215,"adult":false},{"id":70649,"adult":false},{"id":94855,"adult":false},{"id":307682,"adult":false},{"id":274149,"adult":false},{"id":289102,"adult":false},{"id":270963,"adult":false},{"id":19780,"adult":false},{"id":301355,"adult":false},{"id":91759,"adult":false},{"id":307678,"adult":false},{"id":89905,"adult":false},{"id":262248,"adult":false},{"id":45950,"adult":false},{"id":307681,"adult":false},{"id":307736,"adult":false},{"id":238136,"adult":false},{"id":276277,"adult":false},{"id":258532,"adult":false},{"id":30901,"adult":false},{"id":33238,"adult":false},{"id":307655,"adult":false},{"id":74185,"adult":false},{"id":291862,"adult":false},{"id":109954,"adult":false},{"id":12045,"adult":false},{"id":252414,"adult":false},{"id":201453,"adult":false},{"id":302538,"adult":false},{"id":73319,"adult":false},{"id":197906,"adult":false}],"page":1,"total_pages":26,"total_results":2580}