HTTP/1.1 200 OK
Content-Type: application/json;charset=utf-8
Transfer-Encoding: chunked
Connection: close
Date: Tue, 09 Dec 2025 14:43:52 GMT
Server: openresty
Cache-Control: public, max-age=86400
x-memc: MISS, STORE
x-memc-key: d84247ccf16c83d88a320d9882dd96ea5ac782dc1268cc9030e43c362656d1da
x-memc-age: 0
x-memc-expires: 86400
x-az: us-east-1b
x-task-id: 8011ba77a8584f91b10251903f708c1a
ETag: W/"7b71538ae9e717e97b1c4d736c091196"
Vary: accept-encoding
Vary: Origin
X-Cache: Hit from cloudfront
Via: 1.1 7cb5e6ca8e491181a91096729b24a17c.cloudfront.net (CloudFront)
X-Amz-Cf-Pop: MAD53-P8
Alt-Svc: h3=":443"; ma=86400
X-Amz-Cf-Id: 7BapYDX-un4S5J334gbDu87vmSayz7IKJPHVXSdtfb0IKHJzykmBbA==
Age: 2308
Content-Length: 2737

{"results":[{"id":79800,"adult":null},{"id":103,"adult":false},{"id":76661,"adult":false},{"id":10929,"adult":false},{"id":2275,"adult":false},{"id":1663,"adult":false},{"id":4571,"adult":false},{"id":4087,"adult":false},{"id":72745,"adult":false},{"id":68267,"adult":false},{"id":21728,"adult":false},{"id":46052,"adult":false},{"id":35388,"adult":false},{"id":78375,"adult":false},{"id":232,"adult":false},{"id":69182,"adult":false},{"id":4557,"adult":false},{"id":2072,"adult":false},{"id":64280,"adult":false},{"id":74144,"adult":false},{"id":79801,"adult":false},{"id":21962,"adult":false},{"id":79252,"adult":false},{"id":71886,"adult":false},{"id":20035,"adult":false},{"id":78570,"adult":false},{"id":62852,"adult":false},{"id":39518,"adult":false},{"id":62455,"adult":false},{"id":70620,"adult":false},{"id":72750,"adult":false},{"id":76177,"adult":false},{"id":75254,"adult":false},{"id":79008,"adult":false},{"id":67133,"adult":false},{"id":71769,"adult":false},{"id":71789,"adult":false},{"id":74016,"adult":false},{"id":11726,"adult":false},{"id":69557,"adult":false},{"id":69193,"adult":false},{"id":36361,"adult":false},{"id":22980,"adult":false},{"id":37649,"adult":false},{"id":60573,"adult":false},{"id":51640,"adult":null},{"id":78603,"adult":null},{"id":77076,"adult":false},{"id":60572,"adult":false},{"id":79357,"adult":false},{"id":79802,"adult":false},{"id":2224,"adult":false},{"id":79803,"adult":false},{"id":68467,"adult":false},{"id":55582,"adult":false},{"id":62521,"adult":false},{"id":2660,"adult":false},{"id":79804,"adult":false},{"id":79616,"adult":false},{"id":71446,"adult":false},{"id":76831,"adult":false},{"id":63247,"adult":false},{"id":53007,"adult":false},{"id":75782,"adult":false},{"id":76722,"adult":false},{"id":79805,"adult":false},{"id":8514,"adult":false},{"id":38409,"adult":false},{"id":78533,"adult":false},{"id":79358,"adult":false},{"id":79806,"adult":false},{"id":76754,"adult":false},{"id":3604,"adult":false},{"id":79807,"adult":null},{"id":79619,"adult":false},{"id":72787,"adult":false},{"id":79808,"adult":false},{"id":60884,"adult":false},{"id":79569,"adult":false},{"id":76604,"adult":false},{"id":79610,"adult":false},{"id":40596,"adult":false},{"id":79809,"adult":null},{"id":79640,"adult":false},{"id":67169,"adult":false},{"id":4604,"adult":false},{"id":77698,"adult":false},{"id":12188,"adult":false},{"id":62858,"adult":false},{"id":67247,"adult":false},{"id":79058,"adult":false},{"id":79171,"adult":false},{"id":47450,"adult":false},{"id":79788,"adult":false},{"id":73021,"adult":false},{"id":63174,"adult":false},{"id":71790,"adult":false},{"id":79810,"adult":null},{"id":56426,"adult":false},{"id":44953,"adult":false}],"page":2,"total_pages":5,"total_results":405}