HTTP/1.1 200 OK
Content-Type: application/json;charset=utf-8
Transfer-Encoding: chunked
Connection: close
Server: openresty
x-memc: MISS, STORE
x-memc-key: c227665c100f7c9957561f3d0185e180029fd75b27418dc854882f5d84410c48
x-memc-age: 0
x-memc-expires: 600
x-az: us-east-1c
x-task-id: c40e998d6f4646df92d8b97ee4ac8097
Date: Tue, 09 Dec 2025 15:07:20 GMT
Cache-Control: public, max-age=600
ETag: W/"ad8308b749ab9f536a89b9f5e4687b12"
Vary: accept-encoding
Vary: Origin
X-Cache: Hit from cloudfront
Via: 1.1 8f0898e2eb5c972640ef7bcada20f09e.cloudfront.net (CloudFront)
X-Amz-Cf-Pop: MAD53-P8
Alt-Svc: h3=":443"; ma=86400
X-Amz-Cf-Id: qCQn_plbQExbpyeQDrCi348Y7jkNMdYAgipzbKBixN-7S4O_xcrqMA==
Age: 456
Content-Length: 2953

{"results":[{"id":5865066,"adult":false},{"id":5865067,"adult":false},{"id":5865068,"adult":false},{"id":5865069,"adult":false},{"id":5865070,"adult":false},{"id":5865071,"adult":false},{"id":5865072,"adult":false},{"id":2585061,"adult":false},{"id":5865073,"adult":false},{"id":1301469,"adult":true},{"id":5865074,"adult":false},{"id":5865075,"adult":false},{"id":5865076,"adult":false},{"id":5865077,"adult":false},{"id":5865078,"adult":false},{"id":5857725,"adult":false},{"id":59697,"adult":false},{"id":5865079,"adult":false},{"id":1260615,"adult":false},{"id":5865080,"adult":false},{"id":5865081,"adult":false},{"id":4661648,"adult":false},{"id":5865082,"adult":false},{"id":5865083,"adult":false},{"id":1039709,"adult":false},{"id":5865084,"adult":false},{"id":5865085,"adult":false},{"id":974926,"adult":false},{"id":5865086,"adult":false},{"id":5865087,"adult":false},{"id":5865088,"adult":false},{"id":5865089,"adult":false},{"id":5865090,"adult":false},{"id":5865091,"adult":false},{"id":5865092,"adult":false},{"id":5865093,"adult":false},{"id":5865094,"adult":false},{"id":5865095,"adult":false},{"id":5865096,"adult":false},{"id":5865097,"adult":false},{"id":5865098,"adult":false},{"id":5865099,"adult":false},{"id":5865100,"adult":false},{"id":5865101,"adult":true},{"id":5865102,"adult":false},{"id":5865103,"adult":false},{"id":5865104,"adult":false},{"id":5865105,"adult":false},{"id":5533227,"adult":false},{"id":5865106,"adult":false},{"id":5865107,"adult":false},{"id":2512472,"adult":false},{"id":5865108,"adult":false},{"id":5865109,"adult":false},{"id":5865110,"adult":false},{"id":5865111,"adult":false},{"id":5865112,"adult":false},{"id":5865113,"adult":false},{"id":5865114,"adult":false},{"id":5865115,"adult":false},{"id":5865116,"adult":false},{"id":2217954,"adult":false},{"id":4971226,"adult":false},{"id":5865117,"adult":false},{"id":5865118,"adult":false},{"id":5865119,"adult":false},{"id":5865120,"adult":false},{"id":5865121,"adult":false},{"id":5865122,"adult":false},{"id":5865123,"adult":false},{"id":5865124,"adult":false},{"id":5865125,"adult":false},{"id":5865126,"adult":false},{"id":5865127,"adult":false},{"id":5865128,"adult":false},{"id":5865129,"adult":false},{"id":5865130,"adult":false},{"id":5865131,"adult":false},{"id":5865132,"adult":false},{"id":1600543,"adult":false},{"id":1864916,"adult":false},{"id":1864921,"adult":false},{"id":5865133,"adult":false},{"id":3284663,"adult":false},{"id":5865134,"adult":false},{"id":5865135,"adult":false},{"id":1899179,"adult":false},{"id":5865136,"adult":false},{"id":5865137,"adult":false},{"id":5865138,"adult":false},{"id":5865139,"adult":false},{"id":584760,"adult":false},{"id":5865140,"adult":false},{"id":5865141,"adult":false},{"id":5865142,"adult":false},{"id":1889615,"adult":false},{"id":58808,"adult":false},{"id":1240380,"adult":false},{"id":5865143,"adult":false},{"id":5865144,"adult":false}],"page":36,"total_pages":69,"total_results":6860}