HTTP/1.1 200 OK
Content-Type: application/json;charset=utf-8
Transfer-Encoding: chunked
Connection: close
Server: openresty
x-memc: MISS, STORE
x-memc-key: e459c9b2089f4692a65eee99c000ddc52b65304ec64a0811d1148e4cbd7383e0
x-memc-age: 0
x-memc-expires: 600
x-az: us-east-1c
x-task-id: 85d159752b264c8ca2611b288dbf4d21
Date: Tue, 09 Dec 2025 15:22:33 GMT
Cache-Control: public, max-age=486
ETag: W/"c91e86604de450bb3070dfa46ec75677"
Vary: accept-encoding
Vary: Origin
X-Cache: RefreshHit from cloudfront
Via: 1.1 8651dec5501a9be54b46f44ea7098ae2.cloudfront.net (CloudFront)
X-Amz-Cf-Pop: MAD53-P8
Alt-Svc: h3=":443"; ma=86400
X-Amz-Cf-Id: qxYjMkwvAL_i0E7KEsQzmyWyMjIKMSIyZiG9pUO9fq_dPXRnLRHZmg==
Content-Length: 2950

{"results":[{"id":5866571,"adult":false},{"id":5866572,"adult":false},{"id":5866573,"adult":false},{"id":5866574,"adult":false},{"id":2556842,"adult":false},{"id":2666483,"adult":false},{"id":5524105,"adult":false},{"id":5866575,"adult":false},{"id":5866576,"adult":false},{"id":1680718,"adult":false},{"id":5866577,"adult":false},{"id":2625630,"adult":false},{"id":84461,"adult":false},{"id":5866578,"adult":false},{"id":2010331,"adult":false},{"id":1306444,"adult":false},{"id":5866579,"adult":true},{"id":5866580,"adult":false},{"id":5866581,"adult":false},{"id":3400154,"adult":false},{"id":2375144,"adult":false},{"id":5866582,"adult":false},{"id":3159324,"adult":false},{"id":5866583,"adult":false},{"id":1142229,"adult":false},{"id":1381285,"adult":false},{"id":5866584,"adult":false},{"id":5866585,"adult":false},{"id":5866586,"adult":false},{"id":2244863,"adult":false},{"id":2305798,"adult":false},{"id":3424779,"adult":false},{"id":5866587,"adult":false},{"id":5866588,"adult":false},{"id":1624557,"adult":false},{"id":1925466,"adult":false},{"id":5866589,"adult":false},{"id":3736722,"adult":false},{"id":5719000,"adult":false},{"id":2654697,"adult":false},{"id":2103087,"adult":false},{"id":3670879,"adult":false},{"id":5866590,"adult":false},{"id":3608128,"adult":false},{"id":5866591,"adult":false},{"id":3401162,"adult":false},{"id":5866592,"adult":true},{"id":5866593,"adult":true},{"id":5866594,"adult":true},{"id":3839291,"adult":false},{"id":3769268,"adult":false},{"id":3769281,"adult":true},{"id":5866595,"adult":false},{"id":3769269,"adult":false},{"id":5866596,"adult":false},{"id":3769274,"adult":false},{"id":3769264,"adult":false},{"id":3769262,"adult":false},{"id":3769263,"adult":false},{"id":5866597,"adult":false},{"id":3769266,"adult":false},{"id":3769290,"adult":false},{"id":3769265,"adult":false},{"id":5866598,"adult":false},{"id":5750687,"adult":false},{"id":3804747,"adult":false},{"id":3769273,"adult":false},{"id":3769292,"adult":false},{"id":3779206,"adult":false},{"id":5866599,"adult":false},{"id":3729708,"adult":false},{"id":3339842,"adult":false},{"id":3769259,"adult":false},{"id":5866600,"adult":false},{"id":3800878,"adult":false},{"id":3697975,"adult":false},{"id":3739030,"adult":false},{"id":5866601,"adult":false},{"id":5866602,"adult":false},{"id":3769267,"adult":false},{"id":3697974,"adult":false},{"id":5866603,"adult":true},{"id":5866604,"adult":true},{"id":115671,"adult":false},{"id":5866605,"adult":true},{"id":5866606,"adult":false},{"id":5866607,"adult":false},{"id":5866608,"adult":false},{"id":5866609,"adult":false},{"id":5866610,"adult":false},{"id":5866611,"adult":false},{"id":3945938,"adult":false},{"id":3161667,"adult":false},{"id":5866612,"adult":false},{"id":5866613,"adult":false},{"id":5866614,"adult":false},{"id":5866615,"adult":false},{"id":1996221,"adult":false},{"id":5866616,"adult":false},{"id":5866617,"adult":false}],"page":64,"total_pages":69,"total_results":6860}