HTTP/1.1 200 OK
Content-Type: application/json;charset=utf-8
Transfer-Encoding: chunked
Connection: close
Server: openresty
x-memc: MISS, STORE
x-memc-key: 9d3d00a128a935ab8df706120992f54308744593585196bb222be554a45dcaa4
x-memc-age: 0
x-memc-expires: 600
x-az: us-east-1b
x-task-id: 67325ed8fae54d21938cb70a8a8db3b9
Date: Tue, 09 Dec 2025 15:22:24 GMT
Cache-Control: public, max-age=479
ETag: W/"f9b1e9ee471ded2cc4fa9ba4dd485a62"
Vary: accept-encoding
Vary: Origin
X-Cache: RefreshHit from cloudfront
Via: 1.1 622d0a5eea7bcc7b68b8727e663d8a3e.cloudfront.net (CloudFront)
X-Amz-Cf-Pop: MAD53-P8
Alt-Svc: h3=":443"; ma=86400
X-Amz-Cf-Id: pJvVI5LAv71qNayezIizRoYtcLbt2N2Eh4dakUD7eR3SW-JbmPkS7A==
Content-Length: 2879

{"results":[{"id":5859367,"adult":null},{"id":5859373,"adult":null},{"id":5859378,"adult":null},{"id":5859383,"adult":null},{"id":4813342,"adult":false},{"id":5858784,"adult":null},{"id":5858782,"adult":null},{"id":5858778,"adult":null},{"id":5858777,"adult":null},{"id":3493065,"adult":false},{"id":4587,"adult":false},{"id":83141,"adult":false},{"id":60033,"adult":false},{"id":5858542,"adult":null},{"id":11332,"adult":false},{"id":5850030,"adult":null},{"id":935201,"adult":false},{"id":5850037,"adult":null},{"id":5850048,"adult":null},{"id":2258,"adult":false},{"id":5850053,"adult":null},{"id":5850024,"adult":null},{"id":95468,"adult":false},{"id":56871,"adult":false},{"id":5864338,"adult":false},{"id":5946,"adult":false},{"id":4238,"adult":false},{"id":5864339,"adult":false},{"id":971329,"adult":false},{"id":5864340,"adult":false},{"id":5864341,"adult":false},{"id":5864342,"adult":false},{"id":1417467,"adult":false},{"id":5864343,"adult":false},{"id":3061,"adult":false},{"id":1299642,"adult":false},{"id":5850026,"adult":null},{"id":63941,"adult":false},{"id":5850020,"adult":null},{"id":5864344,"adult":false},{"id":5850052,"adult":null},{"id":5850041,"adult":null},{"id":5859026,"adult":null},{"id":5864345,"adult":false},{"id":5858524,"adult":null},{"id":2410487,"adult":false},{"id":5859030,"adult":null},{"id":5858547,"adult":null},{"id":2178542,"adult":false},{"id":5864346,"adult":false},{"id":5864347,"adult":null},{"id":5864348,"adult":false},{"id":5864349,"adult":false},{"id":5850051,"adult":null},{"id":5864350,"adult":false},{"id":5850023,"adult":null},{"id":84981,"adult":false},{"id":5864351,"adult":false},{"id":5864352,"adult":false},{"id":5864353,"adult":false},{"id":5864354,"adult":false},{"id":5864355,"adult":null},{"id":1849359,"adult":false},{"id":5406413,"adult":true},{"id":5858789,"adult":null},{"id":5858776,"adult":null},{"id":5858780,"adult":null},{"id":1269960,"adult":false},{"id":5864356,"adult":false},{"id":150131,"adult":false},{"id":3870834,"adult":false},{"id":4318168,"adult":false},{"id":5864357,"adult":false},{"id":5864358,"adult":false},{"id":5861216,"adult":null},{"id":5864359,"adult":false},{"id":5864360,"adult":false},{"id":5864361,"adult":false},{"id":5860524,"adult":null},{"id":5045870,"adult":null},{"id":5502303,"adult":null},{"id":1245726,"adult":false},{"id":5864362,"adult":false},{"id":2936822,"adult":null},{"id":2371575,"adult":null},{"id":3193040,"adult":null},{"id":1180342,"adult":false},{"id":50948,"adult":false},{"id":148543,"adult":false},{"id":44736,"adult":false},{"id":5864363,"adult":false},{"id":5762237,"adult":false},{"id":5864364,"adult":false},{"id":5864365,"adult":false},{"id":2684267,"adult":false},{"id":62047,"adult":false},{"id":8171,"adult":false},{"id":2790479,"adult":false},{"id":28396,"adult":false},{"id":223477,"adult":false}],"page":16,"total_pages":69,"total_results":6860}