HTTP/1.1 200 OK
Content-Type: application/json;charset=utf-8
Transfer-Encoding: chunked
Connection: close
Server: openresty
x-memc: MISS, STORE
x-memc-key: 0e51c4f759f2787b84bb80b39a07a52a2083341493fef5fab58c3b4b09dd0a1c
x-memc-age: 0
x-memc-expires: 600
x-az: us-east-1a
x-task-id: 813dbd8b691649a2820aa3f2bfa6a3d7
Date: Tue, 09 Dec 2025 15:07:17 GMT
Cache-Control: public, max-age=600
ETag: W/"22f618668a0e4a9ca86b24b80f2301e3"
Vary: accept-encoding
Vary: Origin
X-Cache: Hit from cloudfront
Via: 1.1 19870c0393f1333e354741940caea7ba.cloudfront.net (CloudFront)
X-Amz-Cf-Pop: MAD53-P8
Alt-Svc: h3=":443"; ma=86400
X-Amz-Cf-Id: 06mhOwZy7lz586WK00vg1HKSAosynTMD0UUwVErYLQ3bjT_yzuYHuQ==
Age: 459
Content-Length: 2932

{"results":[{"id":1637223,"adult":false},{"id":5864425,"adult":false},{"id":5769845,"adult":false},{"id":5864426,"adult":false},{"id":5864427,"adult":false},{"id":5864428,"adult":false},{"id":1457581,"adult":false},{"id":5864429,"adult":false},{"id":5864430,"adult":false},{"id":5864431,"adult":false},{"id":108215,"adult":false},{"id":5864432,"adult":false},{"id":5864433,"adult":false},{"id":5864434,"adult":false},{"id":5427189,"adult":false},{"id":5864435,"adult":false},{"id":5190861,"adult":false},{"id":5864436,"adult":false},{"id":5864437,"adult":false},{"id":5864438,"adult":false},{"id":1561889,"adult":false},{"id":2377487,"adult":false},{"id":1544545,"adult":false},{"id":3859834,"adult":false},{"id":5864439,"adult":false},{"id":5864440,"adult":false},{"id":5864441,"adult":false},{"id":1622628,"adult":false},{"id":5864442,"adult":false},{"id":3131398,"adult":false},{"id":5864443,"adult":false},{"id":5687251,"adult":false},{"id":54808,"adult":false},{"id":2347505,"adult":false},{"id":1437638,"adult":false},{"id":5864444,"adult":false},{"id":5864445,"adult":false},{"id":5864446,"adult":false},{"id":542997,"adult":false},{"id":5864447,"adult":false},{"id":5864448,"adult":false},{"id":1179870,"adult":false},{"id":1189656,"adult":true},{"id":118416,"adult":false},{"id":140405,"adult":true},{"id":1501931,"adult":false},{"id":5809834,"adult":null},{"id":5809823,"adult":null},{"id":3812950,"adult":false},{"id":4554807,"adult":false},{"id":5864449,"adult":false},{"id":5864450,"adult":false},{"id":2075179,"adult":false},{"id":5864451,"adult":false},{"id":107149,"adult":false},{"id":5864452,"adult":false},{"id":5864453,"adult":false},{"id":1395167,"adult":false},{"id":4836698,"adult":false},{"id":5864454,"adult":false},{"id":2258476,"adult":false},{"id":5864455,"adult":false},{"id":1385247,"adult":false},{"id":5864456,"adult":false},{"id":5864457,"adult":false},{"id":1254992,"adult":false},{"id":5864458,"adult":false},{"id":2179530,"adult":false},{"id":3868606,"adult":false},{"id":5864459,"adult":false},{"id":3868607,"adult":false},{"id":4560400,"adult":false},{"id":1299588,"adult":false},{"id":1396186,"adult":false},{"id":5864460,"adult":null},{"id":30305,"adult":false},{"id":58619,"adult":false},{"id":1161058,"adult":false},{"id":1396689,"adult":false},{"id":57408,"adult":false},{"id":3534272,"adult":false},{"id":5864461,"adult":false},{"id":5864462,"adult":false},{"id":30314,"adult":false},{"id":5864463,"adult":false},{"id":5864464,"adult":false},{"id":1641,"adult":false},{"id":5864465,"adult":false},{"id":31415,"adult":false},{"id":3210918,"adult":true},{"id":5864466,"adult":false},{"id":5864467,"adult":false},{"id":5858147,"adult":true},{"id":5864468,"adult":false},{"id":107441,"adult":false},{"id":5864469,"adult":false},{"id":5864470,"adult":false},{"id":5858124,"adult":true},{"id":5794477,"adult":false},{"id":1397911,"adult":false}],"page":19,"total_pages":69,"total_results":6860}