HTTP/1.1 200 OK
Content-Type: application/json;charset=utf-8
Transfer-Encoding: chunked
Connection: close
Server: openresty
x-memc: MISS, STORE
x-memc-key: 0894005d5574fd1bbb20c3125afa001df8cf87a7f8a053f3754c654a336ac5a2
x-memc-age: 0
x-memc-expires: 600
x-az: us-east-1a
x-task-id: 73b8d61bf6bb421186d1b10c97925d1a
Date: Tue, 09 Dec 2025 15:07:16 GMT
Cache-Control: public, max-age=600
ETag: W/"7656aadf78b0e98f00631e4ab11a2b80"
Vary: accept-encoding
Vary: Origin
X-Cache: Hit from cloudfront
Via: 1.1 7cb5e6ca8e491181a91096729b24a17c.cloudfront.net (CloudFront)
X-Amz-Cf-Pop: MAD53-P8
Alt-Svc: h3=":443"; ma=86400
X-Amz-Cf-Id: pKQ3C__Zv7_euoCbOyJg7tFU4QuPWUBL7OgNFN7a8Mj9qi45W7beuQ==
Age: 459
Content-Length: 2953

{"results":[{"id":4650427,"adult":false},{"id":4347240,"adult":false},{"id":4650429,"adult":false},{"id":4650438,"adult":false},{"id":4018598,"adult":false},{"id":2338176,"adult":false},{"id":3290066,"adult":false},{"id":1261035,"adult":false},{"id":5864197,"adult":false},{"id":4634188,"adult":false},{"id":5864198,"adult":false},{"id":2728307,"adult":false},{"id":2966859,"adult":false},{"id":5864199,"adult":false},{"id":2434741,"adult":false},{"id":2068864,"adult":false},{"id":5781000,"adult":false},{"id":5864200,"adult":false},{"id":975322,"adult":false},{"id":1613813,"adult":false},{"id":2544504,"adult":false},{"id":2544495,"adult":false},{"id":2582939,"adult":false},{"id":5864201,"adult":false},{"id":3880698,"adult":false},{"id":3190606,"adult":false},{"id":3191683,"adult":false},{"id":3191692,"adult":false},{"id":5864202,"adult":false},{"id":2748186,"adult":false},{"id":5864203,"adult":false},{"id":2240103,"adult":false},{"id":2155988,"adult":false},{"id":4946480,"adult":false},{"id":5864204,"adult":false},{"id":4946487,"adult":false},{"id":5864205,"adult":false},{"id":4946489,"adult":false},{"id":4946495,"adult":false},{"id":4946497,"adult":false},{"id":4946498,"adult":false},{"id":5864206,"adult":false},{"id":4946499,"adult":false},{"id":4946501,"adult":false},{"id":3516999,"adult":false},{"id":5864207,"adult":false},{"id":5864208,"adult":false},{"id":4946576,"adult":false},{"id":5864209,"adult":false},{"id":4946586,"adult":false},{"id":5864210,"adult":false},{"id":4946590,"adult":false},{"id":4946595,"adult":false},{"id":4946604,"adult":false},{"id":4946612,"adult":false},{"id":5864211,"adult":false},{"id":4946613,"adult":false},{"id":4946625,"adult":false},{"id":5864212,"adult":false},{"id":4946627,"adult":false},{"id":5864213,"adult":false},{"id":4364352,"adult":false},{"id":5864214,"adult":false},{"id":5808463,"adult":false},{"id":2613658,"adult":false},{"id":2835821,"adult":false},{"id":3596546,"adult":false},{"id":3786661,"adult":false},{"id":5864215,"adult":false},{"id":3880711,"adult":false},{"id":3599088,"adult":false},{"id":5864216,"adult":false},{"id":5864217,"adult":false},{"id":5864218,"adult":false},{"id":3750183,"adult":false},{"id":3349445,"adult":false},{"id":5864219,"adult":false},{"id":5771760,"adult":false},{"id":5864220,"adult":false},{"id":5863041,"adult":null},{"id":5863047,"adult":null},{"id":5864221,"adult":false},{"id":5864222,"adult":false},{"id":5864223,"adult":false},{"id":5864224,"adult":false},{"id":5864225,"adult":false},{"id":1219530,"adult":false},{"id":3468505,"adult":false},{"id":2755966,"adult":false},{"id":4539914,"adult":false},{"id":5864226,"adult":false},{"id":5591066,"adult":false},{"id":5591095,"adult":false},{"id":5591112,"adult":false},{"id":5591134,"adult":false},{"id":5591192,"adult":false},{"id":60358,"adult":false},{"id":3291,"adult":false},{"id":4359739,"adult":false},{"id":4695353,"adult":false}],"page":10,"total_pages":69,"total_results":6860}