HTTP/1.1 200 OK
Content-Type: application/json;charset=utf-8
Transfer-Encoding: chunked
Connection: close
Server: openresty
x-memc: MISS, STORE
x-memc-key: 13cc88696d6821053bed0f3937a6e84aece04c5aaecc5709e9f3695f33e4acde
x-memc-age: 0
x-memc-expires: 600
x-az: us-east-1c
x-task-id: 48fdd9e15ea14727904ecaf7e5ce09a1
Date: Tue, 09 Dec 2025 15:22:32 GMT
Cache-Control: public, max-age=486
ETag: W/"46fa4da50811953dabcecffaa95da4e4"
Vary: accept-encoding
Vary: Origin
X-Cache: RefreshHit from cloudfront
Via: 1.1 45a29b86bae07b09ddc92c2b533e0470.cloudfront.net (CloudFront)
X-Amz-Cf-Pop: MAD53-P8
Alt-Svc: h3=":443"; ma=86400
X-Amz-Cf-Id: loPWCnMh6SdKW87IH5tp71deHu0h9Ud3_3apGrCKDV0p3z5QroDlLg==
Content-Length: 2893

{"results":[{"id":5858993,"adult":null},{"id":5858995,"adult":null},{"id":5858998,"adult":null},{"id":5866451,"adult":false},{"id":5866452,"adult":false},{"id":17380,"adult":false},{"id":5305577,"adult":false},{"id":5811367,"adult":null},{"id":5811369,"adult":null},{"id":5811370,"adult":null},{"id":5811366,"adult":null},{"id":5811365,"adult":null},{"id":4186382,"adult":null},{"id":82104,"adult":false},{"id":3476162,"adult":false},{"id":3933662,"adult":false},{"id":3372899,"adult":false},{"id":231362,"adult":false},{"id":5866453,"adult":false},{"id":5866454,"adult":false},{"id":87265,"adult":false},{"id":1440006,"adult":false},{"id":209762,"adult":false},{"id":5866455,"adult":false},{"id":5866456,"adult":false},{"id":1394332,"adult":false},{"id":5866457,"adult":false},{"id":1773397,"adult":false},{"id":5866458,"adult":false},{"id":109565,"adult":false},{"id":5866459,"adult":false},{"id":1497913,"adult":false},{"id":222121,"adult":false},{"id":5866460,"adult":false},{"id":12074,"adult":false},{"id":5866461,"adult":false},{"id":5866462,"adult":false},{"id":1158,"adult":false},{"id":3261676,"adult":false},{"id":1210,"adult":false},{"id":5866463,"adult":false},{"id":1528381,"adult":false},{"id":51663,"adult":false},{"id":78729,"adult":false},{"id":5866464,"adult":false},{"id":3131742,"adult":false},{"id":1951453,"adult":false},{"id":1492326,"adult":false},{"id":1229,"adult":false},{"id":5866465,"adult":false},{"id":5866466,"adult":false},{"id":1230,"adult":false},{"id":3275186,"adult":false},{"id":68812,"adult":false},{"id":4445,"adult":false},{"id":5866467,"adult":false},{"id":1696701,"adult":false},{"id":5866468,"adult":false},{"id":2173606,"adult":false},{"id":5866469,"adult":false},{"id":1436789,"adult":false},{"id":1122717,"adult":false},{"id":72677,"adult":false},{"id":132538,"adult":false},{"id":5866470,"adult":false},{"id":5866471,"adult":false},{"id":1170526,"adult":false},{"id":86341,"adult":false},{"id":3269116,"adult":false},{"id":1449538,"adult":false},{"id":3192546,"adult":false},{"id":5866472,"adult":false},{"id":3897812,"adult":false},{"id":2182388,"adult":false},{"id":3941145,"adult":false},{"id":3842540,"adult":false},{"id":16438,"adult":false},{"id":3941152,"adult":false},{"id":2772940,"adult":false},{"id":5866473,"adult":false},{"id":1946212,"adult":false},{"id":5059332,"adult":null},{"id":5059335,"adult":null},{"id":5059337,"adult":null},{"id":5059338,"adult":null},{"id":5059344,"adult":null},{"id":5059349,"adult":null},{"id":5059358,"adult":null},{"id":5059465,"adult":null},{"id":5059469,"adult":null},{"id":5059502,"adult":null},{"id":5059506,"adult":null},{"id":5059508,"adult":null},{"id":5059513,"adult":null},{"id":5059517,"adult":null},{"id":5062141,"adult":null},{"id":5123451,"adult":null},{"id":5398294,"adult":null},{"id":5398319,"adult":null},{"id":5398324,"adult":null}],"page":61,"total_pages":69,"total_results":6860}