HTTP/1.1 200 OK
Content-Type: application/json;charset=utf-8
Transfer-Encoding: chunked
Connection: close
Date: Tue, 09 Dec 2025 14:43:53 GMT
Server: openresty
Cache-Control: public, max-age=86400
x-memc: MISS, STORE
x-memc-key: 002f4443a0747ecb9efee04af634f514c602782943a87613cc28f9f29d643688
x-memc-age: 0
x-memc-expires: 86400
x-az: us-east-1b
x-task-id: 30da6ae4440a42f0a445f111617018a6
ETag: W/"546df766f554834f01aca805b183d52e"
Vary: accept-encoding
Vary: Origin
X-Cache: Hit from cloudfront
Via: 1.1 994deeea5117897efd50b3e367af0a6a.cloudfront.net (CloudFront)
X-Amz-Cf-Pop: MAD53-P8
Alt-Svc: h3=":443"; ma=86400
X-Amz-Cf-Id: pKTyEKAwT-6ITwsRE_hJMQSJqmDd78STHdtYTCKoAd1usM9icTR2Iw==
Age: 2308
Content-Length: 2741

{"results":[{"id":49847,"adult":false},{"id":6127,"adult":false},{"id":69158,"adult":false},{"id":79076,"adult":false},{"id":62104,"adult":false},{"id":39845,"adult":false},{"id":77755,"adult":null},{"id":79706,"adult":null},{"id":67198,"adult":false},{"id":79705,"adult":null},{"id":61576,"adult":false},{"id":8590,"adult":false},{"id":14347,"adult":false},{"id":70767,"adult":false},{"id":62320,"adult":false},{"id":66840,"adult":false},{"id":63398,"adult":false},{"id":79707,"adult":null},{"id":35486,"adult":false},{"id":71550,"adult":false},{"id":66071,"adult":false},{"id":70426,"adult":null},{"id":65574,"adult":false},{"id":66008,"adult":false},{"id":57532,"adult":false},{"id":74764,"adult":false},{"id":79708,"adult":null},{"id":66573,"adult":false},{"id":79343,"adult":false},{"id":71663,"adult":false},{"id":20574,"adult":false},{"id":79689,"adult":null},{"id":68267,"adult":false},{"id":51425,"adult":false},{"id":75863,"adult":false},{"id":78471,"adult":false},{"id":79709,"adult":false},{"id":46825,"adult":false},{"id":70367,"adult":false},{"id":15680,"adult":false},{"id":65930,"adult":false},{"id":76142,"adult":false},{"id":1414,"adult":false},{"id":37687,"adult":false},{"id":79710,"adult":false},{"id":62126,"adult":false},{"id":61222,"adult":false},{"id":78634,"adult":false},{"id":74660,"adult":false},{"id":69193,"adult":false},{"id":20056,"adult":false},{"id":60059,"adult":false},{"id":78476,"adult":false},{"id":75789,"adult":false},{"id":75892,"adult":false},{"id":60719,"adult":false},{"id":65820,"adult":false},{"id":76453,"adult":false},{"id":23956,"adult":false},{"id":74104,"adult":false},{"id":79711,"adult":false},{"id":34415,"adult":false},{"id":71445,"adult":null},{"id":62823,"adult":false},{"id":79712,"adult":false},{"id":69606,"adult":false},{"id":72914,"adult":false},{"id":72304,"adult":false},{"id":44919,"adult":false},{"id":74505,"adult":null},{"id":62285,"adult":false},{"id":72748,"adult":false},{"id":46837,"adult":false},{"id":76674,"adult":false},{"id":60699,"adult":false},{"id":79713,"adult":false},{"id":72028,"adult":false},{"id":46705,"adult":false},{"id":32997,"adult":false},{"id":72615,"adult":false},{"id":2416,"adult":false},{"id":79714,"adult":false},{"id":61886,"adult":false},{"id":46952,"adult":false},{"id":66788,"adult":false},{"id":2745,"adult":false},{"id":71722,"adult":false},{"id":71383,"adult":false},{"id":501,"adult":false},{"id":62710,"adult":false},{"id":68941,"adult":false},{"id":67683,"adult":false},{"id":24754,"adult":false},{"id":66786,"adult":false},{"id":32388,"adult":false},{"id":61387,"adult":false},{"id":4274,"adult":false},{"id":78498,"adult":null},{"id":4459,"adult":false},{"id":43650,"adult":false}],"page":2,"total_pages":13,"total_results":1229}