HTTP/1.1 200 OK
Content-Type: application/json;charset=utf-8
Transfer-Encoding: chunked
Connection: close
Server: openresty
x-memc: MISS, STORE
x-memc-key: a5cc28d2e6f241ca5b2f2cbc5e62093708ac286284f83acb67996cc576f4f87d
x-memc-age: 0
x-memc-expires: 600
x-az: us-east-1a
x-task-id: b0eafb7727e14bcabac0e4abd1a9419d
Date: Tue, 09 Dec 2025 15:07:24 GMT
Cache-Control: public, max-age=600
ETag: W/"107cc0f007ec61f0e7517f9961d54f23"
Vary: accept-encoding
Vary: Origin
X-Cache: Hit from cloudfront
Via: 1.1 aaa7ac5749bcacfb16caeb80b579a9b4.cloudfront.net (CloudFront)
X-Amz-Cf-Pop: MAD53-P8
Alt-Svc: h3=":443"; ma=86400
X-Amz-Cf-Id: 9Ffmg5wkNKzMGqLDxvMTMpOxs4ifURJR3wN8Zm36D6SE5wT6DQAIBw==
Age: 453
Content-Length: 2949

{"results":[{"id":5866265,"adult":false},{"id":5866266,"adult":false},{"id":5866267,"adult":false},{"id":5866268,"adult":false},{"id":5866269,"adult":false},{"id":5866270,"adult":false},{"id":3447215,"adult":false},{"id":4741980,"adult":false},{"id":5866271,"adult":false},{"id":4568462,"adult":false},{"id":4339466,"adult":false},{"id":5866272,"adult":false},{"id":5175917,"adult":true},{"id":5866273,"adult":false},{"id":5866274,"adult":false},{"id":5866275,"adult":false},{"id":5866276,"adult":false},{"id":4339631,"adult":false},{"id":5866277,"adult":false},{"id":5866278,"adult":false},{"id":2384736,"adult":false},{"id":5866279,"adult":false},{"id":1125797,"adult":false},{"id":3096097,"adult":false},{"id":5866280,"adult":false},{"id":5866281,"adult":false},{"id":5866282,"adult":false},{"id":5866283,"adult":false},{"id":5866284,"adult":false},{"id":5866285,"adult":false},{"id":5866286,"adult":false},{"id":5866287,"adult":false},{"id":3108890,"adult":false},{"id":3071116,"adult":false},{"id":5866288,"adult":false},{"id":5866289,"adult":false},{"id":5866290,"adult":false},{"id":5012650,"adult":false},{"id":4311904,"adult":false},{"id":3969287,"adult":false},{"id":5866291,"adult":false},{"id":4558535,"adult":false},{"id":4558529,"adult":false},{"id":4556510,"adult":false},{"id":4984936,"adult":false},{"id":5012679,"adult":false},{"id":5866292,"adult":false},{"id":4011882,"adult":false},{"id":5866293,"adult":false},{"id":4011879,"adult":false},{"id":4011883,"adult":false},{"id":4011881,"adult":false},{"id":4100530,"adult":null},{"id":5866294,"adult":false},{"id":3011142,"adult":true},{"id":5866295,"adult":false},{"id":1224454,"adult":false},{"id":5866296,"adult":false},{"id":3428553,"adult":false},{"id":3428554,"adult":false},{"id":5866297,"adult":false},{"id":5866298,"adult":false},{"id":2506107,"adult":false},{"id":5866299,"adult":false},{"id":5647329,"adult":null},{"id":3719924,"adult":false},{"id":5647324,"adult":null},{"id":2360614,"adult":false},{"id":5647326,"adult":null},{"id":4930064,"adult":false},{"id":5647331,"adult":null},{"id":4364117,"adult":false},{"id":4433735,"adult":false},{"id":2287660,"adult":false},{"id":5866300,"adult":false},{"id":3915893,"adult":false},{"id":3930383,"adult":false},{"id":3930399,"adult":false},{"id":5128875,"adult":false},{"id":2928646,"adult":false},{"id":5866301,"adult":false},{"id":5866302,"adult":false},{"id":139161,"adult":false},{"id":5866303,"adult":false},{"id":5866304,"adult":false},{"id":5866305,"adult":false},{"id":5866306,"adult":false},{"id":5866307,"adult":false},{"id":5866308,"adult":false},{"id":5204645,"adult":null},{"id":5866309,"adult":false},{"id":5866310,"adult":false},{"id":2219557,"adult":false},{"id":5866311,"adult":false},{"id":3192247,"adult":null},{"id":5866312,"adult":false},{"id":3929205,"adult":false},{"id":5754845,"adult":null},{"id":5866313,"adult":false},{"id":144212,"adult":false}],"page":56,"total_pages":69,"total_results":6860}