HTTP/1.1 200 OK
Content-Type: application/json;charset=utf-8
Transfer-Encoding: chunked
Connection: close
Server: openresty
x-memc: MISS, STORE
x-memc-key: c1da80b6bff3de035ffa921127290a09f0a34ec6201d7435893300cbd41c6177
x-memc-age: 0
x-memc-expires: 600
x-az: us-east-1a
x-task-id: b0eafb7727e14bcabac0e4abd1a9419d
Date: Tue, 09 Dec 2025 15:07:20 GMT
Cache-Control: public, max-age=600
ETag: W/"262a7fb46093d05c60692f227b4d9a62"
Vary: accept-encoding
Vary: Origin
X-Cache: Hit from cloudfront
Via: 1.1 3d3cfcce2bc7d8cdd0937a7781e828e8.cloudfront.net (CloudFront)
X-Amz-Cf-Pop: MAD53-P8
Alt-Svc: h3=":443"; ma=86400
X-Amz-Cf-Id: eyp3yxqWnrut2GdngUx38bVM5SpGJ-Kz3K5-BPAe6tE-13Yh0e91_w==
Age: 456
Content-Length: 2932

{"results":[{"id":5865145,"adult":false},{"id":5865146,"adult":false},{"id":5865147,"adult":false},{"id":38025,"adult":false},{"id":127171,"adult":false},{"id":34248,"adult":false},{"id":5865148,"adult":false},{"id":5865149,"adult":false},{"id":5865150,"adult":false},{"id":5865151,"adult":false},{"id":5865152,"adult":false},{"id":5865153,"adult":false},{"id":2719109,"adult":false},{"id":5865154,"adult":false},{"id":5865155,"adult":false},{"id":5865156,"adult":false},{"id":5865157,"adult":false},{"id":5865158,"adult":false},{"id":5865159,"adult":false},{"id":5865160,"adult":false},{"id":5865161,"adult":false},{"id":5865162,"adult":false},{"id":5865163,"adult":false},{"id":587498,"adult":false},{"id":5865164,"adult":false},{"id":40430,"adult":true},{"id":4590,"adult":false},{"id":45183,"adult":false},{"id":2610744,"adult":false},{"id":5865165,"adult":false},{"id":1149042,"adult":false},{"id":225038,"adult":false},{"id":3007964,"adult":false},{"id":1581893,"adult":false},{"id":1223886,"adult":false},{"id":67913,"adult":false},{"id":1318964,"adult":false},{"id":5865166,"adult":false},{"id":10839,"adult":false},{"id":1244814,"adult":false},{"id":2105944,"adult":false},{"id":2512474,"adult":false},{"id":1599988,"adult":false},{"id":1875752,"adult":false},{"id":3672901,"adult":false},{"id":3855347,"adult":false},{"id":3855348,"adult":false},{"id":3855349,"adult":false},{"id":5865167,"adult":false},{"id":5865168,"adult":false},{"id":5865169,"adult":false},{"id":5865170,"adult":false},{"id":5105517,"adult":false},{"id":5865171,"adult":false},{"id":5865172,"adult":false},{"id":1937343,"adult":false},{"id":5865173,"adult":false},{"id":5865174,"adult":false},{"id":22123,"adult":false},{"id":3294153,"adult":false},{"id":3049160,"adult":false},{"id":5865175,"adult":false},{"id":930634,"adult":false},{"id":124874,"adult":false},{"id":2498224,"adult":false},{"id":5865176,"adult":false},{"id":5865177,"adult":false},{"id":5865178,"adult":false},{"id":5865179,"adult":false},{"id":4069318,"adult":false},{"id":1725200,"adult":false},{"id":5865180,"adult":false},{"id":5865181,"adult":false},{"id":5865182,"adult":false},{"id":34519,"adult":false},{"id":5865183,"adult":false},{"id":55256,"adult":false},{"id":5865184,"adult":false},{"id":73590,"adult":false},{"id":1222096,"adult":false},{"id":5865185,"adult":false},{"id":1219807,"adult":false},{"id":5865186,"adult":false},{"id":5865187,"adult":false},{"id":5865188,"adult":false},{"id":5865189,"adult":false},{"id":5865190,"adult":false},{"id":5865191,"adult":false},{"id":5865192,"adult":false},{"id":1816917,"adult":false},{"id":5865193,"adult":false},{"id":5865194,"adult":false},{"id":5865195,"adult":false},{"id":5865196,"adult":false},{"id":5865197,"adult":false},{"id":5865198,"adult":false},{"id":5865199,"adult":false},{"id":5865200,"adult":false},{"id":5865201,"adult":false},{"id":5865202,"adult":false}],"page":37,"total_pages":69,"total_results":6860}