HTTP/1.1 200 OK
Content-Type: application/json;charset=utf-8
Transfer-Encoding: chunked
Connection: close
Server: openresty
x-memc: MISS, STORE
x-memc-key: e06d6d94f91e43bd3a22130b8f3db80556ed9cd6dda8d0ff4b163ff87d829e67
x-memc-age: 0
x-memc-expires: 600
x-az: us-east-1c
x-task-id: 48fdd9e15ea14727904ecaf7e5ce09a1
Date: Tue, 09 Dec 2025 15:07:26 GMT
Cache-Control: public, max-age=600
ETag: W/"f925ddd20811f3d088aa5c9e08b85ce1"
Vary: accept-encoding
Vary: Origin
X-Cache: Hit from cloudfront
Via: 1.1 b36b68631c5d4e671b86b622ad61723a.cloudfront.net (CloudFront)
X-Amz-Cf-Pop: MAD53-P8
Alt-Svc: h3=":443"; ma=86400
X-Amz-Cf-Id: 6MIVR_sC21zw08auem7OTmfhr5jvYy0ZnWJ6jNMXbWYaIBNMlQsWMg==
Age: 452
Content-Length: 2956

{"results":[{"id":5866704,"adult":false},{"id":5866705,"adult":false},{"id":5866706,"adult":false},{"id":3568146,"adult":false},{"id":2695961,"adult":false},{"id":5866707,"adult":false},{"id":5866708,"adult":false},{"id":129419,"adult":false},{"id":5866709,"adult":false},{"id":5866710,"adult":false},{"id":2980430,"adult":false},{"id":5866711,"adult":false},{"id":5866712,"adult":false},{"id":3803885,"adult":false},{"id":5866713,"adult":false},{"id":2621228,"adult":false},{"id":5866714,"adult":false},{"id":4612251,"adult":false},{"id":927413,"adult":false},{"id":5866715,"adult":false},{"id":5866716,"adult":false},{"id":5866717,"adult":false},{"id":3840651,"adult":false},{"id":5866718,"adult":false},{"id":5866719,"adult":false},{"id":5866720,"adult":false},{"id":5866721,"adult":false},{"id":5866722,"adult":false},{"id":5866723,"adult":false},{"id":5866724,"adult":false},{"id":2606254,"adult":false},{"id":5866725,"adult":false},{"id":5866726,"adult":false},{"id":5866727,"adult":false},{"id":5866728,"adult":false},{"id":5866729,"adult":false},{"id":5670957,"adult":false},{"id":5866730,"adult":false},{"id":5866731,"adult":false},{"id":5866732,"adult":false},{"id":5866733,"adult":false},{"id":5866734,"adult":false},{"id":5866735,"adult":false},{"id":5866736,"adult":false},{"id":5732763,"adult":false},{"id":5866737,"adult":false},{"id":5866738,"adult":false},{"id":5866739,"adult":false},{"id":3237731,"adult":false},{"id":2040125,"adult":false},{"id":2088734,"adult":false},{"id":5577228,"adult":false},{"id":5622909,"adult":false},{"id":2617750,"adult":false},{"id":5866740,"adult":false},{"id":5866741,"adult":false},{"id":5866742,"adult":false},{"id":5866743,"adult":false},{"id":5866744,"adult":false},{"id":3587720,"adult":false},{"id":5021298,"adult":false},{"id":4355353,"adult":false},{"id":3287446,"adult":false},{"id":5866745,"adult":false},{"id":5866746,"adult":false},{"id":2622660,"adult":false},{"id":5866747,"adult":false},{"id":3553743,"adult":false},{"id":1550956,"adult":false},{"id":3059177,"adult":false},{"id":2106895,"adult":false},{"id":1567630,"adult":false},{"id":3683069,"adult":false},{"id":1880944,"adult":false},{"id":2602408,"adult":false},{"id":83437,"adult":false},{"id":5866748,"adult":false},{"id":3748029,"adult":false},{"id":2658038,"adult":false},{"id":5866749,"adult":false},{"id":5866750,"adult":false},{"id":5866751,"adult":false},{"id":5866752,"adult":false},{"id":5866753,"adult":false},{"id":5866754,"adult":false},{"id":5866755,"adult":false},{"id":5866756,"adult":false},{"id":1278911,"adult":false},{"id":5866757,"adult":false},{"id":5866758,"adult":false},{"id":5866759,"adult":false},{"id":5866760,"adult":false},{"id":3568131,"adult":false},{"id":5866761,"adult":false},{"id":5866762,"adult":false},{"id":2610394,"adult":false},{"id":5866763,"adult":false},{"id":2667424,"adult":null},{"id":5866764,"adult":false},{"id":5866765,"adult":false}],"page":67,"total_pages":69,"total_results":6860}