HTTP/1.1 200 OK
Content-Type: application/json;charset=utf-8
Transfer-Encoding: chunked
Connection: close
Server: openresty
x-memc: MISS, STORE
x-memc-key: c37fe1f0d73f4b22870bc6e6cf58817be630f933138bf6e1c8fed3586a2d30bb
x-memc-age: 0
x-memc-expires: 600
x-az: us-east-1a
x-task-id: 93db2961da134913985e7136ab6c623e
Date: Tue, 09 Dec 2025 15:22:23 GMT
Cache-Control: public, max-age=478
ETag: W/"dd671943ccf3e254671e726fec39787e"
Vary: accept-encoding
Vary: Origin
X-Cache: RefreshHit from cloudfront
Via: 1.1 65fafc6240b0e8b3e15609a24840fab6.cloudfront.net (CloudFront)
X-Amz-Cf-Pop: MAD53-P8
Alt-Svc: h3=":443"; ma=86400
X-Amz-Cf-Id: imPqaWVn0d0Qnk-ersRjpCE7mztgSXJs_0r4cwApY-KzRVbGfp7Zhg==
Content-Length: 2890

{"results":[{"id":27755,"adult":false},{"id":54691,"adult":false},{"id":3140608,"adult":false},{"id":3797438,"adult":false},{"id":4631595,"adult":false},{"id":4631608,"adult":false},{"id":4631611,"adult":false},{"id":1979383,"adult":false},{"id":4509982,"adult":false},{"id":5864227,"adult":true},{"id":932639,"adult":false},{"id":73056,"adult":true},{"id":5864228,"adult":false},{"id":40462,"adult":false},{"id":2709373,"adult":false},{"id":4772249,"adult":false},{"id":5829420,"adult":false},{"id":4657328,"adult":false},{"id":5829447,"adult":false},{"id":1336,"adult":false},{"id":4978289,"adult":false},{"id":64704,"adult":false},{"id":4978500,"adult":false},{"id":64702,"adult":false},{"id":5864229,"adult":false},{"id":1342853,"adult":false},{"id":4978522,"adult":false},{"id":4978523,"adult":false},{"id":4978524,"adult":false},{"id":5864230,"adult":false},{"id":2936088,"adult":false},{"id":4978531,"adult":false},{"id":4978533,"adult":false},{"id":4978534,"adult":false},{"id":4978535,"adult":false},{"id":64690,"adult":false},{"id":64693,"adult":false},{"id":64688,"adult":false},{"id":1342856,"adult":false},{"id":64687,"adult":false},{"id":1342855,"adult":false},{"id":4978540,"adult":false},{"id":95267,"adult":false},{"id":4978545,"adult":false},{"id":4978563,"adult":false},{"id":4978564,"adult":false},{"id":4734935,"adult":false},{"id":4978587,"adult":false},{"id":4978589,"adult":false},{"id":3438413,"adult":false},{"id":64692,"adult":false},{"id":4978608,"adult":false},{"id":4699164,"adult":false},{"id":4698909,"adult":false},{"id":4978619,"adult":false},{"id":4978623,"adult":false},{"id":2061810,"adult":false},{"id":1877018,"adult":false},{"id":13022,"adult":false},{"id":8256,"adult":false},{"id":591246,"adult":false},{"id":887,"adult":false},{"id":49265,"adult":false},{"id":3138028,"adult":false},{"id":2552339,"adult":false},{"id":4107079,"adult":false},{"id":3141,"adult":false},{"id":5864231,"adult":false},{"id":1452045,"adult":false},{"id":5864232,"adult":false},{"id":222906,"adult":false},{"id":2127,"adult":false},{"id":4445624,"adult":false},{"id":31070,"adult":false},{"id":5344,"adult":false},{"id":818,"adult":false},{"id":1772,"adult":false},{"id":5864233,"adult":false},{"id":47505,"adult":false},{"id":5864234,"adult":false},{"id":60705,"adult":false},{"id":5864235,"adult":false},{"id":31007,"adult":false},{"id":5660612,"adult":false},{"id":5864236,"adult":false},{"id":5660613,"adult":false},{"id":5663518,"adult":false},{"id":5864237,"adult":false},{"id":5864238,"adult":false},{"id":5663576,"adult":false},{"id":5663584,"adult":false},{"id":5864239,"adult":false},{"id":5864240,"adult":false},{"id":2521250,"adult":false},{"id":17265,"adult":false},{"id":77287,"adult":false},{"id":5864241,"adult":false},{"id":5864242,"adult":false},{"id":1117786,"adult":false},{"id":5864243,"adult":false}],"page":11,"total_pages":69,"total_results":6860}