HTTP/1.1 200 OK
Content-Type: application/json;charset=utf-8
Transfer-Encoding: chunked
Connection: close
Server: openresty
x-memc: HIT
x-memc-key: d61b47e4ec29f8f41157709326ec7db967425ab6843b9d88d0a4cbc0abe1a214
x-memc-age: 236
x-memc-expires: 364
x-az: us-east-1c
x-task-id: 9b5a405761724a11a434fc2769395065
Date: Tue, 09 Dec 2025 15:07:19 GMT
Cache-Control: public, max-age=600
ETag: W/"3c031c6fc90153e6998bc09a635c9acd"
Vary: accept-encoding
Vary: Origin
X-Cache: Hit from cloudfront
Via: 1.1 cbf33f1ce87e15a598a4a078f6825e00.cloudfront.net (CloudFront)
X-Amz-Cf-Pop: MAD53-P8
Alt-Svc: h3=":443"; ma=86400
X-Amz-Cf-Id: ItJ7vQohLkYbTfk6kpdh6_eLDzlz45mh8d9mGh_hna5pczFjNLOMxA==
Age: 457
Content-Length: 2912

{"results":[{"id":643,"adult":false},{"id":1619,"adult":false},{"id":5864730,"adult":false},{"id":5601818,"adult":false},{"id":3327907,"adult":false},{"id":52,"adult":false},{"id":3496874,"adult":false},{"id":5432409,"adult":null},{"id":5432408,"adult":null},{"id":557591,"adult":false},{"id":5432407,"adult":null},{"id":5864731,"adult":false},{"id":4478422,"adult":false},{"id":5321046,"adult":null},{"id":5864732,"adult":false},{"id":5369559,"adult":false},{"id":3796139,"adult":false},{"id":5827236,"adult":false},{"id":5864733,"adult":false},{"id":5864734,"adult":false},{"id":5864735,"adult":false},{"id":5321037,"adult":null},{"id":5864736,"adult":false},{"id":5568375,"adult":null},{"id":5864737,"adult":false},{"id":2173679,"adult":false},{"id":1096126,"adult":false},{"id":589474,"adult":false},{"id":3022324,"adult":false},{"id":5273812,"adult":null},{"id":3573175,"adult":false},{"id":2534265,"adult":false},{"id":5864738,"adult":false},{"id":1538955,"adult":false},{"id":1948752,"adult":false},{"id":5864739,"adult":false},{"id":1228840,"adult":false},{"id":180929,"adult":false},{"id":5864740,"adult":false},{"id":2244348,"adult":false},{"id":5864741,"adult":false},{"id":3280018,"adult":false},{"id":5864742,"adult":false},{"id":3669568,"adult":false},{"id":4951540,"adult":false},{"id":2130315,"adult":false},{"id":3985976,"adult":false},{"id":2555722,"adult":false},{"id":1768503,"adult":false},{"id":2901330,"adult":false},{"id":2895641,"adult":false},{"id":3701717,"adult":false},{"id":1202674,"adult":false},{"id":1104687,"adult":false},{"id":29605,"adult":false},{"id":5858808,"adult":false},{"id":20206,"adult":false},{"id":5664,"adult":false},{"id":5864743,"adult":false},{"id":5864744,"adult":false},{"id":20063,"adult":false},{"id":56960,"adult":false},{"id":5864745,"adult":false},{"id":122,"adult":false},{"id":5864746,"adult":false},{"id":21655,"adult":false},{"id":4597657,"adult":false},{"id":5864747,"adult":false},{"id":5864748,"adult":false},{"id":5864749,"adult":false},{"id":679,"adult":false},{"id":5864750,"adult":false},{"id":5864751,"adult":false},{"id":63585,"adult":false},{"id":5864752,"adult":false},{"id":64381,"adult":false},{"id":5864753,"adult":false},{"id":5864754,"adult":false},{"id":64382,"adult":false},{"id":5864755,"adult":false},{"id":5864756,"adult":false},{"id":5864757,"adult":false},{"id":5864758,"adult":false},{"id":5864759,"adult":false},{"id":5864760,"adult":false},{"id":5864761,"adult":false},{"id":1611159,"adult":false},{"id":5864762,"adult":false},{"id":5864763,"adult":false},{"id":5155071,"adult":false},{"id":5864764,"adult":false},{"id":4293681,"adult":false},{"id":2782172,"adult":false},{"id":5864765,"adult":false},{"id":5373347,"adult":false},{"id":1897314,"adult":false},{"id":1296562,"adult":false},{"id":3858813,"adult":false},{"id":3161175,"adult":false},{"id":5864766,"adult":false}],"page":29,"total_pages":69,"total_results":6860}