HTTP/1.1 200 OK
Content-Type: application/json;charset=utf-8
Transfer-Encoding: chunked
Connection: close
Server: openresty
x-memc: MISS, STORE
x-memc-key: 2717ad80af4c57f9a65866667b2607ab1d1d490b6fe7f4609769446ccadba0f7
x-memc-age: 0
x-memc-expires: 600
x-az: us-east-1b
x-task-id: 30da6ae4440a42f0a445f111617018a6
Date: Tue, 09 Dec 2025 15:22:32 GMT
Cache-Control: public, max-age=485
ETag: W/"792176cee1bc4236d0bd5fbf6f36f135"
Vary: accept-encoding
Vary: Origin
X-Cache: RefreshHit from cloudfront
Via: 1.1 3d3cfcce2bc7d8cdd0937a7781e828e8.cloudfront.net (CloudFront)
X-Amz-Cf-Pop: MAD53-P8
Alt-Svc: h3=":443"; ma=86400
X-Amz-Cf-Id: lFIkQ-JOGmSB06zMeu3u-ZfxRqfEvc2VIJy8Pe4OxGB5RCBnbVXNDw==
Content-Length: 2882

{"results":[{"id":5866440,"adult":false},{"id":5866441,"adult":false},{"id":5866442,"adult":false},{"id":5866443,"adult":false},{"id":5856459,"adult":null},{"id":5856448,"adult":null},{"id":5856451,"adult":null},{"id":5856457,"adult":null},{"id":5866444,"adult":false},{"id":5866445,"adult":false},{"id":1068848,"adult":false},{"id":5862152,"adult":null},{"id":1509922,"adult":false},{"id":1160633,"adult":false},{"id":5866446,"adult":false},{"id":3919803,"adult":null},{"id":5861926,"adult":null},{"id":5861927,"adult":null},{"id":5861928,"adult":null},{"id":5861929,"adult":null},{"id":5861930,"adult":null},{"id":5861931,"adult":null},{"id":5861932,"adult":null},{"id":5863237,"adult":null},{"id":5863238,"adult":null},{"id":5863243,"adult":null},{"id":5863247,"adult":null},{"id":5863251,"adult":null},{"id":5863254,"adult":null},{"id":5863256,"adult":null},{"id":5863259,"adult":null},{"id":5863262,"adult":null},{"id":5863265,"adult":null},{"id":5863267,"adult":null},{"id":5863268,"adult":null},{"id":5863269,"adult":null},{"id":5863273,"adult":null},{"id":5863275,"adult":null},{"id":5863277,"adult":null},{"id":5863281,"adult":null},{"id":5863282,"adult":null},{"id":5863289,"adult":null},{"id":5705665,"adult":null},{"id":5866447,"adult":false},{"id":1213074,"adult":false},{"id":102402,"adult":false},{"id":5863563,"adult":null},{"id":934219,"adult":false},{"id":5862156,"adult":null},{"id":2608735,"adult":false},{"id":1333767,"adult":false},{"id":5866448,"adult":false},{"id":110515,"adult":false},{"id":1852809,"adult":false},{"id":128957,"adult":false},{"id":5790408,"adult":null},{"id":5790409,"adult":null},{"id":5790410,"adult":null},{"id":5790412,"adult":null},{"id":5845113,"adult":null},{"id":5845114,"adult":null},{"id":5845116,"adult":null},{"id":5845117,"adult":null},{"id":5845118,"adult":null},{"id":5845120,"adult":null},{"id":5845121,"adult":null},{"id":5845122,"adult":null},{"id":5845123,"adult":null},{"id":5845124,"adult":null},{"id":5845125,"adult":null},{"id":5845127,"adult":null},{"id":5845128,"adult":null},{"id":5845130,"adult":null},{"id":5845131,"adult":null},{"id":1575059,"adult":false},{"id":2231488,"adult":false},{"id":3513813,"adult":false},{"id":5862136,"adult":null},{"id":5862139,"adult":null},{"id":5862141,"adult":null},{"id":5862142,"adult":null},{"id":5862150,"adult":null},{"id":5862151,"adult":null},{"id":5862155,"adult":null},{"id":5862132,"adult":null},{"id":5862130,"adult":null},{"id":5862126,"adult":null},{"id":5862120,"adult":null},{"id":5862121,"adult":null},{"id":5862122,"adult":null},{"id":5862123,"adult":null},{"id":5862124,"adult":null},{"id":5862125,"adult":null},{"id":5866449,"adult":false},{"id":5862118,"adult":null},{"id":18694,"adult":false},{"id":3880701,"adult":false},{"id":4917606,"adult":null},{"id":5859001,"adult":null},{"id":5866450,"adult":false}],"page":60,"total_pages":69,"total_results":6860}