HTTP/1.1 200 OK
Content-Type: application/json;charset=utf-8
Transfer-Encoding: chunked
Connection: close
Server: openresty
x-memc: MISS, STORE
x-memc-key: 4ceb9a6ebbdd747c4f41306598c183eced65ed246859f2ce949ce12099ba8340
x-memc-age: 0
x-memc-expires: 600
x-az: us-east-1a
x-task-id: 739b3c9060e343a0ba63ac3c33a555bf
Date: Tue, 09 Dec 2025 15:07:20 GMT
Cache-Control: public, max-age=600
ETag: W/"91b14809ae26c5069de20234d1ca7db7"
Vary: accept-encoding
Vary: Origin
X-Cache: Hit from cloudfront
Via: 1.1 8651dec5501a9be54b46f44ea7098ae2.cloudfront.net (CloudFront)
X-Amz-Cf-Pop: MAD53-P8
Alt-Svc: h3=":443"; ma=86400
X-Amz-Cf-Id: cCRSrPTb14HkPG57_3n3wmbm651O7Oe4hjQSZsFHVZtXnbQMxp_ozg==
Age: 456
Content-Length: 2949

{"results":[{"id":5865004,"adult":false},{"id":5865005,"adult":false},{"id":1397086,"adult":false},{"id":5865006,"adult":false},{"id":1218671,"adult":false},{"id":5853418,"adult":null},{"id":5865007,"adult":false},{"id":1223174,"adult":false},{"id":5865008,"adult":false},{"id":5104718,"adult":false},{"id":5865009,"adult":false},{"id":2736388,"adult":false},{"id":4367029,"adult":false},{"id":3934414,"adult":false},{"id":1984524,"adult":false},{"id":5865010,"adult":false},{"id":104336,"adult":false},{"id":2458649,"adult":false},{"id":100450,"adult":true},{"id":5865011,"adult":false},{"id":5865012,"adult":false},{"id":84933,"adult":false},{"id":5865013,"adult":false},{"id":5853420,"adult":null},{"id":5865014,"adult":false},{"id":5865015,"adult":false},{"id":5865016,"adult":false},{"id":5865017,"adult":false},{"id":5865018,"adult":false},{"id":5865019,"adult":false},{"id":5865020,"adult":false},{"id":5865021,"adult":false},{"id":4332825,"adult":false},{"id":4647548,"adult":true},{"id":5865022,"adult":false},{"id":4711523,"adult":false},{"id":5865023,"adult":false},{"id":2627467,"adult":false},{"id":3459634,"adult":false},{"id":5865024,"adult":false},{"id":2205193,"adult":false},{"id":3467183,"adult":false},{"id":5865025,"adult":false},{"id":5865026,"adult":false},{"id":5865027,"adult":false},{"id":5865028,"adult":false},{"id":5865029,"adult":false},{"id":5470250,"adult":false},{"id":5865030,"adult":false},{"id":5865031,"adult":false},{"id":5865032,"adult":false},{"id":5865033,"adult":false},{"id":5865034,"adult":false},{"id":5865035,"adult":false},{"id":3209665,"adult":false},{"id":5865036,"adult":false},{"id":5865037,"adult":false},{"id":5865038,"adult":false},{"id":5865039,"adult":false},{"id":5865040,"adult":false},{"id":5865041,"adult":false},{"id":5865042,"adult":false},{"id":2013761,"adult":false},{"id":5865043,"adult":false},{"id":5862435,"adult":null},{"id":4290759,"adult":false},{"id":5865044,"adult":false},{"id":5865045,"adult":false},{"id":2034523,"adult":false},{"id":1368849,"adult":false},{"id":1348893,"adult":false},{"id":5865046,"adult":false},{"id":2053388,"adult":false},{"id":5865047,"adult":false},{"id":5865048,"adult":false},{"id":1215617,"adult":false},{"id":5865049,"adult":false},{"id":3095891,"adult":false},{"id":1223737,"adult":false},{"id":5865050,"adult":false},{"id":2405658,"adult":true},{"id":2994598,"adult":true},{"id":5865051,"adult":false},{"id":5865052,"adult":false},{"id":5865053,"adult":false},{"id":2023418,"adult":false},{"id":5865054,"adult":false},{"id":5865055,"adult":false},{"id":5865056,"adult":false},{"id":5865057,"adult":true},{"id":2474537,"adult":false},{"id":5865058,"adult":false},{"id":5865059,"adult":false},{"id":5865060,"adult":false},{"id":1795299,"adult":false},{"id":5865061,"adult":false},{"id":5865062,"adult":false},{"id":5865063,"adult":false},{"id":5865064,"adult":false},{"id":5865065,"adult":false}],"page":35,"total_pages":69,"total_results":6860}