HTTP/1.1 200 OK
Content-Type: application/json;charset=utf-8
Transfer-Encoding: chunked
Connection: close
Server: openresty
x-memc: MISS, STORE
x-memc-key: 47f959f827b59da04f07528ea83b92e64b8c3448adadba62b2f1f163c8cbdf2d
x-memc-age: 0
x-memc-expires: 600
x-az: us-east-1b
x-task-id: 30da6ae4440a42f0a445f111617018a6
Date: Tue, 09 Dec 2025 15:22:30 GMT
Cache-Control: public, max-age=484
ETag: W/"78c5b5a936465015d6015951a8ed9bdc"
Vary: accept-encoding
Vary: Origin
X-Cache: RefreshHit from cloudfront
Via: 1.1 19870c0393f1333e354741940caea7ba.cloudfront.net (CloudFront)
X-Amz-Cf-Pop: MAD53-P8
Alt-Svc: h3=":443"; ma=86400
X-Amz-Cf-Id: 2xDww_5aeW3XejRMr1pXQO3RStGE9B85dMPtUHu9yFCA7IIYh8v9Pg==
Content-Length: 2933

{"results":[{"id":5684693,"adult":false},{"id":5865840,"adult":false},{"id":5865841,"adult":false},{"id":1948132,"adult":false},{"id":5865842,"adult":false},{"id":1647822,"adult":false},{"id":5865843,"adult":false},{"id":5865844,"adult":false},{"id":3891783,"adult":false},{"id":5865845,"adult":false},{"id":1518,"adult":false},{"id":5865846,"adult":false},{"id":3874643,"adult":false},{"id":4714813,"adult":false},{"id":5865847,"adult":false},{"id":5865848,"adult":false},{"id":1480855,"adult":false},{"id":5865849,"adult":false},{"id":2277389,"adult":false},{"id":5865850,"adult":false},{"id":5865851,"adult":false},{"id":5865852,"adult":true},{"id":5865853,"adult":false},{"id":5865854,"adult":false},{"id":5865855,"adult":false},{"id":5865856,"adult":false},{"id":5865857,"adult":false},{"id":5865858,"adult":false},{"id":5865859,"adult":false},{"id":74288,"adult":false},{"id":85480,"adult":false},{"id":1216142,"adult":false},{"id":4400157,"adult":false},{"id":5865860,"adult":false},{"id":42803,"adult":false},{"id":3586530,"adult":false},{"id":1238200,"adult":false},{"id":2317145,"adult":false},{"id":1508809,"adult":false},{"id":2242585,"adult":false},{"id":5865861,"adult":false},{"id":1571805,"adult":false},{"id":5472,"adult":false},{"id":3668358,"adult":false},{"id":235169,"adult":false},{"id":4003014,"adult":false},{"id":1087700,"adult":false},{"id":3892422,"adult":false},{"id":3769246,"adult":false},{"id":3841673,"adult":false},{"id":4315454,"adult":false},{"id":5865862,"adult":false},{"id":4525360,"adult":false},{"id":5865863,"adult":false},{"id":5332865,"adult":false},{"id":1401921,"adult":false},{"id":4350646,"adult":false},{"id":4350647,"adult":false},{"id":5865864,"adult":false},{"id":2294,"adult":false},{"id":4583053,"adult":false},{"id":7396,"adult":false},{"id":4050140,"adult":false},{"id":1396488,"adult":false},{"id":5717,"adult":false},{"id":2093325,"adult":false},{"id":1141683,"adult":false},{"id":5865865,"adult":false},{"id":5865866,"adult":false},{"id":5865867,"adult":false},{"id":5110491,"adult":false},{"id":5716,"adult":false},{"id":5865868,"adult":false},{"id":5110510,"adult":false},{"id":5110477,"adult":false},{"id":4529508,"adult":false},{"id":5865869,"adult":false},{"id":5865870,"adult":false},{"id":5865871,"adult":false},{"id":2779494,"adult":false},{"id":3164274,"adult":false},{"id":5865872,"adult":false},{"id":5865873,"adult":false},{"id":5865874,"adult":false},{"id":5865875,"adult":false},{"id":5865876,"adult":false},{"id":3403656,"adult":false},{"id":5825580,"adult":false},{"id":5865877,"adult":false},{"id":5865878,"adult":false},{"id":5865879,"adult":false},{"id":5865880,"adult":false},{"id":5865881,"adult":false},{"id":5862071,"adult":false},{"id":5865882,"adult":false},{"id":2250770,"adult":false},{"id":31093,"adult":false},{"id":5104052,"adult":false},{"id":1439272,"adult":false},{"id":1224201,"adult":false}],"page":48,"total_pages":69,"total_results":6860}